{
    "@class": "com.kony.gen.viz.model.component.KVizButton",
    "DNDConfig": null,
    "__markedForDelete__": true,
    "__parentReadjusting__": false,
    "_height_": {
        "type": "string",
        "value": "32dp"
    },
    "_margin_": [
        6,
        6,
        6,
        6
    ],
    "_padding_": [
        5,
        0,
        5,
        0
    ],
    "_skin_": "s153be903e374edfb6bf94db087c0e9e",
    "_text_": "ADD NEW BENEFICIARY",
    "_top_": {
        "type": "string",
        "value": "2%"
    },
    "_width_": {
        "type": "ref",
        "value": "preferred"
    },
    "canUpdateUI": true,
    "centerx": {
        "type": "string",
        "value": "50%"
    },
    "containerweight": 100,
    "contentalignment": 5,
    "disabledSkins": {},
    "displaytext": true,
    "focusskin": "sd48ed5e8c714826aa86ef94c77ac9a0",
    "id": "btnSecondary",
    "ide_onClick": "AS_Button_a711b69fbec244d3981dd7c1c1a3fdd3",
    "info": null,
    "isvisible": true,
    "kuid": "d45be73a67a845ecaa1b4a5dff827e7f",
    "maxwidth": {
        "type": "string",
        "value": "90%"
    },
    "name": "kony.ui.Button",
    "paddinginpixel": false,
    "parent": "flxCongratulations",
    "pf": "frmCongratulations",
    "wType": "Button",
    "zindex": 1
}