{
    "@class": "com.kony.gen.viz.model.container.KVizHBox",
    "DNDConfig": null,
    "_margin_": [
        0,
        0,
        0,
        5
    ],
    "_orientation_": 1,
    "_padding_": [
        0,
        0,
        0,
        0
    ],
    "_percent_": true,
    "_position_": 3,
    "_skin_": "s066e1f55806426ca40936afa9e01f49",
    "allboxes": [],
    "canUpdateUI": true,
    "children": [
        "lblDescription"
    ],
    "containerweight": 100,
    "contextmenu": null,
    "id": "hbxAlertBody",
    "info": null,
    "isvisible": true,
    "kuid": "ceb7785608ee4d67b0a7366bab6f5eb0",
    "layouttype": 0,
    "margininpixel": false,
    "name": "kony.ui.Box",
    "parent": "popupCommonAlert",
    "pf": "popupCommonAlert",
    "vexpand": false,
    "wType": "HBox",
    "widgetalignment": 2
}