{
    "DNDConfig": null,
    "__parentReadjusting__": false,
    "_bottom_": {
        "type": "string",
        "value": "0dp"
    },
    "_height_": {
        "type": "string",
        "value": "93%"
    },
    "_left_": {
        "type": "string",
        "value": "0dp"
    },
    "_margin_": [
        0,
        0,
        0,
        0
    ],
    "_orientation_": 6,
    "_padding_": [
        0,
        0,
        0,
        0
    ],
    "_percent_": true,
    "_skin_": "sc6202db678046b3bdfcfe8033d7fab8",
    "_width_": {
        "type": "string",
        "value": "100%"
    },
    "allboxes": [],
    "canUpdateUI": true,
    "children": [
        "flxPhnDetails",
        "flxDisplayName",
        "flxAccDetails",
        "btnConfirm",
        "btnEditTranscation"
    ],
    "clipbounds": true,
    "containerweight": 100,
    "enablescrolling": true,
    "id": "FlexScrollContainerConfirmWithdraw",
    "info": null,
    "isvisible": true,
    "kuid": "dd4176275d634c61aa456743ee35791c",
    "layouttype": 4,
    "name": "kony.ui.FlexContainer",
    "parent": "frmConfirmNPPRegistration",
    "pf": "frmConfirmNPPRegistration",
    "snapgridsize": 10,
    "snaptogrid": true,
    "vizProps": {},
    "wType": "FlexContainer",
    "widgetalignment": 1,
    "zindex": 1
}