{
    "DNDConfig": null,
    "__parentReadjusting__": false,
    "_height_": {
        "type": "string",
        "value": "100%"
    },
    "_left_": {
        "type": "string",
        "value": "0dp"
    },
    "_margin_": [
        0,
        0,
        0,
        0
    ],
    "_orientation_": 6,
    "_padding_": [
        0,
        0,
        0,
        0
    ],
    "_percent_": true,
    "_skin_": "s286abffb3b04a0494762eef8dfb7aae",
    "_top_": {
        "type": "string",
        "value": "0dp"
    },
    "_width_": {
        "type": "string",
        "value": "100%"
    },
    "allboxes": [],
    "autogrowmode": 0,
    "canUpdateUI": true,
    "children": [
        "flxAndrdTouchAlert",
        "flxTouchIdtryAgain",
        "flxlogo"
    ],
    "clipbounds": true,
    "containerweight": 100,
    "enablescrolling": true,
    "id": "flxtouchIdAndrd",
    "ide_onClick": "AS_FlexContainer_e65d84d3608345028bc9babd5377f420",
    "info": null,
    "isvisible": false,
    "kuid": "b206a7e402944a38b8c700989f582240",
    "layouttype": 2,
    "name": "kony.ui.FlexContainer",
    "parent": "apScrollEnable",
    "pf": "frmLoginKA",
    "snapgridsize": 10,
    "snaptogrid": true,
    "wType": "FlexContainer",
    "widgetalignment": 1,
    "zindex": 5
}