{
    "@class": "com.kony.gen.viz.model.component.KVizTextBox2",
    "DNDConfig": null,
    "__parentReadjusting__": false,
    "_height_": {
        "type": "string",
        "value": "100%"
    },
    "_left_": {
        "type": "string",
        "value": "1%"
    },
    "_margin_": [
        0,
        0,
        0,
        0
    ],
    "_padding_": [
        0,
        0,
        0,
        0
    ],
    "_placeholder_": "",
    "_skin_": "sa25e426dcb94c13ab46f59a2b31a09a",
    "_text_": "",
    "_top_": {
        "type": "string",
        "value": "0%"
    },
    "_width_": {
        "type": "string",
        "value": "90%"
    },
    "android": {
        "ide_onBeginEditing": "AS_TextField_c455a979d0fb4ac8917a9a10a35d9b78",
        "ide_onEndEditing": "AS_TextField_j4077d4d546e481f903e918a067c5ec9"
    },
    "autocapitalize": "none",
    "autocomplete": false,
    "autocorrect": false,
    "autofilter": false,
    "canUpdateUI": true,
    "containerheight": "",
    "containerheightmode": 1,
    "containerweight": 100,
    "contentalignment": 7,
    "focusskin": "sa25e426dcb94c13ab46f59a2b31a09a",
    "id": "txtAliasType",
    "ide_onDone": "AS_TextField_f4f4107326a842cbbc0c602607588a1f",
    "ide_onTextChange": "AS_TextField_e827efb40ea240978fe35ea34ccd7f57",
    "ide_onTouchEnd": "AS_TextField_e43d42887bae4263a524080a5b6ad41b",
    "ide_onTouchStart": "AS_TextField_d9ad5cacfef148819d347bda85297150",
    "info": null,
    "iphone": {
        "ide_onBeginEditing": "AS_TextField_e0afbaeca6684ff5887fa217c17e96e1",
        "ide_onEndEditing": "AS_TextField_i97ee0fd2f6743eeb32656f36f78a519",
        "psp": {
            "keyboardActionLabel": 4,
            "showClearButton": false,
            "showCloseButton": false,
            "showProgressIndicator": false
        }
    },
    "isvisible": false,
    "keyboardactionlabel": 4,
    "keyboardstyle": "A",
    "keyboardtype": "A",
    "kuid": "d8ae0b5367fb43bab63d76e8756a0ab3",
    "maxtextlength": 15,
    "mode": "A",
    "name": "kony.ui.TextBox2",
    "paddinginpixel": false,
    "parent": "flxAlias",
    "pf": "frmJoMoPay",
    "securetextentry": false,
    "showclearbutton": false,
    "showoprogressindicator": false,
    "textinputmode": "A",
    "viewtype": "default",
    "wType": "TextField",
    "zindex": 1
}