{
  "operationConfig" : {
    "name" : "getDirectMarketingAds9350",
    "type" : "MappedToBackend",
    "cachable" : false,
    "smsEnabled" : false,
    "security" : "public",
    "responseEncoding" : "UTF-8",
    "httpMethod" : "GET",
    "decodeResponseBody" : false,
    "iMapping" : "<?xml version=\"1.0\" encoding=\"UTF-8\" standalone=\"yes\"?><mapper xmlns=\"http://www.kony.com/ns/mapper\">                <map inputpath=\"request_in\" outputpath=\"request_out\">                                <set-param inputpath=\"description\" outputpath=\"description\"/>                </map></mapper>",
    "oMapping" : "<?xml version=\"1.0\" encoding=\"UTF-8\" standalone=\"yes\"?><mapper xmlns=\"http://www.kony.com/ns/mapper\">                <map inputpath=\"response_in\" outputpath=\"response_out\">                                <set-param input=\"develop,  11/03/2017 01:08 PM\" outputpath=\"version\"/>                                <set-param input=\"2.5/20\" outputpath=\"release\"/>                                <set-param input=\"ba7ce8dae4ab466db7cb61bce5c0c523\" outputpath=\"sessionId\"/>                                <set-param input=\"a3a2baaa2ac34e96ba44696b7361c2a7\" outputpath=\"campaignId\"/>                                    <map inputpath=\"DirectMarketing\" outputpath=\"DirectMarketing\">                                                <map inputpath=\"interactions\" outputpath=\"interactions\">                                         <set-param inputpath=\"navigationId\" outputpath=\"navigationId\"/>                                            <set-param inputpath=\"navigationType\" outputpath=\"navigationType\"/>                                            <set-param inputpath=\"navigationURL\" outputpath=\"navigationURL\"/>                         <set-param inputpath=\"colour\" outputpath=\"colour\"/>                         <set-param inputpath=\"text\" outputpath=\"text\"/>                   </map>                                                <set-param inputpath=\"adType\" outputpath=\"adType\"/>                                                <set-param inputpath=\"visible\" outputpath=\"visible\"/>                                                <set-param inputpath=\"imageURL\" outputpath=\"imageURL\"/>                                                <set-param inputpath=\"description\" outputpath=\"description\"/>                                                <set-param inputpath=\"model\" outputpath=\"model\"/>                                                <set-param inputpath=\"id\" outputpath=\"id\"/>                                                <set-param inputpath=\"navigationURL\" outputpath=\"navigationURL\"/>                                                <set-param inputpath=\"navigationType\" outputpath=\"navigationType\"/>                                </map>                </map></mapper>",
    "applyCommonMapping" : false,
    "backendMeta" : {
      "serviceVersion" : "1.0",
      "operationName" : "getDirectMarketingAds",
      "serviceName" : "RetailBankingBEServices"
    },
    "relationshipHierarchyMapping" : {
      "children" : [ ],
      "name" : "DirectMarketing",
      "selected" : true
    },
    "requestXmlMappingOverride" : true,
    "responseXmlMappingOverride" : true
  }
}