{
    "@class": "com.kony.gen.viz.model.component.KVizLabel",
    "DNDConfig": null,
    "__markedForDelete__": true,
    "__parentReadjusting__": false,
    "_height_": {
        "type": "ref",
        "value": "preferred"
    },
    "_left_": {
        "type": "string",
        "value": "1%"
    },
    "_margin_": [
        1,
        1,
        1,
        1
    ],
    "_padding_": [
        0,
        0,
        0,
        0
    ],
    "_skin_": "s1b0f89cfd734cb39fe321eea964e34c",
    "_text_": "Create Secure Code",
    "_top_": {
        "type": "string",
        "value": "0dp"
    },
    "_width_": {
        "type": "ref",
        "value": "preferred"
    },
    "_wrapping_": 2,
    "canUpdateUI": true,
    "containerweight": 100,
    "contentalignment": 4,
    "enabled": false,
    "id": "lblPersonNameKA",
    "info": null,
    "ipad": {
        "psp": {
            "wrapping": 2
        }
    },
    "iphone": {
        "psp": {
            "wrapping": 2
        }
    },
    "isvisible": true,
    "kuid": "ae6f58c1393440af85ead03bf9ce06f3",
    "name": "kony.ui.Label",
    "parent": "CopyFlexContainerImportantNotice0ca16e307340a44",
    "pf": "frmConfirmCashWithDraw",
    "texti18n": "i18n.cashWithdraw.createSecureCode",
    "tooltip": "",
    "wType": "Label"
}