{
    "@class": "com.kony.gen.viz.model.component.KVizButton",
    "DNDConfig": null,
    "__parentReadjusting__": false,
    "_height_": {
        "type": "string",
        "value": "50dp"
    },
    "_margin_": [
        6,
        6,
        6,
        6
    ],
    "_padding_": [
        0,
        0,
        0,
        0
    ],
    "_right_": {
        "type": "string",
        "value": "0dp"
    },
    "_skin_": "s1a96e0a6f17402ca691f55c7b41e893",
    "_text_": "Edit",
    "_top_": {
        "type": "string",
        "value": "0dp"
    },
    "_width_": {
        "type": "string",
        "value": "60dp"
    },
    "canUpdateUI": true,
    "containerweight": 100,
    "contentalignment": 5,
    "displaytext": true,
    "focusskin": "s55cab51ac7b40b5a2db38b7b9c5822a",
    "id": "editScheduledTransactionButton",
    "ide_onClick": "AS_Button_d8da91e7966647bd95708b797ecfc5c7",
    "info": null,
    "iphone": {
        "psp": {
            "showProgressIndicator": false
        }
    },
    "isvisible": true,
    "kuid": "77bacd794ad44ae6b24d917f48ce3182",
    "minwidth": {
        "type": "string",
        "value": "50dp"
    },
    "name": "kony.ui.Button",
    "onclick": "AS_Button_d8da91e7966647bd95708b797ecfc5c7",
    "paddinginpixel": false,
    "parent": "titleBarWrapper",
    "pf": "frmScheduledTransactionDetailsKA",
    "showprogressindicator": false,
    "texti18n": "i18n.common.edit",
    "wType": "Button",
    "zindex": 1
}