{
    "@class": "com.kony.gen.viz.model.component.KVizButton",
    "DNDConfig": null,
    "__markedForDelete__": true,
    "__parentReadjusting__": false,
    "_height_": {
        "type": "string",
        "value": "60%"
    },
    "_left_": {
        "type": "string",
        "value": "1%"
    },
    "_margin_": [
        6,
        6,
        6,
        6
    ],
    "_padding_": [
        0,
        0,
        0,
        0
    ],
    "_skin_": "s494451ca8854dac96d3671570e53376",
    "_text_": "",
    "_top_": {
        "type": "string",
        "value": "5%"
    },
    "_width_": {
        "type": "string",
        "value": "36%"
    },
    "canUpdateUI": true,
    "containerweight": 100,
    "contentalignment": 5,
    "displaytext": true,
    "focusskin": "s80a175c468242d792bdc547cfe69645",
    "id": "btnWithoutInterest",
    "ide_onClick": "AS_Button_b7a31fd2cd5f460795fa7a841d371bc0",
    "info": null,
    "isvisible": false,
    "kuid": "jde317c2c5fb4bf69e8f157f9a9e35d6",
    "name": "kony.ui.Button",
    "parent": "flxMaturityInstructions",
    "pf": "frmOpenTermDeposit",
    "texti18n": "i18n.termDeposit.renWithOutInterest",
    "wType": "Button",
    "zindex": 1
}