{
    "@class": "com.kony.gen.viz.model.component.KVizButton",
    "DNDConfig": null,
    "__parentReadjusting__": false,
    "_height_": {
        "type": "string",
        "value": "90%"
    },
    "_left_": {
        "type": "string",
        "value": "90%"
    },
    "_margin_": [
        6,
        6,
        6,
        6
    ],
    "_padding_": [
        0,
        0,
        0,
        0
    ],
    "_skin_": "s419d27729664b36b1aa420739a0c9a2",
    "_text_": "Q",
    "_top_": {
        "type": "string",
        "value": "0dp"
    },
    "_width_": {
        "type": "string",
        "value": "10%"
    },
    "canUpdateUI": true,
    "containerweight": 100,
    "contentalignment": 5,
    "disabledSkins": {},
    "displaytext": true,
    "focusskin": "s419d27729664b36b1aa420739a0c9a2",
    "id": "btnGetAllAliases",
    "ide_onClick": "AS_Button_d71e185c3d9c44e8bb8653a3093c21a8",
    "info": null,
    "iscustomlayout": true,
    "isvisible": true,
    "kuid": "h075b41085da4e8a894e00926ecf70f7",
    "name": "kony.ui.Button",
    "parent": "flxHeader",
    "pf": "frmIPSManageBene",
    "retainflexpositionproperties": true,
    "wType": "Button",
    "zindex": 1
}