{
    "@class": "com.kony.gen.viz.model.component.KVizButton",
    "DNDConfig": null,
    "__parentReadjusting__": false,
    "_height_": {
        "type": "string",
        "value": "8%"
    },
    "_margin_": [
        6,
        6,
        6,
        6
    ],
    "_padding_": [
        0,
        0,
        0,
        0
    ],
    "_skin_": "sf7766faf6e34d0789442a84c1e76e1a",
    "_text_": "",
    "_width_": {
        "type": "string",
        "value": "70%"
    },
    "canUpdateUI": true,
    "centerx": {
        "type": "string",
        "value": "50%"
    },
    "centery": {
        "type": "string",
        "value": "90%"
    },
    "containerweight": 100,
    "contentalignment": 5,
    "displaytext": true,
    "focusskin": "sad5d6d4890b44858a39e4bf8a290332",
    "id": "btnIPSTransfer",
    "ide_onClick": "AS_Button_g0acc7751ef84dcd87f81eb1beb8e342",
    "info": null,
    "isvisible": true,
    "kuid": "b974602075e24854a31372474e30aeaf",
    "name": "kony.ui.Button",
    "parent": "flxIPSBeneList",
    "pf": "frmIPSManageBene",
    "texti18n": "i18n.CLIQ.Title",
    "wType": "Button",
    "zindex": 1
}