{
    "@class": "com.kony.gen.viz.model.component.KVizImage2",
    "DNDConfig": null,
    "__parentReadjusting__": false,
    "_base64_": null,
    "_height_": {
        "type": "ref",
        "value": "preferred"
    },
    "_margin_": [
        0,
        0,
        0,
        0
    ],
    "_padding_": [
        0,
        0,
        0,
        0
    ],
    "_render_": true,
    "_right_": {
        "type": "string",
        "value": "2%"
    },
    "_skin_": "sad9c9efaa8d458ebea1d1368257b311",
    "_src_": "right_chevron_icon.png",
    "_width_": {
        "type": "string",
        "value": "5%"
    },
    "android": {
        "render": false
    },
    "canUpdateUI": true,
    "centery": {
        "type": "string",
        "value": "50%"
    },
    "containerId": true,
    "containerweight": 100,
    "context": {
        "channel": "mobile",
        "platform": "iphone",
        "templateType": "segments",
        "topLevelBox": null
    },
    "enabled": false,
    "id": "chevron",
    "imagescalemode": 1,
    "info": null,
    "invokedProperty": "src",
    "iphone": {
        "render": true
    },
    "isvisible": false,
    "kuid": "a679fba85e7648d89ec4a49971d95d58",
    "name": "kony.ui.Image2",
    "parent": "CopyFlexContainer011baa9bcad7141",
    "pf": "segtmpltchecknocolor",
    "spaan": {
        "render": false
    },
    "spabb": {
        "render": false
    },
    "spaip": {
        "render": true
    },
    "spawinphone8": {
        "render": false
    },
    "srcType": 1,
    "wType": "Image",
    "widgetalignment": 5,
    "winphone8": {
        "render": false
    },
    "zindex": 1
}