{
    "active": 1,
    "comments": {
        "7b1aa8fceb6b4070833e9eab879b0e5e": {
            "5206-4f86-4021-dad2-d9b4-b931": {
                "commentId": "5206-4f86-4021-dad2-d9b4-b931",
                "widgetId": "7b1aa8fceb6b4070833e9eab879b0e5e",
                "formId": "7b1aa8fceb6b4070833e9eab879b0e5e",
                "createdOn": 1464946534000,
                "createdById": "4c76385b-92b7-41a7-9e06-5c71184a1757",
                "createdBy": "Pranay Upadhyay",
                "createdByEmail": "pranay.upadhyay@kony.com",
                "lastModifiedTime": 1464946534000,
                "comment": "pod",
                "commentSrc": "functional preview",
                "active": 1,
                "channel": "mobile"
            },
            "15fe-0c47-7bda-4487-12cd-f039": {
                "commentId": "15fe-0c47-7bda-4487-12cd-f039",
                "widgetId": "7b1aa8fceb6b4070833e9eab879b0e5e",
                "formId": "7b1aa8fceb6b4070833e9eab879b0e5e",
                "createdOn": 1475848745000,
                "createdById": "a38209e0-5866-40c3-9757-07c120f01da1",
                "createdBy": "Luis Landivar",
                "createdByEmail": "luis.landivar@kony.com",
                "lastModifiedTime": 1475848745000,
                "comment": "great looking app",
                "commentSrc": "functional preview",
                "active": 1,
                "channel": "mobile"
            }
        }
    }
}