{
    "DNDConfig": null,
    "__parentReadjusting__": false,
    "_bottom_": {
        "type": "string",
        "value": "0dp"
    },
    "_height_": {
        "type": "string",
        "value": "48dp"
    },
    "_left_": {
        "type": "string",
        "value": "80%"
    },
    "_margin_": [
        0,
        0,
        0,
        0
    ],
    "_orientation_": 6,
    "_padding_": [
        0,
        0,
        0,
        0
    ],
    "_percent_": true,
    "_skin_": "s01cd88ea44545e489732b17ab243f09",
    "_width_": {
        "type": "string",
        "value": "20%"
    },
    "allboxes": [],
    "autogrowmode": 0,
    "canUpdateUI": true,
    "children": [
        "imgUserAction"
    ],
    "clipbounds": true,
    "containerweight": 100,
    "enablescrolling": true,
    "id": "flxVoice",
    "ide_onClick": "AS_FlexContainer_ee6a65968af14b18931d3817453c3c24",
    "info": null,
    "isvisible": true,
    "kuid": "c8e126971d39413e811581aff03e7f15",
    "layouttype": 2,
    "name": "kony.ui.FlexContainer",
    "parent": "flxUserInput",
    "pf": "frmChatBots",
    "snapgridsize": 10,
    "snaptogrid": true,
    "wType": "FlexContainer",
    "widgetalignment": 1,
    "zindex": 1
}