{
    "DNDConfig": null,
    "_height_": {
        "type": "string",
        "value": "50dp"
    },
    "_margin_": [
        0,
        0,
        0,
        0
    ],
    "_orientation_": 6,
    "_padding_": [
        0,
        0,
        0,
        0
    ],
    "_percent_": true,
    "_skin_": "sdffe3a6e4c944e3b529b423d61ecc65",
    "allboxes": [],
    "autogrowmode": 0,
    "canUpdateUI": true,
    "children": [
        "flxBotUserSwipe"
    ],
    "clipbounds": true,
    "containerId": true,
    "containerweight": 100,
    "enablescrolling": true,
    "id": "flxBotUserMsg",
    "info": null,
    "isTemplate": true,
    "isvisible": true,
    "kuid": "bd2e45c1c83f4302aedbda71cc442698",
    "layouttype": 2,
    "name": "kony.ui.FlexContainer",
    "parent": "tmpSegBotUserInput",
    "pf": "tmpSegBotUserInput",
    "snapgridsize": 10,
    "snaptogrid": true,
    "wType": "FlexContainer",
    "widgetalignment": 1
}