{
    "DNDConfig": null,
    "_height_": {
        "type": "string",
        "value": "10%"
    },
    "_margin_": [
        0,
        0,
        0,
        0
    ],
    "_orientation_": 6,
    "_padding_": [
        0,
        0,
        0,
        0
    ],
    "_percent_": true,
    "_skin_": "s388f0c575ef4d08ac3a5ed0a4b90085",
    "allboxes": [],
    "autogrowmode": 0,
    "canUpdateUI": true,
    "children": [
        "lblCardNum",
        "lblCardHolderName",
        "flxCardNumberContainer"
    ],
    "clipbounds": true,
    "containerId": true,
    "containerweight": 100,
    "enablescrolling": true,
    "id": "flxCardNumber",
    "info": null,
    "isTemplate": true,
    "isvisible": true,
    "kuid": "a7093b0ea79a430d8135433c116eef72",
    "layouttype": 2,
    "name": "kony.ui.FlexContainer",
    "parent": "tmpCardNumber",
    "pf": "tmpCardNumber",
    "snapgridsize": 10,
    "snaptogrid": true,
    "wType": "FlexContainer",
    "widgetalignment": 1
}