{
    "DNDConfig": null,
    "__parentReadjusting__": false,
    "_height_": {
        "type": "string",
        "value": "92%"
    },
    "_left_": {
        "type": "string",
        "value": "0dp"
    },
    "_margin_": [
        0,
        0,
        0,
        0
    ],
    "_orientation_": 6,
    "_padding_": [
        0,
        0,
        0,
        0
    ],
    "_percent_": true,
    "_skin_": "s983be2a63374241a227da27bbc87097",
    "_top_": {
        "type": "string",
        "value": "8%"
    },
    "_width_": {
        "type": "string",
        "value": "100%"
    },
    "allboxes": [],
    "allowhorizontalbounce": true,
    "allowverticalbounce": true,
    "bounces": false,
    "canUpdateUI": true,
    "children": [
        "FlexContainer042b0725667e643",
        "FlexContainer0gcfd60c2f05d42",
        "additionalDetails1",
        "flxReccurrence",
        "flxSchedule",
        "CopynotesWrapper0fa62da5ca9ef4b",
        "CopynotesWrapper0c85909efb23b48",
        "CopynotesWrapper03de47f39b8bc46",
        "flxCommisionRate",
        "flxExchangeRate",
        "flxExchangeComm",
        "flxOtherComm",
        "flxExchangeCommTra",
        "flxCreditAmount",
        "flxLocalAmount",
        "FlexContainer002f7e6e2ce6b49",
        "CopyFlexContainer0i17dd2c8b09a4d",
        "flxNote",
        "flxImage",
        "lblFreType",
        "hiddenLblFromDate",
        "hiddenLblToDate",
        "lblBenName",
        "lblRemmit",
        "lblBenAdr1",
        "lblBenAdr2",
        "lblBenAdr3",
        "lblBenCity",
        "lblBenCountry",
        "lblCrearCode",
        "lblCrearType",
        "lblBenBankName",
        "lblBenBankAdr1",
        "lblBenBankAdr2",
        "lblBenBankCity",
        "lblBenBankCountry",
        "lblTransCur",
        "lblPmt1",
        "lblPmt2",
        "lblSwift",
        "lblNarr",
        "lblImbAdr1",
        "lblCorCharges",
        "lblImbAdr2",
        "lblImbCity",
        "lblCustomerID",
        "lblBenBranchCode",
        "lblIBAN",
        "lblRefID",
        "lblPmtDetails3",
        "lblPmtDetails4",
        "lblToAccType",
        "lblImbName",
        "lblImbCoun",
        "lblImbSC",
        "lblDealRefNo"
    ],
    "clipbounds": true,
    "containerweight": 100,
    "decelerat": false,
    "dragg": false,
    "enablescrolling": true,
    "horizontalscrollindicator": false,
    "id": "flxTransfers",
    "info": null,
    "isvisible": false,
    "kuid": "d6d54713101f4c23b0dd4827a3669daa",
    "layouttype": 4,
    "name": "kony.ui.FlexScrollContainer",
    "pagingenabled": false,
    "parent": "frmConfirmTransferKA",
    "pf": "frmConfirmTransferKA",
    "scrolldirection": 2,
    "snapgridsize": 10,
    "snaptogrid": true,
    "track": false,
    "verticalscrollindicator": false,
    "wType": "FlexScrollContainer",
    "widgetalignment": 1,
    "zindex": 1
}