{
    "@class": "com.kony.gen.viz.model.component.KVizLabel",
    "DNDConfig": null,
    "__parentReadjusting__": false,
    "_height_": {
        "type": "ref",
        "value": "preferred"
    },
    "_left_": {
        "type": "string",
        "value": "4.97%"
    },
    "_margin_": [
        1,
        1,
        1,
        1
    ],
    "_padding_": [
        0,
        0,
        0,
        0
    ],
    "_skin_": "scec492f4de846a6a0fc0cafc7d6fe2e",
    "_text_": "Balance Update",
    "_width_": {
        "type": "ref",
        "value": "preferred"
    },
    "_wrapping_": 2,
    "canUpdateUI": true,
    "centery": {
        "type": "string",
        "value": "50.00%"
    },
    "containerweight": 100,
    "contentalignment": 4,
    "enabled": false,
    "id": "CopylblSettingsNameKA09a00c7f47f8d4a",
    "info": null,
    "ipad": {
        "psp": {
            "wrapping": 2
        }
    },
    "iphone": {
        "psp": {
            "wrapping": 2
        }
    },
    "isvisible": true,
    "kuid": "37b5c9ae57be42aea18d6cfec289ffdc",
    "name": "kony.ui.Label",
    "parent": "FlxBalanceUpdate",
    "pf": "frmAccountAlertsKA",
    "texti18n": "i18n.settings.balanceUpdate",
    "tooltip": "",
    "wType": "Label"
}