{
    "DNDConfig": null,
    "__parentReadjusting__": false,
    "_height_": {
        "type": "string",
        "value": "80%"
    },
    "_margin_": [
        0,
        0,
        0,
        0
    ],
    "_orientation_": 6,
    "_padding_": [
        0,
        0,
        0,
        0
    ],
    "_percent_": true,
    "_skin_": "s388f0c575ef4d08ac3a5ed0a4b90085",
    "_top_": {
        "type": "string",
        "value": "5%"
    },
    "_width_": {
        "type": "string",
        "value": "100%"
    },
    "allboxes": [],
    "autogrowmode": 0,
    "canUpdateUI": true,
    "children": [
        "EnableTouchIdCheckBox",
        "EnableFaceIdCheckBox",
        "lblRetainlogin",
        "EnablePINCheckBox",
        "enableTouchID",
        "noThanks"
    ],
    "clipbounds": true,
    "containerweight": 100,
    "enablescrolling": true,
    "id": "flxPinAndTouchIdChoice",
    "info": null,
    "isvisible": true,
    "kuid": "9a3fc3d0c5354c83847f30ab593b35a3",
    "layouttype": 4,
    "name": "kony.ui.FlexContainer",
    "parent": "flxTouchIdAndPinSelect",
    "pf": "frmDeviceregistrarionSuccessKA",
    "snapgridsize": 10,
    "snaptogrid": true,
    "wType": "FlexContainer",
    "widgetalignment": 1,
    "zindex": 1
}