{
  "type" : "svcdriven",
  "custom" : false,
  "junction" : false,
  "customizable" : false,
  "verbs" : {
    "getCardTransHistory" : "getCardTransHistoryMapping",
    "ApplyCards" : "ApplyCardsMapping",
    "GetCardStmt" : "GetCardStmtMapping",
    "CcInstantCashBack" : "CcInstantCashBackMapping",
    "updateATMPOSLimit" : "updateATMPOSLimitMapping",
    "changeSMSNo" : "changeSMSNoMapping",
    "pinRemainder" : "pinRemainderMapping",
    "DCActivation" : "DCActivationMapping",
    "iWatchgetCards" : "iWatchgetCardsMapping",
    "ublockPin" : "ublockPinMapping",
    "getCardPreferences" : "getCardPreferencesMapping",
    "CancelCard" : "CancelCardMapping",
    "cvDcReqNewPin" : "cvDcReqNewPinMapping",
    "get" : "getMapping",
    "create" : "createMapping",
    "InternetMailorder" : "InternetMailorderMapping",
    "setCardPreferences" : "setCardPreferencesMapping",
    "stopCard" : "stopCardMapping",
    "dcLinkedAccounts" : "dcLinkedAccountsMapping"
  },
  "entityProperties" : {
    "BatchMode" : "buffer",
    "designTimeBackendMeta" : {
    },
    "backendMeta" : {
      "serviceVersion" : "1.0",
      "operationName" : "getCardDetails",
      "serviceName" : "RetailBankingBEServices"
    }
  }
}