{
    "@class": "com.kony.gen.viz.model.component.KVizButton",
    "DNDConfig": null,
    "__parentReadjusting__": false,
    "_height_": {
        "type": "string",
        "value": "100%"
    },
    "_margin_": [
        6,
        6,
        6,
        6
    ],
    "_padding_": [
        0,
        0,
        0,
        0
    ],
    "_right_": {
        "type": "string",
        "value": "0%"
    },
    "_skin_": "sbce0cd255d64060839560beafaac506",
    "_text_": "u",
    "_top_": {
        "type": "string",
        "value": "0%"
    },
    "_width_": {
        "type": "string",
        "value": "11%"
    },
    "canUpdateUI": true,
    "containerweight": 100,
    "contentalignment": 5,
    "disabledSkins": {},
    "displaytext": true,
    "focusskin": "sbce0cd255d64060839560beafaac506",
    "id": "btnAdd",
    "ide_onClick": "AS_Button_g0d2f17d9fa740eab689b862f3b4c95f",
    "info": null,
    "iphone": {
        "psp": {
            "showProgressIndicator": false
        }
    },
    "iscustomlayout": true,
    "isvisible": true,
    "kuid": "de906119480f40198529cacd6b68242b",
    "name": "kony.ui.Button",
    "paddinginpixel": false,
    "parent": "flxHeadMain1",
    "pf": "frmJoMoPayLanding",
    "retainflexpositionproperties": true,
    "wType": "Button",
    "zindex": 2
}