{
    "@class": "com.kony.gen.viz.model.component.KVizButton",
    "DNDConfig": null,
    "__parentReadjusting__": false,
    "_height_": {
        "type": "string",
        "value": "50dp"
    },
    "_margin_": [
        6,
        6,
        6,
        6
    ],
    "_padding_": [
        0,
        0,
        0,
        0
    ],
    "_skin_": "s369ab04a83040bc808b21001c014f1a",
    "_text_": "i",
    "_width_": {
        "type": "string",
        "value": "100%"
    },
    "canUpdateUI": true,
    "centerx": {
        "type": "string",
        "value": "50%"
    },
    "centery": {
        "type": "string",
        "value": "50%"
    },
    "containerweight": 100,
    "contentalignment": 5,
    "disabledSkins": {},
    "displaytext": true,
    "focusskin": "s369ab04a83040bc808b21001c014f1a",
    "id": "CopybtnAccounts0ff48f9feb0aa42",
    "ide_onClick": "AS_Button_f8edc738592e46f4bb3dfc3fe7641857",
    "info": null,
    "isvisible": true,
    "kuid": "bd032602d50944ac8100c99a012f888a",
    "name": "kony.ui.Button",
    "parent": "FlxBot",
    "pf": "frmJoMoPayLanding",
    "wType": "Button",
    "zindex": 1
}