{
    "@class": "com.kony.gen.viz.model.component.KVizButton",
    "DNDConfig": null,
    "__parentReadjusting__": false,
    "_height_": {
        "type": "string",
        "value": "50dp"
    },
    "_margin_": [
        6,
        6,
        6,
        6
    ],
    "_padding_": [
        0,
        0,
        0,
        0
    ],
    "_skin_": "sec2b23e7398448eb9f1865486602b6b",
    "_text_": "Delete Payee",
    "_top_": {
        "type": "string",
        "value": "1dp"
    },
    "_width_": {
        "type": "string",
        "value": "100%"
    },
    "canUpdateUI": true,
    "centerx": {
        "type": "string",
        "value": "50.00%"
    },
    "containerweight": 100,
    "contentalignment": 5,
    "disabledSkins": {},
    "displaytext": true,
    "focusskin": "s6e8459b84e349d98629a088bbfe1304",
    "id": "btnDeletePayeeKA",
    "ide_onClick": "AS_Button_70caf02b9b8e4885a95ec4b12612cbae",
    "info": null,
    "iphone": {
        "psp": {
            "showProgressIndicator": false
        }
    },
    "isvisible": true,
    "kuid": "0d0643c53f64448ab692799deb7db5c5",
    "name": "kony.ui.Button",
    "onclick": "AS_Button_3d65bbd843c24bd2b9c8aec41e7d7b66",
    "parent": "buttonWrapper",
    "pf": "frmPayeeDetailsKA",
    "showprogressindicator": false,
    "texti18n": "i18n.transfer.deletePayee",
    "wType": "Button",
    "zindex": 1
}