{
    "@class": "com.kony.gen.viz.model.component.KVizButton",
    "DNDConfig": null,
    "__markedForDelete__": true,
    "__parentReadjusting__": false,
    "_height_": {
        "type": "string",
        "value": "50dp"
    },
    "_margin_": [
        6,
        6,
        6,
        6
    ],
    "_padding_": [
        0,
        0,
        0,
        0
    ],
    "_skin_": "sf7766faf6e34d0789442a84c1e76e1a",
    "_text_": "Confirm",
    "_width_": {
        "type": "string",
        "value": "70%"
    },
    "canUpdateUI": true,
    "centerx": {
        "type": "string",
        "value": "50%"
    },
    "centery": {
        "type": "string",
        "value": "50%"
    },
    "containerweight": 100,
    "contentalignment": 5,
    "displaytext": true,
    "focusskin": "sad5d6d4890b44858a39e4bf8a290332",
    "id": "btnConfirm",
    "ide_onClick": "AS_Button_i977a60e37a44a389baa53ed69138b9a",
    "info": null,
    "isvisible": true,
    "kuid": "e33e87d25a4042ac89d4f1ddb5b49d90",
    "name": "kony.ui.Button",
    "parent": "flxButtonHolder",
    "pf": "frmPrePaidPayeeDetailsKA",
    "texti18n": "i18n.Bene.Confirm",
    "wType": "Button",
    "zindex": 1
}