{
    "@class": "com.kony.gen.viz.model.component.KVizButton",
    "DNDConfig": null,
    "__parentReadjusting__": false,
    "_height_": {
        "type": "string",
        "value": "50dp"
    },
    "_margin_": [
        6,
        6,
        6,
        6
    ],
    "_padding_": [
        0,
        0,
        0,
        12
    ],
    "_skin_": "s369ab04a83040bc808b21001c014f1a",
    "_text_": "K",
    "_width_": {
        "type": "string",
        "value": "100%"
    },
    "canUpdateUI": true,
    "centerx": {
        "type": "string",
        "value": "50%"
    },
    "centery": {
        "type": "string",
        "value": "50%"
    },
    "containerweight": 100,
    "contentalignment": 5,
    "disabledSkins": {},
    "displaytext": true,
    "focusskin": "sd291eaf83084ea781b9988b6f1fc66d",
    "id": "btnMore",
    "ide_onClick": "AS_Button_i74ce5a2dc6c4f25815808e0f0cd9965",
    "info": null,
    "iphone": {
        "psp": {
            "showProgressIndicator": false
        }
    },
    "iscustomlayout": false,
    "isvisible": true,
    "kuid": "g7e08f0f60054aaf8a2d8702a1f02d28",
    "name": "kony.ui.Button",
    "paddinginpixel": false,
    "parent": "CopyFlxMore0adf9f77e6bee47",
    "pf": "frmAccountDetailKA",
    "retainflexpositionproperties": false,
    "wType": "Button",
    "zindex": 1
}