{
    "DNDConfig": null,
    "__parentReadjusting__": false,
    "_height_": {
        "type": "ref",
        "value": "preferred"
    },
    "_left_": {
        "type": "string",
        "value": "7.84%"
    },
    "_margin_": [
        0,
        0,
        0,
        0
    ],
    "_orientation_": 6,
    "_padding_": [
        0,
        0,
        0,
        0
    ],
    "_percent_": true,
    "_skin_": "s9c993eee1b04e9bb1a208e2b207902b",
    "_top_": {
        "type": "string",
        "value": "140dp"
    },
    "_width_": {
        "type": "string",
        "value": "100%"
    },
    "allboxes": [],
    "autogrowmode": 1,
    "canUpdateUI": true,
    "centerx": {
        "type": "string",
        "value": "50.01%"
    },
    "children": [
        "CopyflxMoreOption0b5bb49f42f3f46",
        "CopyflxMoreOption0gb90006d10cc4d",
        "CopyflxMoreOption0g80f9581b50747",
        "CopyflxMoreOption0d3de62e2f69444",
        "CopyflxMoreOption0fe0503387be94d",
        "CopyflxMoreOption0d969621c301e45",
        "CopyflxMoreOption0b3d7d4a6dd9b4a",
        "CopyflxMoreOption0jde7342b28be4c",
        "CopylineDivider0e7ca7e1af17247",
        "CopycollapseButton0a814bdeedcac42"
    ],
    "clipbounds": true,
    "containerweight": 100,
    "enablescrolling": true,
    "id": "CopyflxMore0bcc6938bdc5340",
    "info": null,
    "isvisible": false,
    "kuid": "c395d13529e044198639d35c70ae346e",
    "layouttype": 2,
    "name": "kony.ui.FlexContainer",
    "parent": "CopyaccountDetailsOverview0h78ad6c5ba654e",
    "pf": "frmAccountDetailKA",
    "snapgridsize": 10,
    "snaptogrid": true,
    "vizProps": {},
    "wType": "FlexContainer",
    "widgetalignment": 1,
    "zindex": 10
}