{
    "@class": "com.kony.gen.viz.model.component.KVizButton",
    "DNDConfig": null,
    "__parentReadjusting__": false,
    "_height_": {
        "type": "string",
        "value": "50dp"
    },
    "_margin_": [
        6,
        6,
        6,
        6
    ],
    "_padding_": [
        0,
        0,
        0,
        14
    ],
    "_skin_": "s7a8068a835c44dab75d379494b13a94",
    "_text_": "H",
    "_width_": {
        "type": "string",
        "value": "100%"
    },
    "canUpdateUI": true,
    "centerx": {
        "type": "string",
        "value": "50%"
    },
    "centery": {
        "type": "string",
        "value": "50%"
    },
    "containerweight": 100,
    "contentalignment": 5,
    "disabledSkins": {},
    "displaytext": true,
    "focusskin": "sd291eaf83084ea781b9988b6f1fc66d",
    "id": "CopybtnAccounts0ca6db8b656254d",
    "ide_onClick": "AS_Button_af77d0c2e2ed4ddab860d23e74522660",
    "info": null,
    "iphone": {
        "psp": {
            "showProgressIndicator": false
        }
    },
    "iscustomlayout": true,
    "isvisible": true,
    "kuid": "ec3341fb723c4dc3a72381819e90fadd",
    "name": "kony.ui.Button",
    "paddinginpixel": false,
    "parent": "FlxAccounts",
    "pf": "frmAccountDetailKA",
    "retainflexpositionproperties": true,
    "wType": "Button",
    "zindex": 1
}