{
    "@class": "com.kony.gen.viz.model.component.KVizLabel",
    "DNDConfig": null,
    "__parentReadjusting__": false,
    "_height_": {
        "type": "ref",
        "value": "preferred"
    },
    "_left_": {
        "type": "string",
        "value": "15dp"
    },
    "_margin_": [
        1,
        1,
        1,
        1
    ],
    "_padding_": [
        0,
        0,
        0,
        0
    ],
    "_skin_": "s3c238342a2841e1b37f8c4545626ca3",
    "_text_": "Account Balance",
    "_top_": {
        "type": "string",
        "value": "0dp"
    },
    "_width_": {
        "type": "ref",
        "value": "preferred"
    },
    "_wrapping_": 2,
    "canUpdateUI": true,
    "containerweight": 100,
    "contentalignment": 5,
    "enabled": false,
    "id": "Copylblaccountbalance0ece8ca8ded544e",
    "info": null,
    "ipad": {
        "psp": {
            "wrapping": 2
        }
    },
    "iphone": {
        "psp": {
            "wrapping": 2
        }
    },
    "isvisible": true,
    "kuid": "aae9613a6cc4482499f324e3df9fa712",
    "name": "kony.ui.Label",
    "parent": "CopyFlexContainer0a144944d848c4b",
    "pf": "frmAccountDetailKA",
    "texti18n": "i18n.overview.accountBalance",
    "tooltip": "",
    "wType": "Label",
    "zindex": 1
}