{
    "DNDConfig": null,
    "__parentReadjusting__": false,
    "_height_": {
        "type": "string",
        "value": "100dp"
    },
    "_margin_": [
        0,
        0,
        0,
        0
    ],
    "_padding_": [
        0,
        0,
        0,
        0
    ],
    "_right_": {
        "type": "string",
        "value": "10%"
    },
    "_skin_": "sea3237c8c1f4d00a700dfbca8bea354",
    "_top_": {
        "type": "string",
        "value": "240dp"
    },
    "_width_": {
        "type": "string",
        "value": "33%"
    },
    "allboxes": [],
    "autogrowmode": 0,
    "canUpdateUI": true,
    "children": [
        "Copyflxm0h7173457d0144f",
        "CopyMorebtn0e2cb4034206f4c",
        "CopyMoreHiddenKey0gf120e1dd6f347"
    ],
    "clipbounds": false,
    "containerweight": 100,
    "enabled": false,
    "enablescrolling": true,
    "id": "CopyflxMoreOption0fb97a396345b44",
    "info": null,
    "isvisible": true,
    "kuid": "ba928759895f41c4a8687409e4dbe8ec",
    "layouttype": 2,
    "name": "kony.ui.FlexContainer",
    "orientation": 6,
    "parent": "CopyflxMore0dcd89fda4fe54d",
    "percent": true,
    "pf": "frmAccountDetailKA",
    "snapgridsize": 10,
    "snaptogrid": true,
    "wType": "FlexContainer",
    "widgetalignment": 1,
    "zindex": 1
}