{
    "@class": "com.kony.gen.viz.model.component.KVizButton",
    "DNDConfig": null,
    "__parentReadjusting__": false,
    "_height_": {
        "type": "string",
        "value": "50dp"
    },
    "_left_": {
        "type": "string",
        "value": "2dp"
    },
    "_margin_": [
        6,
        6,
        6,
        6
    ],
    "_padding_": [
        0,
        0,
        0,
        0
    ],
    "_skin_": "see68cd63ba243d98af2bd9f497e474c",
    "_text_": "Y",
    "_top_": {
        "type": "string",
        "value": "0dp"
    },
    "_width_": {
        "type": "string",
        "value": "40dp"
    },
    "canUpdateUI": true,
    "containerweight": 100,
    "contentalignment": 5,
    "displaytext": true,
    "focusskin": "s10149300144466da99cbf92f4fdacc8",
    "id": "btnenvelop",
    "info": null,
    "iscustomlayout": false,
    "isvisible": false,
    "kuid": "ca67641a4f85490a85479da54fcbf7ab",
    "name": "kony.ui.Button",
    "parent": "FlexContainer0b9fde1e61d3c44",
    "pf": "frmAccountsLandingKA",
    "retaincontentalignment": true,
    "retainflexpositionproperties": true,
    "wType": "Button",
    "zindex": 1
}