{
    "@class": "com.kony.gen.viz.model.component.KVizButton",
    "DNDConfig": null,
    "__parentReadjusting__": false,
    "_height_": {
        "type": "string",
        "value": "50dp"
    },
    "_left_": {
        "type": "string",
        "value": "0dp"
    },
    "_margin_": [
        6,
        6,
        6,
        6
    ],
    "_padding_": [
        0,
        0,
        0,
        0
    ],
    "_skin_": "see68cd63ba243d98af2bd9f497e474c",
    "_text_": "?",
    "_top_": {
        "type": "string",
        "value": "0dp"
    },
    "_width_": {
        "type": "string",
        "value": "40dp"
    },
    "android": {
        "psp": {
            "pressedSkin": "see68cd63ba243d98af2bd9f497e474c"
        }
    },
    "canUpdateUI": true,
    "containerweight": 100,
    "contentalignment": 5,
    "disabledSkins": {},
    "displaytext": true,
    "focusskin": "see68cd63ba243d98af2bd9f497e474c",
    "id": "btnNewAccount",
    "ide_onClick": "AS_Button_j49e54599b474a09a7cb8c4afdb483e8",
    "info": null,
    "iscustomlayout": true,
    "isvisible": true,
    "kuid": "d9c7d30a791e4f98b5ce07b5d0b2fc24",
    "name": "kony.ui.Button",
    "parent": "FlexContainer0b9fde1e61d3c44",
    "pf": "frmAccountsLandingKA",
    "retaincontentalignment": false,
    "retainflexpositionproperties": true,
    "wType": "Button",
    "zindex": 1
}