{
    "@class": "com.kony.gen.viz.model.component.KVizButton",
    "DNDConfig": null,
    "__parentReadjusting__": false,
    "_height_": {
        "type": "string",
        "value": "42dp"
    },
    "_margin_": [
        6,
        6,
        6,
        6
    ],
    "_padding_": [
        0,
        0,
        0,
        0
    ],
    "_render_": true,
    "_skin_": "s409616a424246c78da4bbcd9516e43d",
    "_text_": "HIDE ACCOUNT INSIGHTS",
    "_top_": {
        "type": "string",
        "value": "130dp"
    },
    "_width_": {
        "type": "string",
        "value": "250dp"
    },
    "android": {
        "render": true
    },
    "canUpdateUI": true,
    "centerx": {
        "type": "string",
        "value": "50%"
    },
    "containerweight": 100,
    "contentalignment": 5,
    "disabledSkins": {},
    "displaytext": true,
    "focusskin": "s855d4a3c7a14976abf747a9184ae0d0",
    "id": "insightsButton",
    "ide_onClick": "AS_Button_c4eb73a5da5c4141ba183eb14a92d3a8",
    "info": null,
    "iphone": {
        "psp": {
            "showProgressIndicator": false
        },
        "render": true
    },
    "isvisible": false,
    "kuid": "8edb9821543242889f6cd5e496eaffbe",
    "name": "kony.ui.Button",
    "onclick": "AS_Button_6325183fbfc5420084fcc8656e0bac36",
    "parent": "flxAccountsMain",
    "pf": "frmAccountsLandingKA",
    "showprogressindicator": false,
    "spaan": {
        "render": true
    },
    "spabb": {
        "render": true
    },
    "spaip": {
        "render": true
    },
    "spawinphone8": {
        "render": true
    },
    "texti18n": "i18n.overview.hideAccountInsights",
    "vizProps": {
        "hide": false
    },
    "wType": "Button",
    "winphone8": {
        "render": true
    },
    "zindex": 999
}