{
    "@class": "com.kony.gen.viz.model.container.KVizSegment2",
    "DNDConfig": null,
    "__parentReadjusting__": false,
    "_data_": [
        {
            "lblMenuItem": {
                "@class": "com.viz.ide.model.segment.SimpleTextSegmentData",
                "text": "Search Transactions"
            }
        },
        {
            "lblMenuItem": {
                "@class": "com.viz.ide.model.segment.SimpleTextSegmentData",
                "text": "Make a Transfer/Pay a bill "
            }
        },
        {
            "lblMenuItem": {
                "@class": "com.viz.ide.model.segment.SimpleTextSegmentData",
                "text": "Open New Account  "
            }
        }
    ],
    "_height_": {
        "type": "ref",
        "value": "preferred"
    },
    "_indicator_": "none",
    "_left_": {
        "type": "string",
        "value": "0dp"
    },
    "_margin_": [
        0,
        0,
        0,
        0
    ],
    "_orientation_": 2,
    "_padding_": [
        0,
        0,
        0,
        0
    ],
    "_top_": {
        "type": "string",
        "value": "0dp"
    },
    "_width_": {
        "type": "string",
        "value": "100%"
    },
    "autogrowmode": 1,
    "canUpdateUI": true,
    "containerweight": 100,
    "counter": "02",
    "disabledSkins": {
        "rowFocusSkin": "s5fa38be22fb4f22b7c642b08276ab82"
    },
    "focusedindex": null,
    "focuseditem": null,
    "groupcells": false,
    "hasSections": false,
    "id": "segAccountOverViewNav1KA",
    "ide_onRowClick": "AS_Segment_e4424f0c684446d38abd218698609415",
    "info": null,
    "ipad": {
        "psp": {
            "indicator": "rowselect"
        }
    },
    "iphone": {
        "psp": {
            "bounces": false,
            "indicator": "none"
        }
    },
    "isvisible": true,
    "kuid": "cea0f555dd874c0a8f72ca58f4bf07a7",
    "masterdata": {},
    "name": "kony.ui.SegmentedUI2",
    "needpageindicator": true,
    "pageoffdotimage": "pageoffdot.png",
    "pageondotimage": "pageondot.png",
    "paginationconfig": {
        "position": "bottom",
        "vdistance": 1
    },
    "parent": "flxNavSegment1",
    "pf": "frmAccountsLandingKA",
    "retainselection": false,
    "rowTemplateId": "7f0bacf7e19c47feaa53eaaa44777d29",
    "rowcounter": 2,
    "rowskin": "sd2ca277651a46c0ba82f3226859f5a6",
    "rowtemplate": "flxNavigationOptKA",
    "screenlevelwidget": false,
    "seccounter": 0,
    "sectionheaderskin": "s67621b8a82d49f285da06b4f5a0c993",
    "selectedRows": null,
    "selectedState": false,
    "selectedindex": null,
    "selectedindices": null,
    "selecteditems": null,
    "selectedsectionindex": 0,
    "selectionbehavior": "default",
    "separatorrequired": false,
    "separatorthickness": 0,
    "showscrollbars": false,
    "swipeContext": {
        "currentPage": 0,
        "imageWidth": 972,
        "widthRatio": 0
    },
    "viewtype": "tableview",
    "vizProps": {},
    "wType": "Segment",
    "widgetalignment": 5,
    "widgetdatamap": {
        "flxLineDividerNavOptKA": "flxLineDividerNavOptKA",
        "flxNavigationOptKA": "flxNavigationOptKA",
        "lblMenuItem": "lblMenuItem"
    },
    "zindex": 1
}