{
  "operationConfig" : {
    "name" : "getCommission9769",
    "type" : "MappedToBackend",
    "cachable" : false,
    "smsEnabled" : false,
    "security" : "public",
    "responseEncoding" : "UTF-8",
    "httpMethod" : "GET",
    "decodeResponseBody" : false,
    "iMapping" : "<?xml version=\"1.0\" encoding=\"UTF-8\" standalone=\"yes\"?><mapper xmlns=\"http://www.kony.com/ns/mapper\">                  <map inputpath=\"request_in\" outputpath=\"request_out\">                                    <set-param inputpath=\"custId\" outputpath=\"custId\"/>                                    <set-param inputpath=\"jomopayType\" outputpath=\"jomopayType\"/>                                    <set-param inputpath=\"fromAccountNumber\" outputpath=\"fromAccountNumber\"/>                                    <set-param inputpath=\"referenceId\" outputpath=\"referenceId\"/>                                    <set-param inputpath=\"pass\" outputpath=\"pass\"/>                                    <set-param inputpath=\"amount\" outputpath=\"amount\"/>                                    <set-param inputpath=\"payeeName\" outputpath=\"payeeName\"/>                                    <set-param inputpath=\"TransferFlag\" outputpath=\"TransferFlag\"/>                                    <set-param inputpath=\"transactionType\" outputpath=\"transactionType\"/>                                    <set-param inputpath=\"accountNumber\" outputpath=\"accountNumber\"/>                                    <set-param inputpath=\"p_biller_id\" outputpath=\"p_biller_id\"/>                                    <set-param inputpath=\"p_trnsf_cur\" outputpath=\"p_trnsf_cur\"/>                                    <set-param inputpath=\"p_bill_no\" outputpath=\"p_bill_no\"/>                                    <set-param inputpath=\"usr\" outputpath=\"usr\"/>                                    <set-param inputpath=\"ExternalAccountNumber\" outputpath=\"ExternalAccountNumber\"/>                  </map></mapper>",
    "applyCommonMapping" : false,
    "backendMeta" : {
      "serviceVersion" : "1.0",
      "operationName" : "getCommission",
      "serviceName" : "GetCommission"
    },
    "relationshipHierarchyMapping" : {
      "children" : [ ],
      "name" : "Transactions",
      "selected" : true
    },
    "requestXmlMappingOverride" : true,
    "responseXmlMappingOverride" : true
  }
}