{
    "DNDConfig": null,
    "_height_": {
        "type": "string",
        "value": "80dp"
    },
    "_margin_": [
        0,
        0,
        0,
        0
    ],
    "_orientation_": 6,
    "_padding_": [
        0,
        0,
        0,
        0
    ],
    "_percent_": true,
    "_skin_": "s388f0c575ef4d08ac3a5ed0a4b90085",
    "allboxes": [],
    "autogrowmode": 0,
    "canUpdateUI": true,
    "children": [
        "lblCardsType",
        "lblCardNum",
        "lblCardCode",
        "lblN",
        "lblSH",
        "lblPref",
        "ArrowR",
        "lblIncommingRing"
    ],
    "clipbounds": true,
    "containerId": true,
    "containerweight": 100,
    "enablescrolling": true,
    "id": "flxCardsReOrderSettingsTmp",
    "info": null,
    "isTemplate": true,
    "isvisible": true,
    "kuid": "d547029d7864471989fee4b7ab86324c",
    "layouttype": 2,
    "name": "kony.ui.FlexContainer",
    "parent": "tmpCardsReorder",
    "pf": "tmpCardsReorder",
    "snapgridsize": 10,
    "snaptogrid": true,
    "wType": "FlexContainer",
    "widgetalignment": 1
}