{
    "DNDConfig": null,
    "__parentReadjusting__": false,
    "_height_": {
        "type": "string",
        "value": "70dp"
    },
    "_margin_": [
        0,
        0,
        0,
        0
    ],
    "_orientation_": 6,
    "_padding_": [
        0,
        0,
        0,
        0
    ],
    "_percent_": true,
    "_skin_": "s388f0c575ef4d08ac3a5ed0a4b90085",
    "_top_": {
        "type": "string",
        "value": "-1%"
    },
    "_width_": {
        "type": "string",
        "value": "90%"
    },
    "allboxes": [],
    "autogrowmode": 0,
    "canUpdateUI": true,
    "centerx": {
        "type": "string",
        "value": "50%"
    },
    "children": [
        "lblPassword",
        "tbxPasswordKA",
        "flxUnderlinePassword",
        "flxPasswordProgress",
        "CopylblClose0bb2f50619b5543",
        "lblShowPass"
    ],
    "clipbounds": false,
    "containerweight": 100,
    "enablescrolling": true,
    "id": "flxPassword",
    "info": null,
    "isvisible": true,
    "kuid": "f1bdcc474be14b10b065cb7cb84413f2",
    "layouttype": 2,
    "name": "kony.ui.FlexContainer",
    "parent": "flxUserPass",
    "pf": "frmEnrolluserLandingKA",
    "snapgridsize": 10,
    "snaptogrid": true,
    "wType": "FlexContainer",
    "widgetalignment": 1,
    "zindex": 1
}