{
    "@class": "com.kony.gen.viz.model.component.KVizLabel",
    "DNDConfig": null,
    "__parentReadjusting__": false,
    "_height_": {
        "type": "string",
        "value": "32dp"
    },
    "_margin_": [
        1,
        1,
        1,
        1
    ],
    "_padding_": [
        0,
        0,
        0,
        0
    ],
    "_right_": {
        "type": "string",
        "value": "2%"
    },
    "_skin_": "scac8d17997544068a3754423ae2c288",
    "_text_": "Invalid Password",
    "_top_": {
        "type": "string",
        "value": "7%"
    },
    "_width_": {
        "type": "ref",
        "value": "preferred"
    },
    "_wrapping_": 2,
    "canUpdateUI": true,
    "containerweight": 100,
    "contentalignment": 4,
    "enabled": false,
    "id": "lblPwdErr",
    "info": null,
    "ipad": {
        "psp": {
            "wrapping": 2
        }
    },
    "iphone": {
        "psp": {
            "wrapping": 2
        }
    },
    "isvisible": false,
    "kuid": "d342f8617b0645dbb227f7a39879c787",
    "name": "kony.ui.Label",
    "parent": "flxpwd",
    "pf": "frmEnrolluserLandingKA",
    "tooltip": "",
    "wType": "Label",
    "zindex": 1
}