{
    "@class": "com.kony.gen.viz.model.component.KVizLabel",
    "DNDConfig": null,
    "__parentReadjusting__": false,
    "_height_": {
        "type": "string",
        "value": "100%"
    },
    "_margin_": [
        1,
        1,
        1,
        1
    ],
    "_padding_": [
        0,
        0,
        0,
        0
    ],
    "_right_": {
        "type": "string",
        "value": "9.97%"
    },
    "_skin_": "sdc1ded9d10d4e77b9dc40f31ce38db1",
    "_text_": "A",
    "_top_": {
        "type": "string",
        "value": "10.00%"
    },
    "_width_": {
        "type": "ref",
        "value": "preferred"
    },
    "_wrapping_": 2,
    "android": {
        "textStyle": {
            "letterSpacing": 0,
            "strikeThrough": false
        }
    },
    "canUpdateUI": true,
    "containerweight": 100,
    "contentalignment": 4,
    "id": "lblShowConfirmPassword",
    "ide_onTouchEnd": "AS_Label_ic5f7f513a12488a9f5cbee38b1d7758",
    "info": null,
    "ipad": {
        "psp": {
            "wrapping": 2
        }
    },
    "iphone": {
        "psp": {
            "wrapping": 2
        }
    },
    "isvisible": false,
    "kuid": "dd1f80c2108441dea590a15352c651da",
    "name": "kony.ui.Label",
    "parent": "flxConfirmPassword",
    "pf": "frmEnrolluserLandingKA",
    "textstyle": {},
    "tooltip": "",
    "wType": "Label",
    "zindex": 2
}