{
    "@class": "com.kony.gen.viz.model.container.KVizHBox",
    "DNDConfig": null,
    "_margin_": [
        7,
        6,
        7,
        0
    ],
    "_orientation_": 1,
    "_padding_": [
        0,
        0,
        0,
        0
    ],
    "_percent_": true,
    "_position_": 3,
    "_skin_": "sdf1fb351682444ba64e04bca26c184a",
    "allboxes": [],
    "canUpdateUI": true,
    "children": [
        "lstbxCardStoplReason"
    ],
    "containerweight": 100,
    "contextmenu": null,
    "id": "HBxCardCancelReason",
    "info": null,
    "isvisible": false,
    "kuid": "fd16cd94d27e47499e372f54f6d1bbbd",
    "layouttype": 0,
    "margininpixel": false,
    "name": "kony.ui.Box",
    "parent": "popupStopCard",
    "pf": "popupStopCard",
    "wType": "HBox",
    "widgetalignment": 1
}