{
    "@class": "com.kony.gen.viz.model.component.KVizButton",
    "DNDConfig": null,
    "__parentReadjusting__": false,
    "_height_": {
        "type": "string",
        "value": "50dp"
    },
    "_margin_": [
        6,
        6,
        6,
        6
    ],
    "_padding_": [
        0,
        0,
        0,
        0
    ],
    "_skin_": "sf7766faf6e34d0789442a84c1e76e1a",
    "_text_": "Confirm",
    "_width_": {
        "type": "string",
        "value": "70%"
    },
    "canUpdateUI": true,
    "centerx": {
        "type": "string",
        "value": "50%"
    },
    "centery": {
        "type": "string",
        "value": "50%"
    },
    "containerweight": 100,
    "contentalignment": 5,
    "displaytext": true,
    "focusskin": "sf7766faf6e34d0789442a84c1e76e1a",
    "id": "btnConfirm",
    "ide_onClick": "AS_Button_i2d725944f6a469da9acde0682c13ac9",
    "info": null,
    "isvisible": true,
    "kuid": "f7c0a427880f44ed8c854af0dee99fef",
    "name": "kony.ui.Button",
    "parent": "flxButtonHolder",
    "pf": "frmCreditCardPayment",
    "texti18n": "i18n.Bene.Confirm",
    "wType": "Button",
    "zindex": 1
}