{
    "@class": "com.kony.gen.viz.model.component.KVizButton",
    "DNDConfig": null,
    "__parentReadjusting__": false,
    "_height_": {
        "type": "string",
        "value": "20%"
    },
    "_left_": {
        "type": "string",
        "value": "53%"
    },
    "_margin_": [
        6,
        6,
        6,
        6
    ],
    "_padding_": [
        0,
        0,
        0,
        0
    ],
    "_skin_": "s1858dc0a19e403a93a532b59571c961",
    "_text_": "s",
    "_top_": {
        "type": "string",
        "value": "5%"
    },
    "_width_": {
        "type": "string",
        "value": "7%"
    },
    "canUpdateUI": true,
    "containerweight": 100,
    "contentalignment": 5,
    "displaytext": true,
    "focusskin": "s1858dc0a19e403a93a532b59571c961",
    "id": "btnOtherCard",
    "ide_onClick": "AS_Button_f3a6cffaa45a4775ac7416961c5ec427",
    "info": null,
    "isvisible": true,
    "kuid": "d456d0d48a304e049c21adfbf9f78894",
    "name": "kony.ui.Button",
    "parent": "flxCardDetails",
    "pf": "frmCreditCardPayment",
    "wType": "Button",
    "zindex": 2
}