{
    "@class": "com.kony.gen.viz.model.component.KVizButton",
    "DNDConfig": null,
    "__parentReadjusting__": false,
    "_height_": {
        "type": "string",
        "value": "40dp"
    },
    "_left_": {
        "type": "string",
        "value": "3%"
    },
    "_margin_": [
        6,
        6,
        6,
        6
    ],
    "_padding_": [
        0,
        0,
        0,
        0
    ],
    "_skin_": "s6d02f7f889b4a44a4b180dfc01cbb79",
    "_text_": "",
    "_width_": {
        "type": "string",
        "value": "40dp"
    },
    "canUpdateUI": true,
    "centery": {
        "type": "string",
        "value": "50%"
    },
    "containerId": true,
    "containerweight": 100,
    "contentalignment": 5,
    "disabledSkins": {
        "focusSkin": "s10149300144466da99cbf92f4fdacc8"
    },
    "displaytext": true,
    "id": "btnAlpha",
    "info": null,
    "isvisible": true,
    "kuid": "d1fc50dc21ee4778a38a9574790324b3",
    "name": "kony.ui.Button",
    "parent": "flxLocationDetails",
    "pf": "tmpLocationAtmBranch",
    "wType": "Button",
    "zindex": 1
}