{
    "@class": "com.kony.gen.viz.model.component.KVizButton",
    "DNDConfig": null,
    "__parentReadjusting__": false,
    "_height_": {
        "type": "ref",
        "value": "preferred"
    },
    "_left_": {
        "type": "string",
        "value": "48%"
    },
    "_margin_": [
        6,
        6,
        6,
        6
    ],
    "_padding_": [
        0,
        0,
        0,
        0
    ],
    "_skin_": "s1858dc0a19e403a93a532b59571c961",
    "_text_": "s",
    "_width_": {
        "type": "ref",
        "value": "preferred"
    },
    "canUpdateUI": true,
    "centery": {
        "type": "string",
        "value": "50%"
    },
    "containerweight": 100,
    "contentalignment": 5,
    "displaytext": true,
    "focusskin": "s1858dc0a19e403a93a532b59571c961",
    "id": "btnMail",
    "ide_onClick": "AS_Button_f8e4740106f5460a933d4f839a7c13e7",
    "info": null,
    "isvisible": true,
    "kuid": "bb5b8accc0944d0d8a5d8bc9a2ffd21e",
    "name": "kony.ui.Button",
    "parent": "flxRadioDeliveryMode",
    "pf": "frmRequestStatementAccounts",
    "wType": "Button",
    "zindex": 2
}