{
    "@class": "com.kony.gen.viz.model.component.KVizButton",
    "DNDConfig": null,
    "__parentReadjusting__": false,
    "_height_": {
        "type": "string",
        "value": "80%"
    },
    "_left_": {
        "type": "string",
        "value": "85%"
    },
    "_margin_": [
        6,
        6,
        6,
        6
    ],
    "_padding_": [
        0,
        0,
        0,
        0
    ],
    "_skin_": "sbdbc65107b746c7870a660f64d4b256",
    "_text_": "O",
    "_width_": {
        "type": "string",
        "value": "15%"
    },
    "canUpdateUI": true,
    "centery": {
        "type": "string",
        "value": "50%"
    },
    "containerweight": 100,
    "contentalignment": 5,
    "displaytext": true,
    "focusskin": "s903c1f5df8d483cb2182e4eef9615e2",
    "id": "btnClose",
    "ide_onClick": "AS_Button_ce970ffb530d433395a3471d82ef648d",
    "info": null,
    "iscustomlayout": true,
    "isvisible": true,
    "kuid": "a26e69c09ef744f9aba86a38cb0d4d09",
    "name": "kony.ui.Button",
    "parent": "flxConfirmHeader",
    "pf": "frmAddNewPayeeKA",
    "retainflexpositionproperties": true,
    "wType": "Button",
    "zindex": 1
}