{
    "@class": "com.kony.gen.viz.model.component.KVizLabel",
    "DNDConfig": null,
    "__parentReadjusting__": false,
    "_height_": {
        "type": "ref",
        "value": "preferred"
    },
    "_left_": {
        "type": "string",
        "value": "0%"
    },
    "_margin_": [
        1,
        1,
        1,
        1
    ],
    "_padding_": [
        0,
        0,
        0,
        0
    ],
    "_skin_": "s8b20338ed1543158d53b990a27ebcf8",
    "_text_": "Using FACE ID is optional.You can turn it ON or OFF at any time from settings menu.",
    "_top_": {
        "type": "string",
        "value": "5%"
    },
    "_width_": {
        "type": "string",
        "value": "88%"
    },
    "_wrapping_": 2,
    "android": {
        "textStyle": {
            "letterSpacing": 0,
            "strikeThrough": false
        }
    },
    "canUpdateUI": true,
    "centerx": {
        "type": "string",
        "value": "51.02%"
    },
    "containerweight": 100,
    "contentalignment": 5,
    "id": "lblfooterdec1",
    "info": null,
    "ipad": {
        "psp": {
            "wrapping": 2
        }
    },
    "iphone": {
        "psp": {
            "wrapping": 2
        }
    },
    "isvisible": true,
    "kuid": "ec7f1350b09645679e205b296c82feec",
    "name": "kony.ui.Label",
    "parent": "flxSetFaceID",
    "pf": "frmFacialAuthEnable",
    "texti18n": "i18n.UsingFACEIDisoptional.YoucanturnitONorOFFatanytimefromsettingsmenu.",
    "tooltip": "",
    "wType": "Label",
    "zindex": 1
}