{
    "@class": "com.kony.gen.viz.model.component.KVizTextBox2",
    "DNDConfig": null,
    "__parentReadjusting__": false,
    "_height_": {
        "type": "string",
        "value": "60%"
    },
    "_left_": {
        "type": "string",
        "value": "0%"
    },
    "_margin_": [
        0,
        0,
        0,
        0
    ],
    "_padding_": [
        3,
        0,
        0,
        0
    ],
    "_placeholder_": "",
    "_skin_": "sa25e426dcb94c13ab46f59a2b31a09a",
    "_text_": "",
    "_top_": {
        "type": "string",
        "value": "30%"
    },
    "_width_": {
        "type": "string",
        "value": "100%"
    },
    "android": {
        "ide_onBeginEditing": "AS_TextField_c866a1ca042c4bafa7bc64c557cbf678"
    },
    "autocapitalize": "none",
    "autocomplete": false,
    "autocorrect": false,
    "autofilter": false,
    "canUpdateUI": true,
    "containerheight": "",
    "containerheightmode": 1,
    "containerweight": 100,
    "contentalignment": 4,
    "focusskin": "sa25e426dcb94c13ab46f59a2b31a09a",
    "id": "txtAddress",
    "ide_onTextChange": "AS_TextField_af1ec3ff1e524a47913a0b359223ba0b",
    "ide_onTouchEnd": "AS_TextField_a98377b5b43a4fce8c24d5c670e35bea",
    "info": null,
    "iphone": {
        "ide_onBeginEditing": "AS_TextField_eac680de1b584bcaa53692dd21d1c9af"
    },
    "isvisible": true,
    "keyboardtype": "A",
    "kuid": "idf4d526c1924ee19f3afe6ca3e48a0f",
    "mode": "A",
    "name": "kony.ui.TextBox2",
    "parent": "flxAddress",
    "pf": "frmApplyNewCardsKA",
    "securetextentry": false,
    "textinputmode": "A",
    "viewtype": "default",
    "wType": "TextField",
    "zindex": 1
}