{
  "background_image": "mapbg.png",
  "bg_type": "image",
  "border_color": "000000ff",
  "border_style": "rc",
  "border_type": 0,
  "border_width": 1,
  "isDefaultSkin": false,
  "kuid": "s62b2b44cbe243a5a6303261c85e3bc3",
  "wType": "FlexContainer"
}