{
    "background_color": "99dbd7ff",
    "bg_type": "one",
    "border_color": "ffffff00",
    "border_radius": 100,
    "border_style": "custom",
    "border_type": 0,
    "border_width": 1,
    "isDefaultSkin": false,
    "kuid": "sfe8168ad7314919a52c5fa0af4777f6",
    "wType": "FlexContainer"
}