{
  "android": {
    "font_name": "Cairo-Regular",
    "font_size": 100,
    "isForked": false
  },
  "background_color": "ffffff00",
  "bg_type": "one",
  "border_color": "282828ff",
  "border_style": "plain",
  "border_type": 0,
  "border_width": 0,
  "desktopweb": {
    "font_name": "Cairo-Regular",
    "font_size": 100,
    "isForked": false
  },
  "font_color": "ffffffff",
  "font_name": "Cairo-Regular",
  "font_size": 100,
  "ipad": {
    "font_name": "Cairo-Regular",
    "font_size": 100,
    "isForked": false
  },
  "iphone": {
    "font_name": "Cairo-Regular",
    "font_size": 100,
    "isForked": false
  },
  "isDefaultSkin": false,
  "kiosk": {
    "font_name": "GenericMonospace",
    "font_size": 100,
    "isForked": false
  },
  "kuid": "s5a0cb7f732044c0a26863d694ae5625",
  "spaan": {
    "font_name": "Cairo-Regular",
    "font_size": 100,
    "isForked": false
  },
  "spaandroidtablet": {
    "font_name": "Cairo-Regular",
    "font_size": 100,
    "isForked": false
  },
  "spabb": {
    "font_name": "Cairo-Regular",
    "font_size": 100,
    "isForked": false
  },
  "spaip": {
    "font_name": "Cairo-Regular",
    "font_size": 100,
    "isForked": false
  },
  "spaipad": {
    "font_name": "Cairo-Regular",
    "font_size": 100,
    "isForked": false
  },
  "spawindowstablet": {
    "font_name": "Cairo-Regular",
    "font_size": 100,
    "isForked": false
  },
  "spawinphone8": {
    "font_name": "Cairo-Regular",
    "font_size": 100,
    "isForked": false
  },
  "tabrcandroid": {
    "font_name": "Cairo-Regular",
    "font_size": 100,
    "isForked": false
  },
  "wType": "TextField",
  "watchos": {
    "font_name": "Cairo-Regular",
    "font_size": 100,
    "isForked": false
  },
  "windows8": {
    "font_name": "GenericMonospace",
    "font_size": 100,
    "isForked": false
  },
  "winphone8": {
    "font_name": "GenericMonospace",
    "font_size": 100,
    "isForked": false
  }
}