{
  "background_color": "1e415b00",
  "bg_type": "one",
  "border_color": "424242ff",
  "border_style": "plain",
  "border_type": 0,
  "border_width": 0,
  "font_color": "424242ff",
  "font_name": "Cairo-Regular",
  "font_size": 214,
  "font_style": "normal",
  "font_weight": "normal",
  "isDefaultSkin": false,
  "kuid": "sea0a36b95ce419bb70b848b3b93285a",
  "wType": "Label"
}