{
  "background_color": "f5b919ff",
  "bg_type": "one",
  "border_color": "000000ff",
  "border_style": "plain",
  "border_type": 0,
  "border_width": 0,
  "isDefaultSkin": false,
  "kuid": "sd5cd26508504e229c9f84c89dfb2b0a",
  "wType": "FlexContainer"
}