{
  "background_color": "5ea4e2ff",
  "bg_type": "one",
  "border_color": "000000ff",
  "border_style": "plain",
  "border_type": 0,
  "border_width": 0,
  "isDefaultSkin": false,
  "kuid": "s143575b59134f809d37bd745e6d49c3",
  "wType": "FlexContainer"
}