{
  "background_color": "ffffffcc",
  "bg_type": "one",
  "border_color": "000000ff",
  "border_style": "plain",
  "border_type": 0,
  "border_width": 0,
  "isDefaultSkin": false,
  "kuid": "s9af519612b540bea89b177caa6cff25",
  "wType": "Segment"
}