{
  "android": {
    "background_image": "dealsd.png",
    "bg_type": "image"
  },
  "background_image": "dealsd.png",
  "bg_type": "image",
  "border_color": "000000ff",
  "border_style": "plain",
  "border_type": 0,
  "border_width": 0,
  "iphone": {
    "background_image": "dealsd.png",
    "bg_type": "image"
  },
  "isDefaultSkin": false,
  "kuid": "s0bee7900c744f618e3ca4fc09dea013",
  "wType": "FlexScrollContainer"
}