{
  "background_color": "3545a2ff",
  "bg_type": "one",
  "border_color": "000000ff",
  "border_style": "plain",
  "border_type": 0,
  "border_width": 0,
  "isDefaultSkin": false,
  "kuid": "sf3730f45ca345a1a7309b1b415b8f95",
  "wType": "FlexContainer"
}