{
  "background_color": "ffffff33",
  "bg_type": "one",
  "border_color": "00000000",
  "border_radius": 100,
  "border_style": "custom",
  "border_type": 0,
  "border_width": 1,
  "isDefaultSkin": false,
  "kuid": "s07f15b80d324be2969aa6a3a995f62e",
  "wType": "FlexContainer"
}