{
  "android": {
    "font_name": "BoJFont",
    "font_size": 170,
    "isForked": false
  },
  "background_color": "00000000",
  "bg_type": "one",
  "border_color": "ffffffff",
  "border_radius": 100,
  "border_style": "custom",
  "border_type": 0,
  "border_width": 3,
  "desktopweb": {
    "font_name": "Cairo-Regular",
    "font_size": 170,
    "isForked": false
  },
  "fontSizeInPx": false,
  "font_color": "ffffffb2",
  "font_name": "Cairo-Regular",
  "font_size": 170,
  "font_style": "normal",
  "font_weight": "normal",
  "ipad": {
    "font_name": "Cairo-Regular",
    "font_size": 170,
    "isForked": false
  },
  "iphone": {
    "font_name": "BoJFont",
    "font_size": 170,
    "isForked": false
  },
  "isDefaultSkin": false,
  "kiosk": {
    "font_name": "GenericMonospace",
    "font_size": 170,
    "isForked": false
  },
  "kuid": "sed0cd1c515d4080b5b7c150924d9dc1",
  "spaan": {
    "font_name": "Cairo-Regular",
    "font_size": 170,
    "isForked": false
  },
  "spaandroidtablet": {
    "font_name": "Cairo-Regular",
    "font_size": 170,
    "isForked": false
  },
  "spabb": {
    "font_name": "Cairo-Regular",
    "font_size": 170,
    "isForked": false
  },
  "spaip": {
    "font_name": "Cairo-Regular",
    "font_size": 170,
    "isForked": false
  },
  "spaipad": {
    "font_name": "Cairo-Regular",
    "font_size": 170,
    "isForked": false
  },
  "spawindowstablet": {
    "font_name": "Cairo-Regular",
    "font_size": 170,
    "isForked": false
  },
  "spawinphone8": {
    "font_name": "Cairo-Regular",
    "font_size": 170,
    "isForked": false
  },
  "tabrcandroid": {
    "font_name": "Cairo-Regular",
    "font_size": 170,
    "isForked": false
  },
  "wType": "Label",
  "watchos": {
    "font_name": "Cairo-Regular",
    "font_size": 170,
    "isForked": false
  },
  "windows8": {
    "font_name": "GenericMonospace",
    "font_size": 170,
    "isForked": false
  },
  "winphone8": {
    "font_name": "GenericMonospace",
    "font_size": 170,
    "isForked": false
  }
}