{
  "android": {
    "font_name": "Cairo-Regular",
    "font_size": 180,
    "isForked": false
  },
  "background_color": "37b0d4ff",
  "bg_type": "one",
  "border_color": "ffffff00",
  "border_radius": 100,
  "border_style": "custom",
  "border_type": 0,
  "border_width": 1,
  "desktopweb": {
    "font_name": "Cairo-Regular",
    "font_size": 180,
    "isForked": false
  },
  "fontSizeInPx": false,
  "font_color": "ffffffff",
  "font_name": "Cairo-Regular",
  "font_size": 180,
  "font_style": "normal",
  "font_weight": "normal",
  "ipad": {
    "font_name": "Cairo-Regular",
    "font_size": 180,
    "isForked": false
  },
  "iphone": {
    "font_name": "Cairo-Regular",
    "font_size": 180,
    "isForked": false
  },
  "isDefaultSkin": false,
  "kiosk": {
    "font_name": "GenericMonospace",
    "font_size": 180,
    "isForked": false
  },
  "kuid": "scaec2f30f864106b7f086dd0f395c96",
  "spaan": {
    "font_name": "Cairo-Regular",
    "font_size": 180,
    "isForked": false
  },
  "spaandroidtablet": {
    "font_name": "Cairo-Regular",
    "font_size": 180,
    "isForked": false
  },
  "spabb": {
    "font_name": "Cairo-Regular",
    "font_size": 180,
    "isForked": false
  },
  "spaip": {
    "font_name": "Cairo-Regular",
    "font_size": 180,
    "isForked": false
  },
  "spaipad": {
    "font_name": "Cairo-Regular",
    "font_size": 180,
    "isForked": false
  },
  "spawindowstablet": {
    "font_name": "Cairo-Regular",
    "font_size": 180,
    "isForked": false
  },
  "spawinphone8": {
    "font_name": "Cairo-Regular",
    "font_size": 180,
    "isForked": false
  },
  "tabrcandroid": {
    "font_name": "Cairo-Regular",
    "font_size": 180,
    "isForked": false
  },
  "wType": "Label",
  "watchos": {
    "font_name": "Cairo-Regular",
    "font_size": 180,
    "isForked": false
  },
  "windows8": {
    "font_name": "GenericMonospace",
    "font_size": 180,
    "isForked": false
  },
  "winphone8": {
    "font_name": "GenericMonospace",
    "font_size": 180,
    "isForked": false
  }
}