{
  "background_color": "ffffffff",
  "bg_type": "one",
  "border_color": "454545ff",
  "border_style": "plain",
  "border_type": 0,
  "border_width": 0,
  "font_color": "000000ff",
  "font_name": "Cairo-Regular",
  "font_size": 100,
  "font_style": "normal",
  "font_weight": "normal",
  "isDefaultSkin": true,
  "kuid": "sfcc4a6d1fe74c0a9a01d523472866d4",
  "wType": "ListBox"
}