{
  "background_image": "appicon.png",
  "bg_type": "image",
  "border_color": "000000ff",
  "border_radius": 100,
  "border_style": "custom",
  "border_type": 0,
  "border_width": 1,
  "isDefaultSkin": false,
  "kuid": "sc41584272774b3da99b10a45d4d71a1",
  "wType": "FlexContainer"
}