{
  "background_color": "ffffffff",
  "bg_type": "one",
  "border_color": "454545ff",
  "border_style": "plain",
  "border_type": 0,
  "border_width": 0,
  "font_color": "000000ff",
  "font_name": "Cairo-Regular",
  "font_size": 100,
  "font_style": "normal",
  "font_weight": "normal",
  "isDefaultSkin": true,
  "kuid": "sa5e50829fcb40d087a1177595e1f082",
  "wType": "ComboBox"
}