{
    "DNDConfig": null,
    "__markedForDelete__": true,
    "__parentReadjusting__": false,
    "_height_": {
        "type": "ref",
        "value": "preferred"
    },
    "_left_": {
        "type": "string",
        "value": "5%"
    },
    "_margin_": [
        0,
        0,
        0,
        0
    ],
    "_orientation_": 6,
    "_padding_": [
        0,
        0,
        0,
        0
    ],
    "_percent_": true,
    "_skin_": "s6ce7a32ad744c6bb6a656db53b05b02",
    "_width_": {
        "type": "string",
        "value": "90%"
    },
    "allboxes": [],
    "autogrowmode": 1,
    "canUpdateUI": true,
    "centery": {
        "type": "string",
        "value": "50%"
    },
    "children": [
        "CopyLabel0d262912d12cf4f",
        "CopySwitch0ca632b3700c14e"
    ],
    "clipbounds": true,
    "containerweight": 100,
    "enablescrolling": true,
    "id": "CopyflxAltAuthPIN0i58c1e23dacd40",
    "info": null,
    "isvisible": true,
    "kuid": "ba6f9a75d0e64d18bdda3bf05cf40ec0",
    "layouttype": 2,
    "name": "kony.ui.FlexContainer",
    "parent": "flxTransactionPreview",
    "pf": "frmAuthorizationAlternatives",
    "snapgridsize": 10,
    "snaptogrid": true,
    "wType": "FlexContainer",
    "widgetalignment": 1,
    "zindex": 1
}