{
    "@class": "com.kony.gen.viz.model.container.KVizSegment2",
    "DNDConfig": null,
    "__markedForDelete__": true,
    "__parentReadjusting__": false,
    "_data_": [
        {
            "lblAccNumber": {
                "@class": "com.viz.ide.model.segment.SimpleTextSegmentData",
                "text": "Label"
            },
            "lblAccount": {
                "@class": "com.viz.ide.model.segment.SimpleTextSegmentData",
                "text": "Salary account ***125"
            },
            "lblAccountName": {
                "@class": "com.viz.ide.model.segment.SimpleTextSegmentData",
                "text": "Salary Account"
            },
            "lblIncommingRing": {
                "@class": "com.viz.ide.model.segment.SimpleTextSegmentData",
                "text": "s"
            },
            "lblIncommingTick": {
                "@class": "com.viz.ide.model.segment.SimpleTextSegmentData",
                "text": "r"
            }
        },
        {
            "lblAccNumber": {
                "@class": "com.viz.ide.model.segment.SimpleTextSegmentData",
                "text": "Label"
            },
            "lblAccount": {
                "@class": "com.viz.ide.model.segment.SimpleTextSegmentData",
                "text": "Savings account ***125"
            },
            "lblAccountName": {
                "@class": "com.viz.ide.model.segment.SimpleTextSegmentData",
                "text": "Salary Account"
            },
            "lblIncommingRing": {
                "@class": "com.viz.ide.model.segment.SimpleTextSegmentData",
                "text": "s"
            },
            "lblIncommingTick": {
                "@class": "com.viz.ide.model.segment.SimpleTextSegmentData",
                "text": "r"
            }
        }
    ],
    "_height_": {
        "type": "ref",
        "value": "preferred"
    },
    "_indicator_": "none",
    "_left_": {
        "type": "string",
        "value": "4%"
    },
    "_margin_": [
        0,
        0,
        0,
        0
    ],
    "_orientation_": 2,
    "_padding_": [
        0,
        0,
        0,
        0
    ],
    "_top_": {
        "type": "string",
        "value": "10dp"
    },
    "_width_": {
        "type": "string",
        "value": "92%"
    },
    "autogrowmode": 1,
    "canUpdateUI": true,
    "centerx": {
        "type": "string",
        "value": "51.06%"
    },
    "containerweight": 100,
    "counter": "01",
    "disabledSkins": {},
    "enablereordering": false,
    "focusedindex": null,
    "focuseditem": null,
    "groupcells": false,
    "hasSections": false,
    "id": "segAccounts",
    "ide_onRowClick": "AS_Segment_f3447e178f93428286a796ca215d9354",
    "info": null,
    "ipad": {
        "psp": {
            "indicator": "rowselect"
        }
    },
    "iphone": {
        "psp": {
            "bounces": false,
            "indicator": "none",
            "showProgressIndicator": false
        }
    },
    "isvisible": true,
    "kuid": "e04b1fc3f62b443b9589782d714038dc",
    "masterdata": {},
    "name": "kony.ui.SegmentedUI2",
    "needpageindicator": true,
    "paddinginpixel": false,
    "pageoffdotimage": "pageoffdot.png",
    "pageondotimage": "pageondot.png",
    "paginationconfig": {
        "position": "bottom"
    },
    "parent": "flxQuickBalance",
    "pf": "frmAuthorizationAlternatives",
    "retainselection": false,
    "rowTemplateId": "eaffaf4411374873a8e4ac5cab51cca8",
    "rowcounter": 1,
    "rowfocusskin": "s5fa38be22fb4f22b7c642b08276ab82",
    "rowskin": "s27c76e85b844e03945d12f1113a8f87",
    "rowtemplate": "flxSegQuickBalance",
    "screenlevelwidget": false,
    "seccounter": 0,
    "sectionHeaderTemplateId": null,
    "sectionheaderskin": "s67621b8a82d49f285da06b4f5a0c993",
    "selectedRows": null,
    "selectedState": false,
    "selectedindex": null,
    "selectedindices": null,
    "selecteditems": null,
    "selectedsectionindex": 0,
    "selectionbehavior": "default",
    "separatorrequired": false,
    "showprogressindicator": false,
    "showscrollbars": false,
    "viewtype": "tableview",
    "wType": "Segment",
    "widgetalignment": 5,
    "widgetdatamap": {
        "flxSegQuickBalance": "flxSegQuickBalance",
        "lblAccNumber": "lblAccNumber",
        "lblAccount": "lblAccount",
        "lblAccountName": "lblAccountName",
        "lblIncommingRing": "lblIncommingRing",
        "lblIncommingTick": "lblIncommingTick"
    },
    "zindex": 1
}