{
    "@class": "com.kony.gen.viz.model.component.KVizButton",
    "DNDConfig": null,
    "__parentReadjusting__": false,
    "_height_": {
        "type": "string",
        "value": "90%"
    },
    "_left_": {
        "type": "string",
        "value": "0%"
    },
    "_margin_": [
        6,
        6,
        6,
        6
    ],
    "_padding_": [
        0,
        0,
        0,
        0
    ],
    "_skin_": "s17e292d54bd48bd8bd8a070c6c1819a",
    "_text_": "",
    "_top_": {
        "type": "string",
        "value": "0%"
    },
    "_width_": {
        "type": "string",
        "value": "45%"
    },
    "canUpdateUI": true,
    "centerx": {
        "type": "string",
        "value": "75%"
    },
    "containerweight": 100,
    "contentalignment": 5,
    "displaytext": true,
    "focusskin": "sbe1e969bc9948e288db010580bd90b0",
    "id": "btnMobileNumber",
    "ide_onClick": "AS_Button_d5bdddf90b68441f9306ca6944e82cf9",
    "info": null,
    "isvisible": true,
    "kuid": "f5ae941a01854a83a3251d84bfc242e3",
    "name": "kony.ui.Button",
    "parent": "FlexContainer0ia570f0c4eb44e",
    "pf": "frmIPSRegistration",
    "texti18n": "i18n.jomopay.mobiletype",
    "wType": "Button",
    "zindex": 1
}