{
    "@class": "com.kony.gen.viz.model.container.KVizSegment2",
    "DNDConfig": null,
    "__markedForDelete__": true,
    "__parentReadjusting__": false,
    "_data_": [
        {
            "lblBottomTitle": {
                "@class": "com.viz.ide.model.segment.SimpleTextSegmentData",
                "text": "00123458746"
            },
            "lblBottomTitle1": {
                "@class": "com.viz.ide.model.segment.SimpleTextSegmentData",
                "text": "00123458746"
            },
            "lblBottomTitle2": {
                "@class": "com.viz.ide.model.segment.SimpleTextSegmentData",
                "text": "00123458746"
            },
            "lblBottomValue": {
                "@class": "com.viz.ide.model.segment.SimpleTextSegmentData",
                "text": "Saving Account"
            },
            "lblBottomValue1": {
                "@class": "com.viz.ide.model.segment.SimpleTextSegmentData",
                "text": "Saving Account"
            },
            "lblBottomValue2": {
                "@class": "com.viz.ide.model.segment.SimpleTextSegmentData",
                "text": "Saving Account"
            },
            "lblTopTitle": {
                "@class": "com.viz.ide.model.segment.SimpleTextSegmentData",
                "text": "00123458746"
            },
            "lblTopTitle1": {
                "@class": "com.viz.ide.model.segment.SimpleTextSegmentData",
                "text": "00123458746"
            },
            "lblTopValue": {
                "@class": "com.viz.ide.model.segment.SimpleTextSegmentData",
                "text": "Saving Account"
            },
            "lblTopValue1": {
                "@class": "com.viz.ide.model.segment.SimpleTextSegmentData",
                "text": "Saving Account"
            }
        },
        {
            "lblBottomTitle": {
                "@class": "com.viz.ide.model.segment.SimpleTextSegmentData",
                "text": "00123458746"
            },
            "lblBottomTitle1": {
                "@class": "com.viz.ide.model.segment.SimpleTextSegmentData",
                "text": "00123458746"
            },
            "lblBottomTitle2": {
                "@class": "com.viz.ide.model.segment.SimpleTextSegmentData",
                "text": "00123458746"
            },
            "lblBottomValue": {
                "@class": "com.viz.ide.model.segment.SimpleTextSegmentData",
                "text": "Saving Account"
            },
            "lblBottomValue1": {
                "@class": "com.viz.ide.model.segment.SimpleTextSegmentData",
                "text": "Saving Account"
            },
            "lblBottomValue2": {
                "@class": "com.viz.ide.model.segment.SimpleTextSegmentData",
                "text": "Saving Account"
            },
            "lblTopTitle": {
                "@class": "com.viz.ide.model.segment.SimpleTextSegmentData",
                "text": "00123458746"
            },
            "lblTopTitle1": {
                "@class": "com.viz.ide.model.segment.SimpleTextSegmentData",
                "text": "00123458746"
            },
            "lblTopValue": {
                "@class": "com.viz.ide.model.segment.SimpleTextSegmentData",
                "text": "Saving Account"
            },
            "lblTopValue1": {
                "@class": "com.viz.ide.model.segment.SimpleTextSegmentData",
                "text": "Saving Account"
            }
        },
        {
            "lblBottomTitle": {
                "@class": "com.viz.ide.model.segment.SimpleTextSegmentData",
                "text": "00123458746"
            },
            "lblBottomTitle1": {
                "@class": "com.viz.ide.model.segment.SimpleTextSegmentData",
                "text": "00123458746"
            },
            "lblBottomTitle2": {
                "@class": "com.viz.ide.model.segment.SimpleTextSegmentData",
                "text": "00123458746"
            },
            "lblBottomValue": {
                "@class": "com.viz.ide.model.segment.SimpleTextSegmentData",
                "text": "Saving Account"
            },
            "lblBottomValue1": {
                "@class": "com.viz.ide.model.segment.SimpleTextSegmentData",
                "text": "Saving Account"
            },
            "lblBottomValue2": {
                "@class": "com.viz.ide.model.segment.SimpleTextSegmentData",
                "text": "Saving Account"
            },
            "lblTopTitle": {
                "@class": "com.viz.ide.model.segment.SimpleTextSegmentData",
                "text": "00123458746"
            },
            "lblTopTitle1": {
                "@class": "com.viz.ide.model.segment.SimpleTextSegmentData",
                "text": "00123458746"
            },
            "lblTopValue": {
                "@class": "com.viz.ide.model.segment.SimpleTextSegmentData",
                "text": "Saving Account"
            },
            "lblTopValue1": {
                "@class": "com.viz.ide.model.segment.SimpleTextSegmentData",
                "text": "Saving Account"
            }
        }
    ],
    "_enabled_": true,
    "_height_": {
        "type": "ref",
        "value": "preferred"
    },
    "_indicator_": "none",
    "_left_": 0,
    "_margin_": [
        0,
        0,
        0,
        0
    ],
    "_opacity_": 100,
    "_orientation_": 2,
    "_padding_": [
        0,
        0,
        0,
        0
    ],
    "_top_": 0,
    "_width_": {
        "type": "ref",
        "value": "preferred"
    },
    "autogrowmode": 1,
    "canUpdateUI": true,
    "containerweight": 100,
    "counter": "02",
    "focusedindex": null,
    "focuseditem": null,
    "groupcells": false,
    "hasSections": false,
    "id": "segDetails",
    "info": null,
    "ipad": {
        "psp": {
            "indicator": "rowselect"
        }
    },
    "iphone": {
        "psp": {
            "indicator": "rowselect"
        }
    },
    "isvisible": true,
    "kuid": "h7a2d8344cda498886df13fdaab4b06d",
    "masterdata": {},
    "name": "kony.ui.SegmentedUI2",
    "needpageindicator": true,
    "paddinginpixel": true,
    "pageoffdotimage": "pageoffdot.png",
    "pageondotimage": "pageondot.png",
    "paginationconfig": {
        "position": "bottom"
    },
    "parent": "frmWatMenuLAndDDetails",
    "pf": "frmWatMenuLAndDDetails",
    "retainselection": false,
    "rowTemplateId": "fa8426dbd37b4d45ace47a80650b14a8",
    "rowcounter": 2,
    "rowtemplate": "grpLDMain",
    "screenlevelwidget": false,
    "seccounter": 0,
    "sectionHeaderTemplateId": null,
    "selectedRows": null,
    "selectedState": false,
    "selectedindex": null,
    "selectedindices": null,
    "selecteditems": null,
    "selectedsectionindex": 0,
    "selectionbehavior": "default",
    "separatorcolor": "64646400",
    "separatorrequired": true,
    "separatorthickness": 1,
    "showscrollbars": false,
    "viewtype": "tableview",
    "wType": "Segment",
    "widgetalignment": 2,
    "widgetdatamap": {
        "grpBottom": "grpBottom",
        "grpBottom01": "grpBottom01",
        "grpBottom1": "grpBottom1",
        "grpBottom2": "grpBottom2",
        "grpContent": "grpContent",
        "grpLDMain": "grpLDMain",
        "grpMContent": "grpMContent",
        "grpTop": "grpTop",
        "grpTop1": "grpTop1",
        "lblBottomTitle": "lblBottomTitle",
        "lblBottomTitle01": "lblBottomTitle01",
        "lblBottomTitle1": "lblBottomTitle1",
        "lblBottomTitle2": "lblBottomTitle2",
        "lblBottomValue": "lblBottomValue",
        "lblBottomValue01": "lblBottomValue01",
        "lblBottomValue1": "lblBottomValue1",
        "lblBottomValue2": "lblBottomValue2",
        "lblTopTitle": "lblTopTitle",
        "lblTopTitle1": "lblTopTitle1",
        "lblTopValue": "lblTopValue",
        "lblTopValue1": "lblTopValue1"
    },
    "widgetskin": "s91aaf68d2604cdc9081ab992188a9a4"
}