{
    "@class": "com.kony.gen.viz.model.container.KVizSegment2",
    "DNDConfig": null,
    "__parentReadjusting__": false,
    "_data_": [
        [
            {
                "lblHeaderKA": {
                    "@class": "com.viz.ide.model.segment.SimpleTextSegmentData",
                    "text": "Example"
                }
            },
            [
                {
                    "imgSearch": {
                        "@class": "com.viz.ide.model.segment.ImageSegmentData",
                        "src": "dropdownlist.png"
                    },
                    "lblAnswer": {
                        "@class": "com.viz.ide.model.segment.SimpleTextSegmentData",
                        "text": "Bill Payment"
                    },
                    "lblQuestion": {
                        "@class": "com.viz.ide.model.segment.SimpleTextSegmentData",
                        "text": "How to activate the username ?"
                    }
                },
                {
                    "imgSearch": {
                        "@class": "com.viz.ide.model.segment.ImageSegmentData",
                        "src": "dropdownlist.png"
                    },
                    "lblAnswer": {
                        "@class": "com.viz.ide.model.segment.SimpleTextSegmentData",
                        "text": "Yes"
                    },
                    "lblQuestion": {
                        "@class": "com.viz.ide.model.segment.SimpleTextSegmentData",
                        "text": "How to unlock my profile?"
                    }
                }
            ]
        ],
        [
            {
                "lblHeaderKA": {
                    "@class": "com.viz.ide.model.segment.SimpleTextSegmentData",
                    "text": "Example"
                }
            },
            [
                {
                    "imgSearch": {
                        "@class": "com.viz.ide.model.segment.ImageSegmentData",
                        "src": "dropdownlist.png"
                    },
                    "lblAnswer": {
                        "@class": "com.viz.ide.model.segment.SimpleTextSegmentData",
                        "text": "Bill Payment"
                    },
                    "lblQuestion": {
                        "@class": "com.viz.ide.model.segment.SimpleTextSegmentData",
                        "text": "How to activate the username ?"
                    }
                },
                {
                    "imgSearch": {
                        "@class": "com.viz.ide.model.segment.ImageSegmentData",
                        "src": "dropdownlist.png"
                    },
                    "lblAnswer": {
                        "@class": "com.viz.ide.model.segment.SimpleTextSegmentData",
                        "text": "Yes"
                    },
                    "lblQuestion": {
                        "@class": "com.viz.ide.model.segment.SimpleTextSegmentData",
                        "text": "How to unlock my profile?"
                    }
                }
            ]
        ]
    ],
    "_height_": {
        "type": "ref",
        "value": "preferred"
    },
    "_indicator_": "none",
    "_left_": {
        "type": "string",
        "value": "0dp"
    },
    "_margin_": [
        0,
        0,
        0,
        0
    ],
    "_orientation_": 2,
    "_padding_": [
        0,
        0,
        0,
        0
    ],
    "_top_": {
        "type": "string",
        "value": "0dp"
    },
    "_width_": {
        "type": "string",
        "value": "100%"
    },
    "autogrowmode": 1,
    "canUpdateUI": true,
    "containerweight": 100,
    "counter": "11",
    "focusedindex": null,
    "focuseditem": null,
    "groupcells": false,
    "hasSections": true,
    "id": "CopysegFaq0fbe87da754cd47",
    "info": null,
    "ipad": {
        "psp": {
            "indicator": "rowselect"
        }
    },
    "iphone": {
        "psp": {
            "indicator": "rowselect"
        }
    },
    "isvisible": true,
    "kuid": "d3e0837104ca45b1ab09f3872801ef8d",
    "masterdata": {},
    "name": "kony.ui.SegmentedUI2",
    "needpageindicator": true,
    "pageoffdotimage": "pageoffdot.png",
    "pageondotimage": "pageondot.png",
    "paginationconfig": {
        "position": "bottom"
    },
    "parent": "CopyFlexContainer0g4a81c2ff16e44",
    "pf": "frmInformationKA",
    "retainselection": false,
    "rowTemplateId": "c0ec49adc372459d9768a9dac2a6cfba",
    "rowcounter": 1,
    "rowfocusskin": "s5fa38be22fb4f22b7c642b08276ab82",
    "rowskin": "sd2ca277651a46c0ba82f3226859f5a6",
    "rowtemplate": "flxFAQRow",
    "screenlevelwidget": false,
    "seccounter": 1,
    "sectionHeaderTemplateId": "12354dd64f814198a16f1050bdf37bc7",
    "sectionheaderskin": "s67621b8a82d49f285da06b4f5a0c993",
    "sectionheadertemplate": "Copycontainer087f3a0994b334a",
    "selectedRows": null,
    "selectedState": false,
    "selectedindex": null,
    "selectedindices": null,
    "selecteditems": null,
    "selectedsectionindex": 0,
    "selectionbehavior": "default",
    "separatorcolor": "64646400",
    "separatorrequired": true,
    "separatorthickness": 3,
    "showscrollbars": false,
    "viewtype": "tableview",
    "vizProps": {},
    "wType": "Segment",
    "widgetalignment": 5,
    "widgetdatamap": {
        "Copycontainer087f3a0994b334a": "Copycontainer087f3a0994b334a",
        "contactListDivider": "contactListDivider",
        "flxFAQRow": "flxFAQRow",
        "flxQuestion": "flxQuestion",
        "imgSearch": "imgSearch",
        "lblAnswer": "lblAnswer",
        "lblHeaderKA": "lblHeaderKA",
        "lblQuestion": "lblQuestion"
    },
    "zindex": 1
}