{
    "@class": "com.kony.gen.viz.model.container.KVizSegment2",
    "DNDConfig": null,
    "__parentReadjusting__": false,
    "_data_": [
        [
            {
                "lblHeaderKA": {
                    "@class": "com.viz.ide.model.segment.SimpleTextSegmentData",
                    "text": "Example"
                }
            },
            [
                {
                    "imgNews": {
                        "@class": "com.viz.ide.model.segment.ImageSegmentData",
                        "src": "yellowcard.png"
                    },
                    "lblDescription": {
                        "@class": "com.viz.ide.model.segment.SimpleTextSegmentData",
                        "text": "Get 5% Cash Back on your purchase when using Bank of Jordon Credit Card"
                    },
                    "lblHeader": {
                        "@class": "com.viz.ide.model.segment.SimpleTextSegmentData",
                        "text": "5% CashBack"
                    },
                    "lblSymbol": {
                        "@class": "com.viz.ide.model.segment.SimpleTextSegmentData",
                        "text": "Label"
                    }
                },
                {
                    "imgNews": {
                        "@class": "com.viz.ide.model.segment.ImageSegmentData",
                        "src": "card_affluent_debit.png"
                    },
                    "lblDescription": {
                        "@class": "com.viz.ide.model.segment.SimpleTextSegmentData",
                        "text": "Apply for a loan to buy a taxi with a registration licence or to renew your taxi"
                    },
                    "lblHeader": {
                        "@class": "com.viz.ide.model.segment.SimpleTextSegmentData",
                        "text": "Taxi Loan-Renew your car"
                    },
                    "lblSymbol": {
                        "@class": "com.viz.ide.model.segment.SimpleTextSegmentData",
                        "text": "Label"
                    }
                },
                {
                    "imgNews": {
                        "@class": "com.viz.ide.model.segment.ImageSegmentData",
                        "src": "boj_card_elite_debit_v4_01.png"
                    },
                    "lblDescription": {
                        "@class": "com.viz.ide.model.segment.SimpleTextSegmentData",
                        "text": "Get 10% Cash Back on your purchase when using Bank of Jordon Credit Card"
                    },
                    "lblHeader": {
                        "@class": "com.viz.ide.model.segment.SimpleTextSegmentData",
                        "text": "10% CashBack"
                    },
                    "lblSymbol": {
                        "@class": "com.viz.ide.model.segment.SimpleTextSegmentData",
                        "text": "Label"
                    }
                },
                {
                    "imgNews": {
                        "@class": "com.viz.ide.model.segment.ImageSegmentData",
                        "src": "card_gold.png"
                    },
                    "lblDescription": {
                        "@class": "com.viz.ide.model.segment.SimpleTextSegmentData",
                        "text": "Apply for a loan to buy a taxi with a registration licence or to renew your taxi"
                    },
                    "lblHeader": {
                        "@class": "com.viz.ide.model.segment.SimpleTextSegmentData",
                        "text": "Taxi Loan-Renew your car"
                    },
                    "lblSymbol": {
                        "@class": "com.viz.ide.model.segment.SimpleTextSegmentData",
                        "text": "Label"
                    }
                },
                {
                    "imgNews": {
                        "@class": "com.viz.ide.model.segment.ImageSegmentData",
                        "src": "card_silver.png"
                    },
                    "lblDescription": {
                        "@class": "com.viz.ide.model.segment.SimpleTextSegmentData",
                        "text": "Get 15% Cash Back on your purchase when using Bank of Jordon Credit Card"
                    },
                    "lblHeader": {
                        "@class": "com.viz.ide.model.segment.SimpleTextSegmentData",
                        "text": "15% CashBack"
                    },
                    "lblSymbol": {
                        "@class": "com.viz.ide.model.segment.SimpleTextSegmentData",
                        "text": "Label"
                    }
                }
            ]
        ],
        [
            {
                "lblHeaderKA": {
                    "@class": "com.viz.ide.model.segment.SimpleTextSegmentData",
                    "text": "Example"
                }
            },
            [
                {
                    "imgNews": {
                        "@class": "com.viz.ide.model.segment.ImageSegmentData",
                        "src": "yellowcard.png"
                    },
                    "lblDescription": {
                        "@class": "com.viz.ide.model.segment.SimpleTextSegmentData",
                        "text": "Get 5% Cash Back on your purchase when using Bank of Jordon Credit Card"
                    },
                    "lblHeader": {
                        "@class": "com.viz.ide.model.segment.SimpleTextSegmentData",
                        "text": "5% CashBack"
                    },
                    "lblSymbol": {
                        "@class": "com.viz.ide.model.segment.SimpleTextSegmentData",
                        "text": "Label"
                    }
                },
                {
                    "imgNews": {
                        "@class": "com.viz.ide.model.segment.ImageSegmentData",
                        "src": "card_affluent_debit.png"
                    },
                    "lblDescription": {
                        "@class": "com.viz.ide.model.segment.SimpleTextSegmentData",
                        "text": "Apply for a loan to buy a taxi with a registration licence or to renew your taxi"
                    },
                    "lblHeader": {
                        "@class": "com.viz.ide.model.segment.SimpleTextSegmentData",
                        "text": "Taxi Loan-Renew your car"
                    },
                    "lblSymbol": {
                        "@class": "com.viz.ide.model.segment.SimpleTextSegmentData",
                        "text": "Label"
                    }
                },
                {
                    "imgNews": {
                        "@class": "com.viz.ide.model.segment.ImageSegmentData",
                        "src": "boj_card_elite_debit_v4_01.png"
                    },
                    "lblDescription": {
                        "@class": "com.viz.ide.model.segment.SimpleTextSegmentData",
                        "text": "Get 10% Cash Back on your purchase when using Bank of Jordon Credit Card"
                    },
                    "lblHeader": {
                        "@class": "com.viz.ide.model.segment.SimpleTextSegmentData",
                        "text": "10% CashBack"
                    },
                    "lblSymbol": {
                        "@class": "com.viz.ide.model.segment.SimpleTextSegmentData",
                        "text": "Label"
                    }
                },
                {
                    "imgNews": {
                        "@class": "com.viz.ide.model.segment.ImageSegmentData",
                        "src": "card_gold.png"
                    },
                    "lblDescription": {
                        "@class": "com.viz.ide.model.segment.SimpleTextSegmentData",
                        "text": "Apply for a loan to buy a taxi with a registration licence or to renew your taxi"
                    },
                    "lblHeader": {
                        "@class": "com.viz.ide.model.segment.SimpleTextSegmentData",
                        "text": "Taxi Loan-Renew your car"
                    },
                    "lblSymbol": {
                        "@class": "com.viz.ide.model.segment.SimpleTextSegmentData",
                        "text": "Label"
                    }
                },
                {
                    "imgNews": {
                        "@class": "com.viz.ide.model.segment.ImageSegmentData",
                        "src": "card_silver.png"
                    },
                    "lblDescription": {
                        "@class": "com.viz.ide.model.segment.SimpleTextSegmentData",
                        "text": "Get 15% Cash Back on your purchase when using Bank of Jordon Credit Card"
                    },
                    "lblHeader": {
                        "@class": "com.viz.ide.model.segment.SimpleTextSegmentData",
                        "text": "15% CashBack"
                    },
                    "lblSymbol": {
                        "@class": "com.viz.ide.model.segment.SimpleTextSegmentData",
                        "text": "Label"
                    }
                }
            ]
        ]
    ],
    "_height_": {
        "type": "ref",
        "value": "preferred"
    },
    "_indicator_": "none",
    "_left_": {
        "type": "string",
        "value": "0dp"
    },
    "_margin_": [
        0,
        0,
        0,
        0
    ],
    "_orientation_": 2,
    "_padding_": [
        0,
        0,
        0,
        0
    ],
    "_top_": {
        "type": "string",
        "value": "3%"
    },
    "_width_": {
        "type": "string",
        "value": "100%"
    },
    "autogrowmode": 1,
    "canUpdateUI": true,
    "containerweight": 100,
    "counter": "14",
    "focusedindex": null,
    "focuseditem": null,
    "groupcells": false,
    "hasSections": true,
    "hiddencolumns": {
        "categoryId": "text",
        "categoryImageId": "text"
    },
    "id": "segOffersKA",
    "ide_onRowClick": "AS_Segment_g57b7174d98a42f890b5b8d737ef0f14",
    "info": null,
    "ipad": {
        "psp": {
            "indicator": "rowselect"
        }
    },
    "iphone": {
        "psp": {
            "indicator": "rowselect"
        }
    },
    "isvisible": false,
    "kuid": "b33d848472234dff9245f4415401a691",
    "masterdata": {},
    "name": "kony.ui.SegmentedUI2",
    "needpageindicator": true,
    "pageoffdotimage": "pageoffdot.png",
    "pageondotimage": "pageondot.png",
    "paginationconfig": {
        "position": "bottom"
    },
    "parent": "flxInnerNews",
    "pf": "frmInformationKA",
    "retainselection": false,
    "rowTemplateId": "i082176e274941e9b4bedd341c536b9b",
    "rowcounter": 4,
    "rowfocusskin": "s5fa38be22fb4f22b7c642b08276ab82",
    "rowskin": "sa6b60f82c794c549f47385fc48980a1",
    "rowtemplate": "flxInformation",
    "screenlevelwidget": false,
    "seccounter": 1,
    "sectionHeaderTemplateId": "12354dd64f814198a16f1050bdf37bc7",
    "sectionheaderskin": "s8122beaea0d43fab188b2dbec12315d",
    "sectionheadertemplate": "Copycontainer087f3a0994b334a",
    "selectedRows": null,
    "selectedState": false,
    "selectedindex": null,
    "selectedindices": null,
    "selecteditems": null,
    "selectedsectionindex": 0,
    "selectionbehavior": "default",
    "separatorcolor": "052c4900",
    "separatorrequired": true,
    "separatorthickness": 2,
    "showscrollbars": false,
    "viewtype": "tableview",
    "vizProps": {},
    "wType": "Segment",
    "widgetalignment": 5,
    "widgetdatamap": {
        "Copycontainer087f3a0994b334a": "Copycontainer087f3a0994b334a",
        "contactListDivider": "contactListDivider",
        "flxBody": "flxBody",
        "flxInformation": "flxInformation",
        "imgNews": "imgNews",
        "lblDescription": "lblDescription",
        "lblHeader": "lblHeader",
        "lblHeaderKA": "lblHeaderKA",
        "lblSymbol": "lblSymbol"
    },
    "zindex": 1
}