{
    "@class": "com.kony.gen.viz.model.container.KVizSegment2",
    "DNDConfig": null,
    "__parentReadjusting__": false,
    "_data_": [
        {
            "imgSearch": {
                "@class": "com.viz.ide.model.segment.ImageSegmentData",
                "src": "dropdownlist.png"
            },
            "lblAnswer": {
                "@class": "com.viz.ide.model.segment.SimpleTextSegmentData",
                "text": ""
            },
            "lblQuestion": {
                "@class": "com.viz.ide.model.segment.SimpleTextSegmentData",
                "text": "This Device "
            }
        },
        {
            "imgSearch": {
                "@class": "com.viz.ide.model.segment.ImageSegmentData",
                "src": "dropdownlist.png"
            },
            "lblAnswer": {
                "@class": "com.viz.ide.model.segment.SimpleTextSegmentData",
                "text": ""
            },
            "lblQuestion": {
                "@class": "com.viz.ide.model.segment.SimpleTextSegmentData",
                "text": "This Device "
            }
        },
        {
            "imgSearch": {
                "@class": "com.viz.ide.model.segment.ImageSegmentData",
                "src": "dropdownlist.png"
            },
            "lblAnswer": {
                "@class": "com.viz.ide.model.segment.SimpleTextSegmentData",
                "text": ""
            },
            "lblQuestion": {
                "@class": "com.viz.ide.model.segment.SimpleTextSegmentData",
                "text": "This Device "
            }
        }
    ],
    "_height_": {
        "type": "string",
        "value": "100%"
    },
    "_indicator_": "none",
    "_left_": {
        "type": "string",
        "value": "13dp"
    },
    "_margin_": [
        0,
        0,
        0,
        0
    ],
    "_orientation_": 2,
    "_padding_": [
        0,
        0,
        0,
        0
    ],
    "_top_": {
        "type": "string",
        "value": "48dp"
    },
    "_width_": {
        "type": "string",
        "value": "90%"
    },
    "autogrowmode": 0,
    "canUpdateUI": true,
    "centerx": {
        "type": "string",
        "value": "50%"
    },
    "containerweight": 100,
    "counter": "02",
    "focusedindex": null,
    "focuseditem": null,
    "groupcells": false,
    "hasSections": false,
    "id": "segSearchedFAQ",
    "ide_onRowClick": "AS_Segment_d6d4bc3b6e7e442b9f9d2a902ba925da",
    "info": null,
    "ipad": {
        "psp": {
            "indicator": "rowselect"
        }
    },
    "iphone": {
        "psp": {
            "indicator": "none",
            "showProgressIndicator": false
        }
    },
    "isvisible": true,
    "kuid": "de515da2af4e4b52ba2e96db536c0c34",
    "masterdata": {},
    "name": "kony.ui.SegmentedUI2",
    "needpageindicator": true,
    "pageoffdotimage": "pageoffdot.png",
    "pageondotimage": "pageondot.png",
    "paginationconfig": {
        "position": "bottom"
    },
    "parent": "flxFAQSearch",
    "pf": "frmInformationKA",
    "retainselection": false,
    "rowTemplateId": "c0ec49adc372459d9768a9dac2a6cfba",
    "rowcounter": 2,
    "rowfocusskin": "s5fa38be22fb4f22b7c642b08276ab82",
    "rowskin": "s54274d5701a478895f4e92509502045",
    "rowtemplate": "flxFAQRow",
    "screenlevelwidget": false,
    "seccounter": 0,
    "sectionheaderskin": "s67621b8a82d49f285da06b4f5a0c993",
    "selectedRows": null,
    "selectedState": false,
    "selectedindex": null,
    "selectedindices": null,
    "selecteditems": null,
    "selectedsectionindex": 0,
    "selectionbehavior": "default",
    "separatorcolor": "052c4900",
    "separatorrequired": true,
    "separatorthickness": 2,
    "showprogressindicator": false,
    "showscrollbars": false,
    "viewtype": "tableview",
    "vizProps": {},
    "wType": "Segment",
    "widgetalignment": 5,
    "widgetdatamap": {
        "flxFAQRow": "flxFAQRow",
        "flxQuestion": "flxQuestion",
        "imgSearch": "imgSearch",
        "lblAnswer": "lblAnswer",
        "lblQuestion": "lblQuestion"
    },
    "zindex": 1
}