{
    "@class": "com.kony.gen.viz.model.component.KVizLabel",
    "DNDConfig": null,
    "__parentReadjusting__": false,
    "_height_": {
        "type": "ref",
        "value": "preferred"
    },
    "_margin_": [
        1,
        1,
        1,
        1
    ],
    "_padding_": [
        0,
        0,
        0,
        0
    ],
    "_right_": {
        "type": "string",
        "value": "6%"
    },
    "_skin_": "s391c83d39e84548aa5c542c36c1bcb8",
    "_text_": "'",
    "_width_": {
        "type": "ref",
        "value": "preferred"
    },
    "_wrapping_": 2,
    "android": {
        "textStyle": {
            "letterSpacing": 0,
            "strikeThrough": false
        }
    },
    "canUpdateUI": true,
    "centery": {
        "type": "string",
        "value": "50%"
    },
    "containerweight": 100,
    "contentalignment": 5,
    "id": "btnSmartSaving",
    "ide_onTouchEnd": "AS_Label_ca992aefd2544a18a9972179c30e66cc",
    "info": null,
    "ipad": {
        "psp": {
            "wrapping": 2
        }
    },
    "iphone": {
        "psp": {
            "wrapping": 2
        }
    },
    "isvisible": false,
    "kuid": "d35ec625b71f47a4a44dcca34a9205d2",
    "name": "kony.ui.Label",
    "parent": "lblAccountType",
    "pf": "frmAccountInfoKA",
    "textstyle": {},
    "tooltip": "",
    "wType": "Label",
    "zindex": 1
}