{
    "@class": "com.kony.gen.viz.model.component.KVizLabel",
    "DNDConfig": null,
    "__parentReadjusting__": false,
    "_height_": {
        "type": "string",
        "value": "25dp"
    },
    "_left_": {
        "type": "string",
        "value": "0%"
    },
    "_margin_": [
        1,
        1,
        1,
        1
    ],
    "_padding_": [
        0,
        0,
        0,
        0
    ],
    "_skin_": "s3edf50da0e64d5b8f85f0889052373b",
    "_text_": "Deposit number",
    "_top_": {
        "type": "string",
        "value": "8dp"
    },
    "_width_": {
        "type": "string",
        "value": "100%"
    },
    "_wrapping_": 2,
    "canUpdateUI": true,
    "containerweight": 100,
    "contentalignment": 6,
    "enabled": false,
    "id": "CopylblType0jbef84e5496547",
    "info": null,
    "ipad": {
        "psp": {
            "wrapping": 2
        }
    },
    "iphone": {
        "psp": {
            "wrapping": 2
        }
    },
    "iscustomlayout": true,
    "isvisible": true,
    "kuid": "aa6020fa27aa460eb5ee78831410a9f3",
    "name": "kony.ui.Label",
    "parent": "CopyflxRight0ff6720b2fbd848",
    "pf": "frmAccountInfoKA",
    "retaincontentalignment": true,
    "retainflexpositionproperties": true,
    "texti18n": "i18n.Deposit.depositNumber",
    "tooltip": "",
    "wType": "Label"
}