{
    "@class": "com.kony.gen.viz.model.component.KVizTextBox2",
    "DNDConfig": null,
    "__parentReadjusting__": false,
    "_height_": {
        "type": "string",
        "value": "80%"
    },
    "_left_": {
        "type": "string",
        "value": "25%"
    },
    "_margin_": [
        0,
        0,
        0,
        0
    ],
    "_padding_": [
        0,
        0,
        0,
        0
    ],
    "_placeholder_": "0",
    "_skin_": "s029998596d3421892d0917ea7492e1d",
    "_text_": "",
    "_top_": {
        "type": "number",
        "value": "0"
    },
    "_width_": {
        "type": "string",
        "value": "30%"
    },
    "android": {
        "ide_onBeginEditing": "AS_TextField_bb5866a526ad4a92b5a1df88c0986ac5",
        "ide_onEndEditing": "AS_TextField_fa5aa4c816044572bc5296bc0dde018d",
        "psp": {
            "keyboardActionLabel": 12
        }
    },
    "autocapitalize": "none",
    "autocomplete": false,
    "autocorrect": false,
    "autofilter": false,
    "canUpdateUI": true,
    "centery": {
        "type": "string",
        "value": "50%"
    },
    "containerheight": "",
    "containerheightmode": 1,
    "containerweight": 100,
    "contentalignment": 5,
    "focusskin": "sa25e426dcb94c13ab46f59a2b31a09a",
    "id": "txtFieldAmount",
    "ide_onDone": "AS_TextField_aab002d3b3ff4972814c0b74ff660db2",
    "ide_onTextChange": "AS_TextField_a13aceb3120a4f7e8074fff5bf7ee866",
    "info": null,
    "inputAccessoryViewType": 1,
    "iphone": {
        "ide_onBeginEditing": "AS_TextField_c410129e7344461598bc0aaf4e9cddc8",
        "ide_onEndEditing": "AS_TextField_d4a3d52fa79d4be6ac77201e35e01f15",
        "psp": {
            "closeButtonText": "Done",
            "inputAccessoryViewType": 1,
            "keyboardActionLabel": 1,
            "showClearButton": false,
            "showCloseButton": true,
            "showProgressIndicator": false
        }
    },
    "isvisible": true,
    "keyboardactionlabel": 4,
    "keyboardstyle": "number",
    "keyboardtype": "A",
    "kuid": "a1aa294a993c4dec8d8c7888e2fe8744",
    "maxtextlength": 9,
    "mode": "N",
    "name": "kony.ui.TextBox2",
    "paddinginpixel": false,
    "parent": "flxSelectAmount",
    "pf": "frmCardlessTransaction",
    "securetextentry": false,
    "showclearbutton": false,
    "showoprogressindicator": false,
    "spa": {},
    "textinputmode": "N",
    "viewtype": "default",
    "wType": "TextField",
    "zindex": 1
}