{
    "@class": "com.kony.gen.viz.model.component.KVizButton",
    "DNDConfig": null,
    "__parentReadjusting__": false,
    "_height_": {
        "type": "string",
        "value": "13%"
    },
    "_left_": {
        "type": "string",
        "value": "6%"
    },
    "_margin_": [
        6,
        6,
        6,
        6
    ],
    "_padding_": [
        0,
        0,
        0,
        0
    ],
    "_skin_": "sf7766faf6e34d0789442a84c1e76e1a",
    "_text_": "English",
    "_top_": {
        "type": "string",
        "value": "11%"
    },
    "_width_": {
        "type": "string",
        "value": "88%"
    },
    "canUpdateUI": true,
    "containerweight": 100,
    "contentalignment": 5,
    "disabledSkins": {},
    "displaytext": true,
    "focusskin": "sf7766faf6e34d0789442a84c1e76e1a",
    "id": "btnEnglish",
    "ide_onClick": "AS_Button_b618a4a1a3f74290bcb406ef92919fd9",
    "info": null,
    "iphone": {
        "psp": {
            "showProgressIndicator": false
        }
    },
    "isvisible": true,
    "kuid": "ga34de07f8d941d3bf2722d15497fea2",
    "name": "kony.ui.Button",
    "parent": "flxLangSelect",
    "pf": "frmLanguageChange",
    "showprogressindicator": false,
    "wType": "Button",
    "zindex": 1
}