{
    "@class": "com.kony.gen.viz.model.component.KVizButton",
    "DNDConfig": null,
    "__parentReadjusting__": false,
    "_height_": {
        "type": "string",
        "value": "8%"
    },
    "_margin_": [
        6,
        6,
        6,
        6
    ],
    "_padding_": [
        0,
        0,
        0,
        0
    ],
    "_skin_": "sf7766faf6e34d0789442a84c1e76e1a",
    "_text_": "Confirm",
    "_top_": {
        "type": "string",
        "value": "90%"
    },
    "_width_": {
        "type": "string",
        "value": "80%"
    },
    "canUpdateUI": true,
    "centerx": {
        "type": "string",
        "value": "50%"
    },
    "containerweight": 100,
    "contentalignment": 5,
    "displaytext": true,
    "focusskin": "sf7766faf6e34d0789442a84c1e76e1a",
    "id": "btnConfirm",
    "ide_onClick": "AS_Button_b69d381620454245959a43e0016ea246",
    "info": null,
    "iphone": {
        "psp": {
            "showProgressIndicator": false
        }
    },
    "isvisible": true,
    "kuid": "a2c3583e515b4fd29d5987756c91ca61",
    "name": "kony.ui.Button",
    "parent": "flxConfirmPopup",
    "pf": "frmJoMoPayRegistration",
    "texti18n": "i18n.Bene.Confirm",
    "wType": "Button",
    "zindex": 2
}