{
    "DNDConfig": null,
    "_height_": {
        "type": "string",
        "value": "60dp"
    },
    "_margin_": [
        0,
        0,
        0,
        0
    ],
    "_padding_": [
        0,
        0,
        0,
        0
    ],
    "_skin_": "s9c14c5cfa624594965bca8fa71d4023",
    "allboxes": [],
    "autogrowmode": 0,
    "canUpdateUI": true,
    "children": [
        "TopText",
        "BottomText",
        "RightText",
        "InfoImg",
        "hidden1"
    ],
    "clipbounds": true,
    "containerId": true,
    "containerweight": 100,
    "enabled": false,
    "enablescrolling": true,
    "id": "Copycontainer018037268d2ef46",
    "info": null,
    "isTemplate": true,
    "isvisible": true,
    "kuid": "f417d6659f4945f8aef7b3a1f2ba99e3",
    "layouttype": 2,
    "name": "kony.ui.FlexContainer",
    "orientation": 6,
    "parent": "segmentWithDoubleLabel",
    "percent": true,
    "pf": "segmentWithDoubleLabel",
    "snapgridsize": 10,
    "snaptogrid": true,
    "wType": "FlexContainer",
    "widgetalignment": 1
}