{
    "@class": "com.kony.gen.viz.model.component.KVizLabel",
    "DNDConfig": null,
    "__parentReadjusting__": false,
    "_height_": {
        "type": "string",
        "value": "32dp"
    },
    "_left_": {
        "type": "string",
        "value": "5%"
    },
    "_margin_": [
        1,
        1,
        1,
        1
    ],
    "_padding_": [
        0,
        0,
        0,
        0
    ],
    "_skin_": "scec492f4de846a6a0fc0cafc7d6fe2e",
    "_text_": "Phone number",
    "_top_": {
        "type": "string",
        "value": "10dp"
    },
    "_width_": {
        "type": "ref",
        "value": "preferred"
    },
    "_wrapping_": 2,
    "canUpdateUI": true,
    "containerweight": 100,
    "contentalignment": 6,
    "enabled": false,
    "id": "CopylblQuestion0b378c51dd1f041",
    "info": null,
    "ipad": {
        "psp": {
            "wrapping": 2
        }
    },
    "iphone": {
        "psp": {
            "wrapping": 2
        }
    },
    "isvisible": true,
    "kuid": "5bfd52a15a7f4713bb2b9e290306c413",
    "name": "kony.ui.Label",
    "parent": "CopychallengeQuestionContainer0103ed4f67f2345",
    "pf": "frmEnterPersonalDetailsKA",
    "texti18n": "i18n.common.phonenumber",
    "tooltip": "",
    "wType": "Label",
    "zindex": 1
}