{
  "operationConfig" : {
    "name" : "prBillerAccounts8498",
    "type" : "MappedToBackend",
    "cachable" : false,
    "smsEnabled" : false,
    "security" : "public",
    "responseEncoding" : "UTF-8",
    "httpMethod" : "GET",
    "decodeResponseBody" : false,
    "iMapping" : "<?xml version=\"1.0\" encoding=\"UTF-8\" standalone=\"yes\"?><mapper xmlns=\"http://www.kony.com/ns/mapper\">            <map inputpath=\"request_in\" outputpath=\"request_out\">                        <set-param inputpath=\"p_NickName\" outputpath=\"p_NickName\"/>                        <set-param inputpath=\"phone\" outputpath=\"phone\"/>                        <set-param inputpath=\"accountNumber\" outputpath=\"accountNumber\"/>                        <set-param inputpath=\"zipCode\" outputpath=\"zipCode\"/>                        <set-param inputpath=\"cityName\" outputpath=\"cityName\"/>                        <set-param inputpath=\"street\" outputpath=\"street\"/>                        <set-param inputpath=\"nameOnBill\" outputpath=\"nameOnBill\"/>                        <set-param inputpath=\"state\" outputpath=\"state\"/>                        <set-param inputpath=\"billerId\" outputpath=\"billerId\"/>                        <set-param inputpath=\"notes\" outputpath=\"notes\"/>                        <set-param inputpath=\"companyName\" outputpath=\"companyName\"/>                        <set-param inputpath=\"addressLine2\" outputpath=\"addressLine2\"/>                            <set-param inputpath=\"p_Address1\" outputpath=\"p_Address1\"/>                        <set-param inputpath=\"custId\" outputpath=\"custId\"/>                        <set-param inputpath=\"p_Phone\" outputpath=\"p_Phone\"/>                        <set-param inputpath=\"p_Nation\" outputpath=\"p_Nation\"/>                        <set-param inputpath=\"p_ID\" outputpath=\"p_ID\"/>                        <set-param inputpath=\"p_txn_type\" outputpath=\"p_txn_type\"/>                        <set-param inputpath=\"p_AccStatus\" outputpath=\"p_AccStatus\"/>                        <set-param inputpath=\"p_BillerCode\" outputpath=\"p_BillerCode\"/>                        <set-param inputpath=\"lang\" outputpath=\"lang\"/>                        <set-param inputpath=\"p_ServiceType\" outputpath=\"p_ServiceType\"/>                        <set-param inputpath=\"pass\" outputpath=\"pass\"/>                        <set-param inputpath=\"p_fcdb_ref_no\" outputpath=\"p_fcdb_ref_no\"/>                        <set-param inputpath=\"p_BillingNo\" outputpath=\"p_BillingNo\"/>                        <set-param inputpath=\"p_IdType\" outputpath=\"p_IdType\"/>                        <set-param inputpath=\"usr\" outputpath=\"usr\"/>            </map></mapper>",
    "oMapping" : "<?xml version=\"1.0\" encoding=\"UTF-8\" standalone=\"yes\"?><mapper xmlns=\"http://www.kony.com/ns/mapper\">          <map inputpath=\"response_in\" outputpath=\"response_out\">                    <set-param inputpath=\"p_EfawateercomID\" outputpath=\"p_EfawateercomID\"/>                    <set-param inputpath=\"ErrorCode\" outputpath=\"ErrorCode\"/>                    <set-param inputpath=\"referenceId\" outputpath=\"referenceId\"/>          </map></mapper>",
    "applyCommonMapping" : false,
    "backendMeta" : {
      "serviceVersion" : "1.0",
      "operationName" : "prBillerAccounts",
      "serviceName" : "BOJBillerAccounts"
    },
    "relationshipHierarchyMapping" : {
      "children" : [ ],
      "name" : "Payee",
      "selected" : true
    },
    "requestXmlMappingOverride" : true,
    "responseXmlMappingOverride" : true
  }
}