{
  "operationConfig" : {
    "name" : "prGetPpServiceTypes4953",
    "type" : "MappedToBackend",
    "cachable" : false,
    "smsEnabled" : false,
    "security" : "public",
    "responseEncoding" : "UTF-8",
    "httpMethod" : "GET",
    "decodeResponseBody" : false,
    "iMapping" : "<?xml version=\"1.0\" encoding=\"UTF-8\" standalone=\"yes\"?><mapper xmlns=\"http://www.kony.com/ns/mapper\">            <map inputpath=\"request_in\" outputpath=\"request_out\">                        <set-param inputpath=\"usr\" outputpath=\"usr\"/>                        <set-param inputpath=\"pass\" outputpath=\"pass\"/>                        <set-param inputpath=\"custId\" outputpath=\"custId\"/>                        <set-param inputpath=\"p_fcdb_ref_no\" outputpath=\"p_fcdb_ref_no\"/>                        <set-param inputpath=\"p_biller_code\" outputpath=\"p_biller_code\"/>                        <set-param inputpath=\"lang\" outputpath=\"lang\"/>            </map></mapper>",
    "oMapping" : "<?xml version=\"1.0\" encoding=\"UTF-8\" standalone=\"yes\"?><mapper xmlns=\"http://www.kony.com/ns/mapper\">          <map inputpath=\"response_in\" outputpath=\"response_out\">                    <set-param inputpath=\"ErrorCode\" outputpath=\"ErrorCode\"/>                    <set-param inputpath=\"referenceId\" outputpath=\"referenceId\"/>                    <set-param inputpath=\"bs_boj_efw_pp_denos_ttypeType\" outputpath=\"bs_boj_efw_pp_denos_ttypeType\"/>                    <set-param inputpath=\"bs_boj_efw_pp_servtypes_ttypeType\" outputpath=\"bs_boj_efw_pp_servtypes_ttypeType\"/>          </map></mapper>",
    "applyCommonMapping" : false,
    "backendMeta" : {
      "serviceVersion" : "1.0",
      "operationName" : "prGetPpServiceTypes",
      "serviceName" : "BOJGetPpServiceTypes"
    },
    "relationshipHierarchyMapping" : {
      "children" : [ ],
      "name" : "Payee",
      "selected" : true
    },
    "requestXmlMappingOverride" : true,
    "responseXmlMappingOverride" : true
  }
}