{
    "@class": "com.kony.gen.viz.model.component.KVizLabel",
    "DNDConfig": null,
    "__markedForDelete__": true,
    "__parentReadjusting__": false,
    "_height_": {
        "type": "ref",
        "value": "preferred"
    },
    "_left_": 0,
    "_lines_": 1,
    "_margin_": [
        0,
        0,
        0,
        0
    ],
    "_opacity_": 100,
    "_padding_": [
        0,
        0,
        0,
        0
    ],
    "_skin_": "s104740520654e1cb34694917179b962",
    "_text_": "",
    "_top_": 0,
    "_width_": {
        "type": "ref",
        "value": "preferred"
    },
    "_wrapping_": 2,
    "android": {
        "textStyle": {
            "letterSpacing": 0,
            "strikeThrough": false
        }
    },
    "canUpdateUI": true,
    "containerId": true,
    "containerweight": 100,
    "contentalignment": 6,
    "id": "lblBottomValue01",
    "info": null,
    "ipad": {
        "psp": {
            "wrapping": 2
        }
    },
    "iphone": {
        "psp": {
            "wrapping": 2
        }
    },
    "isvisible": true,
    "kuid": "afe607b6b607430398ac8673a1edc3d8",
    "minscale": 100,
    "name": "kony.ui.Label",
    "paddinginpixel": true,
    "parent": "grpBottom01",
    "pf": "tempLoansAndDeposits",
    "tooltip": "",
    "wType": "Label",
    "widgetalignment": 1
}