{
    "@class": "com.kony.gen.viz.model.container.KVizScrollFlexForm",
    "DNDConfig": null,
    "_margin_": [
        0,
        0,
        0,
        0
    ],
    "_orientation_": 1,
    "_padding_": [
        0,
        0,
        0,
        0
    ],
    "_percent_": true,
    "_skin_": "s3712bfbe00f41bdaa10f3eaf9c45a32",
    "_title_": null,
    "addWidgetsdone": false,
    "allboxes": [],
    "canUpdateUI": true,
    "children": [
        "grpLDMain"
    ],
    "containerId": true,
    "containerweight": 100,
    "currentLocale": "default",
    "device": "appleWatch42",
    "displayorientation": 3,
    "enabledforidletimeout": false,
    "id": "tempLoansAndDeposits",
    "info": null,
    "initdone": false,
    "inputaccessoryviewtype": 4,
    "intransitionconfig": {
        "formTransition": "None"
    },
    "isvisible": true,
    "kuid": "fa8426dbd37b4d45ace47a80650b14a8",
    "name": "kony.ui.Form2",
    "needappmenu": true,
    "outtransitionconfig": {
        "formTransition": "None"
    },
    "paddinginpixel": false,
    "platform": "watchos",
    "prevDevice": "appleWatch42",
    "prevPlatform": "watchos",
    "retainscrollposition": false,
    "shellCSS": "appleWatch42",
    "titleBarSkin": "s01a3c761ed44dcab0d6537d1b55b621",
    "titlebar": true,
    "type": 3,
    "wType": "Form"
}