{
    "@class": "com.kony.gen.viz.model.component.KVizLabel",
    "DNDConfig": null,
    "__parentReadjusting__": false,
    "_height_": {
        "type": "ref",
        "value": "preferred"
    },
    "_left_": {
        "type": "string",
        "value": "12%"
    },
    "_margin_": [
        1,
        1,
        1,
        1
    ],
    "_padding_": [
        0,
        0,
        0,
        0
    ],
    "_skin_": "s25eaab7a17f44c2a4d4448a03130788",
    "_text_": "You do not have any Failed Transactions",
    "_top_": {
        "type": "number",
        "value": "30"
    },
    "_width_": {
        "type": "string",
        "value": "80%"
    },
    "_wrapping_": 2,
    "canUpdateUI": true,
    "centery": {
        "type": "string",
        "value": "35.52%"
    },
    "containerweight": 100,
    "contentalignment": 5,
    "enabled": false,
    "id": "LabelNoFailedTransactionsKA",
    "info": null,
    "ipad": {
        "psp": {
            "wrapping": 2
        }
    },
    "iphone": {
        "psp": {
            "wrapping": 2
        }
    },
    "isvisible": true,
    "kuid": "ac87499e4ec54ec6b71aa4d6d2719c4f",
    "name": "kony.ui.Label",
    "parent": "flxFailed",
    "pf": "frmPayeeTransactionsKA",
    "texti18n": "i18n.alerts.NoFailedTransactions",
    "tooltip": "",
    "wType": "Label",
    "zindex": 1
}