{
    "AS_Button_20489c74e83142049c21a4eb2998207b": {
        "id": "AS_Button_20489c74e83142049c21a4eb2998207b",
        "type": "ACTION_SEQUENCE",
        "actions": [{
            "id": "NAVIGATE_TO_FORM__onClick_ece160c5a94642079b17c107b7c6c1ea",
            "type": "NAVIGATE_TO_FORM",
            "formId": "frmUserSettingsKA",
            "formKUID": "8c525af2d26c4599b2327f0b14f14239",
            "mappings": {},
            "mappingsOrder": [],
            "parentId": "",
            "callbackType": null,
            "enableMappingEditor": true
        }]
    }
}