{
    "AS_Button_00861b3eaa5b48adb3e55935ba3fe253": {
        "id": "AS_Button_00861b3eaa5b48adb3e55935ba3fe253",
        "type": "ACTION_SEQUENCE",
        "actions": [{
            "id": "NAVIGATE_TO_FORM__onClick_28c09cad46b04e549775b351a33520c8",
            "type": "NAVIGATE_TO_FORM",
            "formKUID": "db521e97422f4973ab4a6a7569d1cc93",
            "mappings": {},
            "mappingsOrder": [],
            "parentId": "",
            "callbackType": null,
            "enableMappingEditor": true
        }]
    }
}