{
    "AS_Button_07983a23419648ceb992509a31bcbdf7": {
        "id": "AS_Button_07983a23419648ceb992509a31bcbdf7",
        "type": "ACTION_SEQUENCE",
        "actions": [{
            "id": "NAVIGATE_TO_FORM__onClick_006ed192620b41b091e8008720feb2dd",
            "type": "NAVIGATE_TO_FORM",
            "formId": "frmRecentTransactionDetailsKA",
            "formKUID": "3e75bf63a2d4443486447188bb14c36b",
            "mappings": {},
            "mappingsOrder": [],
            "parentId": "",
            "callbackType": null,
            "enableMappingEditor": true
        }]
    }
}