{
    "AS_Button_e1e615b8e1594ac6ae2e1ed95fcc3961": {
        "id": "AS_Button_e1e615b8e1594ac6ae2e1ed95fcc3961",
        "type": "ACTION_SEQUENCE",
        "actions": [{
            "id": "NAVIGATE_TO_FORM__onClick_4e36ad308f7547b8a89760172cda48be",
            "type": "NAVIGATE_TO_FORM",
            "formId": "frmAccountsLandingKA",
            "formKUID": "d62a2a0906c64d2281addc95893a6544",
            "mappings": {},
            "mappingsOrder": [],
            "parentId": "",
            "callbackType": null,
            "enableMappingEditor": true
        }]
    }
}