{
    "AS_Button_fe76f07bfbce432e8f736bd07f3e3c65": {
        "id": "AS_Button_fe76f07bfbce432e8f736bd07f3e3c65",
        "type": "ACTION_SEQUENCE",
        "actions": [{
            "id": "NAVIGATE_TO_FORM__onClick_0aef448df2054835942b663d3d68134e",
            "type": "NAVIGATE_TO_FORM",
            "formId": "frmTransferPayLandingKA",
            "formKUID": "dab7a50c55b94a12b3d961ae5bd49247",
            "mappings": {},
            "mappingsOrder": [],
            "parentId": "",
            "callbackType": null,
            "enableMappingEditor": true
        }]
    }
}