{
    "AS_Button_a4e303e9a3504681b6d7c09ebf43a056": {
        "id": "AS_Button_a4e303e9a3504681b6d7c09ebf43a056",
        "type": "ACTION_SEQUENCE",
        "actions": [{
            "id": "NAVIGATE_TO_FORM__onClick_95a8fbf409ac451fad0e4ffdb60c5c52",
            "type": "NAVIGATE_TO_FORM",
            "formId": "frmContactUsKA",
            "formKUID": "3730b7e8806c47969fff751b469e1811",
            "mappings": {},
            "mappingsOrder": [],
            "parentId": "",
            "callbackType": null,
            "enableMappingEditor": true
        }]
    }
}