{
    "AS_Button_fd095b2d2ce843db89c90778b35144a4": {
        "id": "AS_Button_fd095b2d2ce843db89c90778b35144a4",
        "type": "ACTION_SEQUENCE",
        "actions": [{
            "id": "NAVIGATE_TO_FORM__onClick_910be3eb57ae4444aa1771a4d3bd2309",
            "type": "NAVIGATE_TO_FORM",
            "formId": "frmTransferPayLandingKA",
            "formKUID": "dab7a50c55b94a12b3d961ae5bd49247",
            "mappings": {},
            "mappingsOrder": [],
            "parentId": "",
            "callbackType": null,
            "enableMappingEditor": true
        }]
    }
}