{
    "AS_Button_63faa28e062547ffa2a2c9d271ef63c4": {
        "id": "AS_Button_63faa28e062547ffa2a2c9d271ef63c4",
        "type": "ACTION_SEQUENCE",
        "actions": [{
            "id": "NAVIGATE_TO_FORM__onClick_a4c6cc086a8a45f3bfbb89d68587c7cb",
            "type": "NAVIGATE_TO_FORM",
            "formId": "frmLoginKA",
            "formKUID": "7b1aa8fceb6b4070833e9eab879b0e5e",
            "mappings": {},
            "mappingsOrder": [],
            "parentId": "",
            "callbackType": null,
            "enableMappingEditor": true
        }]
    }
}