{
    "AS_Button_00f960023d8c436caec5a14dccf21a9c": {
        "id": "AS_Button_00f960023d8c436caec5a14dccf21a9c",
        "type": "ACTION_SEQUENCE",
        "actions": [{
            "id": "NAVIGATE_TO_FORM__onClick_c7c9620aaee64286b0be9aba366212d4",
            "type": "NAVIGATE_TO_FORM",
            "formId": "frmContactUsKA",
            "formKUID": "3730b7e8806c47969fff751b469e1811",
            "mappings": {},
            "mappingsOrder": [],
            "parentId": "",
            "callbackType": null,
            "enableMappingEditor": true
        }]
    }
}