{
    "AS_Button_d2d34292971346ff9316ddeb1f4a1dd6": {
        "id": "AS_Button_d2d34292971346ff9316ddeb1f4a1dd6",
        "type": "ACTION_SEQUENCE",
        "actions": [{
            "id": "ADD_SNIPPET_onClick_d5b8d35bb5b54583b57f82499aa1c158",
            "type": "ADD_SNIPPET",
            "codeSnippet": " newTransferAmountPickEdit();",
            "callbackType": null
        }]
    }
}