{
    "AS_Form_319c07431fde4562a1945c153b006786": {
        "id": "AS_Form_319c07431fde4562a1945c153b006786",
        "type": "ACTION_SEQUENCE",
        "actions": [{
            "id": "ADD_SNIPPET__65820ca3847b47dc84fb357896e11d25",
            "type": "ADD_SNIPPET",
            "codeSnippet": "locatorPreShow();",
            "parentId": null,
            "callbackType": null
        }]
    }
}