{
    "AS_Segment_ef3f870d9d4549d087b2279f47589bc6": {
        "id": "AS_Segment_ef3f870d9d4549d087b2279f47589bc6",
        "type": "ACTION_SEQUENCE",
        "params": [{
            "datatype": "collection",
            "name": "eventobject"
        }, {
            "datatype": "number",
            "name": "sectionNumber"
        }, {
            "datatype": "number",
            "name": "rowNumber"
        }],
        "actions": [{
            "id": "ADD_SNIPPET__0bb4838c1bf04cc0b014f0d05a2da6d3",
            "type": "ADD_SNIPPET",
            "codeSnippet": "recentTransactionsOnRowClick();",
            "parentId": null,
            "callbackType": null
        }, {
            "id": "NAVIGATE_TO_FORM___2ef0fd77209e4f0a916b13cf9f269efe",
            "type": "NAVIGATE_TO_FORM",
            "formId": "frmRecentTransactionDetailsKA",
            "formKUID": "3e75bf63a2d4443486447188bb14c36b",
            "mappings": {},
            "mappingsOrder": [],
            "parentId": "",
            "callbackType": null,
            "enableMappingEditor": true
        }]
    }
}