{
    "@class": "com.kony.gen.viz.model.component.KVizTextBox2",
    "DNDConfig": null,
    "__parentReadjusting__": false,
    "_height_": {
        "type": "string",
        "value": "90%"
    },
    "_left_": {
        "type": "number",
        "value": "0"
    },
    "_margin_": [
        0,
        0,
        0,
        0
    ],
    "_padding_": [
        15,
        0,
        0,
        0
    ],
    "_placeholder_": "",
    "_right_": {
        "type": "number",
        "value": "0"
    },
    "_skin_": "s73f7f517ddd4ccfb09d161997022899",
    "_text_": "",
    "_width_": {
        "type": "string",
        "value": "100%"
    },
    "android": {},
    "autocapitalize": "none",
    "autocomplete": false,
    "autocorrect": false,
    "autofilter": false,
    "canUpdateUI": true,
    "centery": {
        "type": "string",
        "value": "50%"
    },
    "containerheight": "",
    "containerheightmode": 1,
    "containerweight": 100,
    "contentalignment": 4,
    "disabledSkins": {},
    "enabled": false,
    "focusskin": "s73f7f517ddd4ccfb09d161997022899",
    "id": "locatorSearchTextField",
    "ide_onDone": "AS_TextField_7e377cac57f84c878befa5270356f7ef",
    "ide_onTextChange": "AS_TextField_ab91688b2b5348c48760222fb58dbb3f",
    "info": null,
    "iphone": {
        "onBeginEditing": "AS_TextField_f10095a3f6494bcdb74e39b4b1652b35",
        "onEndEditing": "AS_TextField_0ccddeb925a5483a9d436bcc41189d67"
    },
    "isvisible": true,
    "keyboardtype": "A",
    "kuid": "6beb87a67bae4b2c96e2537f58ecb533",
    "mode": "A",
    "name": "kony.ui.TextBox2",
    "ondone": "AS_TextField_5c27bb8d4e364ac7af1de5cb88238dfd",
    "ontextchange": "AS_TextField_0f0eb62deef542c5bc4f6005704e2c8c",
    "paddinginpixel": false,
    "parent": "searchContainer",
    "pf": "frmLocatorKA",
    "placeholderi18n": "i18n.locateus.ZipCodeOrCity",
    "placeholderskin": "s2484680d5974fa68d5a96a96c6b37b6",
    "securetextentry": false,
    "textinputmode": "A",
    "viewtype": "default",
    "wType": "TextField"
}