{
    "@class": "com.kony.gen.viz.model.component.KVizLabel",
    "DNDConfig": null,
    "__parentReadjusting__": false,
    "_height_": {
        "type": "ref",
        "value": "preferred"
    },
    "_left_": {
        "type": "string",
        "value": "5%"
    },
    "_margin_": [
        1,
        1,
        1,
        1
    ],
    "_padding_": [
        0,
        0,
        0,
        0
    ],
    "_skin_": "s03391ceb7c64366abd9f7e1fcf196c7",
    "_text_": "Password",
    "_top_": {
        "type": "string",
        "value": "5%"
    },
    "_width_": {
        "type": "ref",
        "value": "preferred"
    },
    "_wrapping_": 2,
    "canUpdateUI": true,
    "containerweight": 100,
    "contentalignment": 6,
    "enabled": false,
    "id": "lblPassword",
    "info": null,
    "ipad": {
        "psp": {
            "wrapping": 2
        }
    },
    "iphone": {
        "psp": {
            "wrapping": 2
        }
    },
    "isvisible": true,
    "kuid": "accb25aa58ef457db9ddc6bb906bb3a3",
    "name": "kony.ui.Label",
    "parent": "flxPassword",
    "pf": "frmCreateCredentials",
    "texti18n": "i18n.login.passwordPlh",
    "tooltip": "",
    "wType": "Label",
    "zindex": 1
}