{
    "@class": "com.kony.gen.viz.model.component.KVizButton",
    "DNDConfig": null,
    "__parentReadjusting__": false,
    "_height_": {
        "type": "string",
        "value": "100%"
    },
    "_left_": {
        "type": "string",
        "value": "0%"
    },
    "_margin_": [
        6,
        6,
        6,
        6
    ],
    "_padding_": [
        6,
        0,
        6,
        0
    ],
    "_skin_": "s41fb5693a024ca6af3b2c8c71179333",
    "_text_": "",
    "_top_": {
        "type": "string",
        "value": "0%"
    },
    "_width_": {
        "type": "string",
        "value": "33.30%"
    },
    "canUpdateUI": true,
    "containerweight": 100,
    "contentalignment": 5,
    "displaytext": true,
    "focusskin": "s0eacd0585e64c81a58d225fcf6cd7c5",
    "id": "btnBranchKA",
    "ide_onClick": "AS_Button_d85ffe90bb3e4f5eb4fd361c15225c94",
    "info": null,
    "iphone": {
        "psp": {
            "showProgressIndicator": false
        }
    },
    "isvisible": true,
    "kuid": "f73e73ff00874b9bb564f09fe423b648",
    "name": "kony.ui.Button",
    "paddinginpixel": false,
    "parent": "searchInformation",
    "pf": "frmContactUsKA",
    "showprogressindicator": false,
    "texti18n": "i18n.opening_account.faq",
    "wType": "Button",
    "zindex": 1
}