{
    "@class": "com.kony.gen.viz.model.component.KVizLabel",
    "DNDConfig": null,
    "__parentReadjusting__": false,
    "_height_": {
        "type": "ref",
        "value": "preferred"
    },
    "_left_": {
        "type": "string",
        "value": "3.50%"
    },
    "_margin_": [
        1,
        1,
        1,
        1
    ],
    "_padding_": [
        1,
        0,
        0,
        0
    ],
    "_skin_": "sa5da1113457460ba472e68aefbf1025",
    "_text_": "10/10/2098",
    "_width_": {
        "type": "ref",
        "value": "preferred"
    },
    "_wrapping_": 2,
    "canUpdateUI": true,
    "centery": {
        "type": "string",
        "value": "20dp"
    },
    "containerId": true,
    "containerweight": 100,
    "contentalignment": 4,
    "enabled": false,
    "id": "lblTrxDateo",
    "info": null,
    "ipad": {
        "psp": {
            "wrapping": 2
        }
    },
    "iphone": {
        "psp": {
            "wrapping": 2
        }
    },
    "isvisible": false,
    "kuid": "cb38861939354f2bb7b9edbe218bb3ce",
    "name": "kony.ui.Label",
    "paddinginpixel": false,
    "parent": "flxOutgoing",
    "pf": "tmpSegIPSPaymentHistory",
    "texti18n": "i18n.CLIQ.TransferDate",
    "tooltip": "",
    "wType": "Label",
    "zindex": 1
}