{
    "AS_FlexContainer_4093386256774766a635a79d4f7ae5b0": {
        "id": "AS_FlexContainer_4093386256774766a635a79d4f7ae5b0",
        "type": "ACTION_SEQUENCE",
        "name": "AccountsAlertsDepositeOnClick",
        "params": [{
            "datatype": "collection",
            "name": "eventobject"
        }],
        "contextObj": {
            "name": "frmAccountAlertsKA",
            "type": "forms",
            "platform": "",
            "KUID": "bbe7fc072c444a808e3b02f2d737512c"
        },
        "language": "js",
        "actions": [{
            "id": "ADD_SNIPPET__ee68be4872784de49d34545637c576c9",
            "type": "ADD_SNIPPET",
            "codeSnippet": "AlertsStatusUpdate(\"Deposit Maturity Reminder\",frmAccountAlertsKA.account.text,frmAccountAlertsKA.deposit.text);",
            "parentId": null,
            "callbackType": null
        }]
    }
}