{
    "AS_Button_1b2a1409128c45b7aefd6af1fb2dd110": {
        "id": "AS_Button_1b2a1409128c45b7aefd6af1fb2dd110",
        "type": "ACTION_SEQUENCE",
        "name": "AccountAlertsOnAndroidBack",
        "params": [{
            "datatype": "collection",
            "name": "eventobject"
        }],
        "contextObj": {
            "name": "frmAccountAlertsKA",
            "type": "forms",
            "platform": null,
            "KUID": "bbe7fc072c444a808e3b02f2d737512c"
        },
        "language": "js",
        "actions": [{
            "id": "ADD_SNIPPET__9eb2db37b8744c54b54a66021aebae43",
            "type": "ADD_SNIPPET",
            "codeSnippet": null,
            "parentId": null,
            "callbackType": null
        }, {
            "id": "ADD_SNIPPET__c84fe20445ed44448561d90da0bebbbd",
            "type": "ADD_SNIPPET",
            "codeSnippet": "showAlertsForm();",
            "parentId": null,
            "callbackType": null
        }]
    }
}