{
    "AS_Button_if796ca6e24c4a87a720cfc112939c72": {
        "id": "AS_Button_if796ca6e24c4a87a720cfc112939c72",
        "type": "ACTION_SEQUENCE",
        "name": "actDOBContinue",
        "params": [{
            "datatype": "collection",
            "name": "eventobject"
        }],
        "language": "js",
        "actions": [{
            "id": "ADD_SNIPPET_ide_onClick_bb2f6db42a6c4d4eb24e0b7b115b3668",
            "type": "ADD_SNIPPET",
            "codeSnippet": "kony.print(\"deleted\");",
            "callbackType": null
        }]
    }
}