{
    "AS_Image_cb0a6957fec441168790508e32e173d1": {
        "id": "AS_Image_cb0a6957fec441168790508e32e173d1",
        "type": "ACTION_SEQUENCE",
        "name": "actionOnDownlaodCompleteOfPostloginAdImage",
        "params": [{
            "datatype": "collection",
            "name": "eventobject"
        }, {
            "datatype": "string",
            "name": "imagesrc"
        }, {
            "datatype": "boolean",
            "name": "issuccess"
        }],
        "contextObj": {
            "name": "frmPostLoginAdvertisementKA",
            "type": "forms",
            "platform": "",
            "KUID": "a71da10c725748d8a1298eb522d627b9"
        },
        "language": "js",
        "actions": [{
            "id": "ADD_SNIPPET__c0034dd4ca84481bab9198ce83d54ae4",
            "type": "ADD_SNIPPET",
            "codeSnippet": "var postLoginVC = applicationManager.getpostLoginAdsViewController();\npostLoginVC.onAdImageDownloadComplete(issuccess,1);\n",
            "parentId": null,
            "callbackType": null
        }]
    }
}