{
    "AS_Segment_cdb4db7405b54560ad6075db07da4826": {
        "id": "AS_Segment_cdb4db7405b54560ad6075db07da4826",
        "type": "ACTION_SEQUENCE",
        "name": "actionOnsegClick",
        "params": [{
            "datatype": "collection",
            "name": "eventobject"
        }, {
            "datatype": "number",
            "name": "sectionNumber"
        }, {
            "datatype": "number",
            "name": "rowNumber"
        }],
        "contextObj": {
            "type": "forms",
            "platform": null,
            "KUID": "a5d24d0771e24004beee0fb2d5de6142"
        },
        "language": "js",
        "actions": [{
            "id": "ADD_SNIPPET_ide_onRowClick_g6254b93450848008eff2383c3f5086a",
            "type": "ADD_SNIPPET",
            "codeSnippet": "kony.print(\"Deleted\");",
            "callbackType": null
        }]
    }
}