{
    "AS_TextField_b83463f3d37e4ecfa467eb3a7f6789a9": {
        "id": "AS_TextField_b83463f3d37e4ecfa467eb3a7f6789a9",
        "type": "ACTION_SEQUENCE",
        "name": "actionOnTextChangeSpouseLastName",
        "params": [{
            "datatype": "collection",
            "name": "eventobject"
        }, {
            "datatype": "string",
            "name": "changedtext"
        }],
        "contextObj": {
            "type": "forms",
            "platform": "",
            "KUID": "f4e7e3da0c4e438a9a933922ca89141c"
        },
        "language": "js",
        "actions": [{
            "id": "ADD_SNIPPET__ecb67ae4ea2c40cfa6883bbdc134db44",
            "type": "ADD_SNIPPET",
            "codeSnippet": "kony.print(\"Deleted\");",
            "parentId": null,
            "callbackType": null
        }]
    }
}