{
    "AS_Button_h6d9c947c37944f190f9b3bfeb645ecc": {
        "id": "AS_Button_h6d9c947c37944f190f9b3bfeb645ecc",
        "type": "ACTION_SEQUENCE",
        "name": "actionOnbtnEdit",
        "params": [{
            "datatype": "collection",
            "name": "eventobject"
        }],
        "contextObj": {
            "type": "forms",
            "platform": "",
            "KUID": "ga7736001df94de48b40dcd1e0f5f7da"
        },
        "language": "js",
        "actions": [{
            "id": "ADD_SNIPPET__i1d8b11fd1064f48b8dbbe34146e1b3f",
            "type": "ADD_SNIPPET",
            "codeSnippet": "kony.print(\"Deleted\");",
            "parentId": null,
            "callbackType": null
        }]
    }
}