{
    "AS_Button_df89d8f1ed824e768a652761388fe9a7": {
        "id": "AS_Button_df89d8f1ed824e768a652761388fe9a7",
        "type": "ACTION_SEQUENCE",
        "name": "actionOnAddBack",
        "params": [{
            "datatype": "collection",
            "name": "eventobject"
        }],
        "contextObj": {
            "type": "forms",
            "platform": "",
            "KUID": "j5b785df0035464583579f3b55f4dfbd"
        },
        "language": "js",
        "actions": [{
            "id": "ADD_SNIPPET__da03f4d8e0164ef9918b27b17fba6021",
            "type": "ADD_SNIPPET",
            "codeSnippet": "// var VC = applicationManager.getFrmNUOAddressDetailsKAViewController();\n// VC.onClickBackInfrmNUOAddressDetailsKA();\nkony.print(\"Deleted\");",
            "parentId": null,
            "callbackType": null
        }]
    }
}