{
    "AS_TextField_ad7a2950ad8346a4a8af0418fbc602a9": {
        "id": "AS_TextField_ad7a2950ad8346a4a8af0418fbc602a9",
        "type": "ACTION_SEQUENCE",
        "name": "actionOnTextChangeEmailID",
        "params": [{
            "datatype": "collection",
            "name": "eventobject"
        }, {
            "datatype": "string",
            "name": "changedtext"
        }],
        "contextObj": {
            "type": "forms",
            "platform": "",
            "KUID": "i2216dbab50146c68fa5b602e7af210e"
        },
        "language": "js",
        "actions": [{
            "id": "ADD_SNIPPET__i85d13c8fcaf4c8f8634729602a124f3",
            "type": "ADD_SNIPPET",
            "codeSnippet": "kony.print(\"Deleted\");\n",
            "parentId": null,
            "callbackType": null
        }]
    }
}