{
    "AS_Button_bff78b34219e4f91a40aa1b560fbf0be": {
        "id": "AS_Button_bff78b34219e4f91a40aa1b560fbf0be",
        "type": "ACTION_SEQUENCE",
        "name": "actionOnSQBack",
        "params": [{
            "datatype": "collection",
            "name": "eventobject"
        }],
        "contextObj": {
            "type": "forms",
            "platform": "",
            "KUID": "cb977d23d25e44d0968c446c681f4dc7"
        },
        "language": "js",
        "actions": [{
            "id": "ADD_SNIPPET__d9ba7d4fda154f258bcb879fa2d27e70",
            "type": "ADD_SNIPPET",
            "codeSnippet": "kony.print(\"Deleted\");",
            "parentId": null,
            "callbackType": null
        }]
    }
}