{
    "AS_Button_h2d968e328db4c109b6f2877228d5c62": {
        "id": "AS_Button_h2d968e328db4c109b6f2877228d5c62",
        "type": "ACTION_SEQUENCE",
        "name": "actionONSpouseNameBack",
        "params": [{
            "datatype": "collection",
            "name": "eventobject"
        }],
        "contextObj": {
            "type": "forms",
            "platform": "",
            "KUID": "f4e7e3da0c4e438a9a933922ca89141c"
        },
        "language": "js",
        "actions": [{
            "id": "ADD_SNIPPET__g82329224b10495b910547a4077879d8",
            "type": "ADD_SNIPPET",
            "codeSnippet": "kony.print(\"Deleted\");",
            "parentId": null,
            "callbackType": null
        }]
    }
}