{
    "AS_Button_ba13ae2594db438fbd592096c3e37727": {
        "id": "AS_Button_ba13ae2594db438fbd592096c3e37727",
        "type": "ACTION_SEQUENCE",
        "name": "actionOnEmpTypeBack",
        "params": [{
            "datatype": "collection",
            "name": "eventobject"
        }],
        "contextObj": {
            "type": "forms",
            "platform": "",
            "KUID": "d3cd81c5a2374c97b08d6412ea0d16ef"
        },
        "language": "js",
        "actions": [{
            "id": "ADD_SNIPPET__cafe106511324d29b11e5ed520709066",
            "type": "ADD_SNIPPET",
            "codeSnippet": "kony.print(\"Deleted\");",
            "parentId": null,
            "callbackType": null
        }]
    }
}