{
    "AS_Button_efd3a97431234a2fa6b1417b473d9ac6": {
        "id": "AS_Button_efd3a97431234a2fa6b1417b473d9ac6",
        "type": "ACTION_SEQUENCE",
        "name": "actOnAddLogout",
        "params": [{
            "datatype": "collection",
            "name": "eventobject"
        }],
        "language": "js",
        "actions": [{
            "id": "SHOW_ALERT_ide_onClick_dc44f1127a654e40b52f2e316d91208b",
            "type": "SHOW_ALERT",
            "alertType": "constants.ALERT_TYPE_CONFIRMATION",
            "alertTitle": "Confirm Sign Out",
            "yesLabel": "Sign Out",
            "noLabel": "Cancel",
            "alertMessage": "Are you sure you want to sign out?",
            "messageType": "constant",
            "alertTitlei18n": "i18n.common.confirmSignOut",
            "yesLabeli18n": "i18n.common.signOut",
            "noLabeli18n": "i18n.common.cancel",
            "alertMessagei18n": "i18n.common.signOutAlert",
            "iconPosition": "constants.ALERT_ICON_POSITION_LEFT"
        }, {
            "id": "ADD_SNIPPET_ide_onClick_c598c308bd3d4e1b9f952cafc9023e09",
            "type": "ADD_SNIPPET",
            "codeSnippet": "kony.print(\"Deleted\");",
            "parentId": "SHOW_ALERT_ide_onClick_dc44f1127a654e40b52f2e316d91208b",
            "callbackType": "True"
        }]
    }
}