{
    "AS_FlexContainer_54bf8e5bab7142bebb47fb905b2b96fc": {
        "id": "AS_FlexContainer_54bf8e5bab7142bebb47fb905b2b96fc",
        "type": "ACTION_SEQUENCE",
        "name": "AlertBalanceUpdateOnClick",
        "params": [{
            "datatype": "collection",
            "name": "eventobject"
        }],
        "contextObj": {
            "name": "frmAccountAlertsKA",
            "type": "forms",
            "platform": "",
            "KUID": "bbe7fc072c444a808e3b02f2d737512c"
        },
        "language": "js",
        "actions": [{
            "id": "ADD_SNIPPET__a70cfb9fa9e14b87b01d1497937adcd1",
            "type": "ADD_SNIPPET",
            "codeSnippet": "if(kony.os.userAgent()==\"iPhone\")\n  AlertsStatusUpdate(\"Balance Update\",frmAccountAlertsKA.account.text,frmAccountAlertsKA.balance.text);\nelse\n\tAlertsStatusUpdate(\"Balance Update\",frmAccountAlertsKA.accountandro.text,frmAccountAlertsKA.balance.text);",
            "parentId": null,
            "callbackType": null
        }]
    }
}