{
    "AS_FlexContainer_ec9ee3e54948414387f8ef76faf11038": {
        "id": "AS_FlexContainer_ec9ee3e54948414387f8ef76faf11038",
        "type": "ACTION_SEQUENCE",
        "name": "AndroidAlertsRequiredOnClick",
        "params": [{
            "datatype": "collection",
            "name": "eventobject"
        }],
        "language": "js",
        "actions": [{
            "id": "ADD_SNIPPET_ide_onClick_1176aef7bc074d9cbda03088900866a5",
            "type": "ADD_SNIPPET",
            "codeSnippet": "if(frmAccountAlertsKA.infoImg.src==\"checkbox_off.png\")\n    {\n       \tfrmAccountAlertsKA.infoImg.src=\"checkbox_on.png\";\n        frmAccountAlertsKA.androidAlerts.setVisibility(true);\n            frmAccountAlertsKA.HiddenAlertsReq.text=\"true\";\n\n    }else {\n       \t frmAccountAlertsKA.infoImg.src=\"checkbox_off.png\";\n      \t frmAccountAlertsKA.androidAlerts.setVisibility(false);\n            frmAccountAlertsKA.HiddenAlertsReq.text=\"false\";\n\n      }\nvar INSTANCE = kony.sdk.mvvm.KonyApplicationContext.getAppInstance();\nvar controller = INSTANCE.getFormController(\"frmAccountAlertsKA\");\ncontroller.performAction(\"saveData\");\n",
            "callbackType": null
        }]
    }
}