{
    "AS_TextField_a9fca2ab545b41a685f7eab23c4fa4c8": {
        "id": "AS_TextField_a9fca2ab545b41a685f7eab23c4fa4c8",
        "type": "ACTION_SEQUENCE",
        "name": "animateRegisterRPasswordLabelDown",
        "params": [{
            "datatype": "collection",
            "name": "eventobject"
        }, {
            "datatype": "string",
            "name": "changedtext"
        }],
        "contextObj": {
            "name": "frmCongratulations",
            "type": "forms",
            "platform": "",
            "KUID": "h0d76ad922194a6b81763ba19df1183c"
        },
        "language": "js",
        "actions": [{
            "id": "ADD_SNIPPET_ide_onDone_d9bf053b312445c49e4703bf6abd9fee",
            "type": "ADD_SNIPPET",
            "codeSnippet": "animateLabel(\"DOWN\", \"lblRPassword\", frmCongratulations.tbxRPassword.text);",
            "callbackType": null
        }]
    }
}