{
    "AS_TextField_gde2330ca7cd4c42b5eb5dda0d1bc028": {
        "id": "AS_TextField_gde2330ca7cd4c42b5eb5dda0d1bc028",
        "type": "ACTION_SEQUENCE",
        "name": "animationUsernameLabelUp",
        "params": [{
            "datatype": "collection",
            "name": "eventobject"
        }, {
            "datatype": "string",
            "name": "x"
        }, {
            "datatype": "string",
            "name": "y"
        }],
        "contextObj": {
            "name": "frmLoginKA",
            "type": "forms",
            "platform": "",
            "KUID": "7b1aa8fceb6b4070833e9eab879b0e5e"
        },
        "language": "js",
        "actions": [{
            "id": "ADD_SNIPPET__a8fb6a68c1a244f29e7d350349fe12f1",
            "type": "ADD_SNIPPET",
            "codeSnippet": "try{\nanimateLabel(\"UP\",\"lblUserName\",frmLoginKA.tbxusernameTextField.text);\n}catch(err){\n  kony.print( \"err in pwd::\"+err);\n}",
            "parentId": null,
            "callbackType": null
        }]
    }
}