{
    "AS_Button_dc0873800bf942f1b96b28e0ef4f081c": {
        "id": "AS_Button_dc0873800bf942f1b96b28e0ef4f081c",
        "type": "ACTION_SEQUENCE",
        "params": [{
            "datatype": "collection",
            "name": "eventobject"
        }],
        "contextObj": {
            "type": "forms",
            "platform": "",
            "KUID": "he1d62b4711f4c5abdcb97f4fa0c8653"
        },
        "language": "js",
        "actions": [{
            "id": "ADD_SNIPPET__ha0345f2ba5a47b89b7be4a260a38b4a",
            "type": "ADD_SNIPPET",
            "codeSnippet": "var vc = new kony.rb.frmContactListphnViewController();\nvc.contactListGoBack();",
            "parentId": null,
            "callbackType": null
        }]
    }
}