{
    "AS_Button_b76c39ef427143f18d933073c05028af": {
        "id": "AS_Button_b76c39ef427143f18d933073c05028af",
        "type": "ACTION_SEQUENCE",
        "params": [{
            "datatype": "collection",
            "name": "eventobject"
        }],
        "contextObj": {
            "name": "iphoneFooterAr",
            "type": "templates",
            "platform": null,
            "KUID": "d18adb1bf93a460eb89a9f1da80f952f"
        },
        "language": "js",
        "actions": [{
            "id": "ADD_SNIPPET_ide_onClick_g487782521844570a5da166840bf46da",
            "type": "ADD_SNIPPET",
            "codeSnippet": "frmPaymentDashboard.show();",
            "callbackType": null
        }]
    }
}