{
    "AS_Button_dfab0f121d1040298763c78daa791793": {
        "id": "AS_Button_dfab0f121d1040298763c78daa791793",
        "type": "ACTION_SEQUENCE",
        "name": "AS_Button_onclickNewDepositeAccountsScreen",
        "params": [{
            "datatype": "collection",
            "name": "eventobject"
        }],
        "contextObj": {
            "name": "frmAccountsLandingKA",
            "type": "forms",
            "platform": "",
            "KUID": "d62a2a0906c64d2281addc95893a6544"
        },
        "language": "js",
        "actions": [{
            "id": "ADD_SNIPPET__ccc2720842604ffd8341e90324b8d5eb",
            "type": "ADD_SNIPPET",
            "codeSnippet": "getAllAccounts();\nfrmOpenTermDeposit.destroy();\nkony.sdk.mvvm.KonyApplicationContext.dismissLoadingScreen();\nfrmOpenTermDeposit.show();\n",
            "parentId": null,
            "callbackType": null
        }]
    }
}