{
    "AS_Button_ef604709ac0f4f7f9e750eefdd5e8c72": {
        "id": "AS_Button_ef604709ac0f4f7f9e750eefdd5e8c72",
        "type": "ACTION_SEQUENCE",
        "params": [{
            "datatype": "collection",
            "name": "eventobject"
        }],
        "contextObj": {
            "name": "frmAccountInfoKA",
            "type": "forms",
            "platform": "",
            "KUID": "b2f984d11c5244e6ae5f81fe393d837e"
        },
        "language": "js",
        "actions": []
    }
}