{
    "AS_Button_j71b346ba2bc411fa9f9c34aa2257e50": {
        "id": "AS_Button_j71b346ba2bc411fa9f9c34aa2257e50",
        "type": "ACTION_SEQUENCE",
        "params": [{
            "datatype": "collection",
            "name": "eventobject"
        }],
        "contextObj": {
            "name": "frmAccountDetailKA",
            "type": "forms",
            "platform": "",
            "KUID": "5ed703cad63c441882fc4a36f5ea0c28"
        },
        "language": "js",
        "actions": [{
            "id": "ADD_SNIPPET__dc3b0a9a2cc94b6f8a52b4cfc96474f0",
            "type": "ADD_SNIPPET",
            "codeSnippet": "kony.print(\"kony.print\");",
            "parentId": null,
            "callbackType": null
        }]
    }
}