{
    "AS_Button_baa62f3cc3144cf9b99b13e465ac0b14": {
        "id": "AS_Button_baa62f3cc3144cf9b99b13e465ac0b14",
        "type": "ACTION_SEQUENCE",
        "params": [{
            "datatype": "collection",
            "name": "eventobject"
        }],
        "language": "js",
        "actions": [{
            "id": "ADD_SNIPPET_ide_onClick_d4d297e745f14c6ebef06ca303e49fb1",
            "type": "ADD_SNIPPET",
            "codeSnippet": "frmJoMoPay.show();",
            "callbackType": null
        }]
    }
}