{
    "AS_Button_63e8cc3d643d4f8e8dcf39b6a466062b": {
        "id": "AS_Button_63e8cc3d643d4f8e8dcf39b6a466062b",
        "type": "ACTION_SEQUENCE",
        "params": [{
            "datatype": "collection",
            "name": "eventobject"
        }],
        "contextObj": {
            "name": "frmConfirmationPersonalDetailsKA",
            "type": "forms",
            "platform": null,
            "KUID": "4b0055df8e1a4c279580cc24347babe5"
        },
        "language": "js",
        "actions": [{
            "id": "NAVIGATE_TO_FORM__ide_onClick_ab3db61f8f934461ae17b935cc5dbc08",
            "type": "NAVIGATE_TO_FORM",
            "formKUID": "cb9c6e2401794345b779667cc6d3547f",
            "mappings": {},
            "mappingsOrder": [],
            "parentId": "",
            "callbackType": null,
            "enableMappingEditor": true,
            "navigationObj": "{\n    \"_meta_\": {\n        \"eventName\": \"\",\n        \"widgetId\": \"\"\n    }\n}",
            "isCustomInput": false
        }]
    }
}