{
    "AS_Button_df7e7dc510c64c5ba03261431180c2c9": {
        "id": "AS_Button_df7e7dc510c64c5ba03261431180c2c9",
        "type": "ACTION_SEQUENCE",
        "params": [{
            "datatype": "collection",
            "name": "eventobject"
        }],
        "language": "js",
        "actions": [{
            "id": "ADD_SNIPPET_ide_onClick_h40759a0518a4674ae68cb9d0c0c3cd4",
            "type": "ADD_SNIPPET",
            "codeSnippet": "frmIPSRequests.btnAll.skin = \"slButtonWhiteTab\";\nfrmIPSRequests.btnIncoming.skin = \"slButtonWhiteTabDisabled\";\nfrmIPSRequests.btnOutgoing.skin = \"slButtonWhiteTabDisabled\";\nfrmIPSRequests.btnRequestToPay.skin = \"slButtonWhiteTabDisabled\";\nkony.sdk.mvvm.KonyApplicationContext.showLoadingScreen(\"\");\nloadPaymentHistory(\"ALL\");\nkony.sdk.mvvm.KonyApplicationContext.dismissLoadingScreen();\n/*selectedIndex_BULK_PAYMENT = [];\nvalidate_BULK_BILL_SELECTION();\nshow_BILLER_LIST(\"all\");*/",
            "callbackType": null
        }]
    }
}