{
    "AS_Button_b7099d1415e24d9ba8a42a274a4a8009": {
        "id": "AS_Button_b7099d1415e24d9ba8a42a274a4a8009",
        "type": "ACTION_SEQUENCE",
        "name": "AS_Button_onClickSearch",
        "params": [{
            "datatype": "collection",
            "name": "eventobject"
        }],
        "contextObj": {
            "name": "frmLocatorKA",
            "type": "forms",
            "platform": "",
            "KUID": "c471585baa904bb49278190a4437d425"
        },
        "language": "js",
        "actions": [{
            "id": "ADD_SNIPPET__e307da18b4994ee4906c8f5d79b57a29",
            "type": "ADD_SNIPPET",
            "codeSnippet": "onClickSearch(false,\"0%\");",
            "parentId": null,
            "callbackType": null
        }]
    }
}