{
    "AS_Button_if8be38321eb438d8e0ec3d0d44fbebf": {
        "id": "AS_Button_if8be38321eb438d8e0ec3d0d44fbebf",
        "type": "ACTION_SEQUENCE",
        "params": [{
            "datatype": "collection",
            "name": "eventobject"
        }],
        "language": "js",
        "actions": [{
            "id": "ADD_SNIPPET_ide_onClick_c232a6615a6148f5afdfed7cd4dcb2fb",
            "type": "ADD_SNIPPET",
            "codeSnippet": "customVerb_CARDSDETAILS();",
            "callbackType": null
        }]
    }
}