{
    "AS_Button_fd389e2eb47247a6891b5bb124a9f8d7": {
        "id": "AS_Button_fd389e2eb47247a6891b5bb124a9f8d7",
        "type": "ACTION_SEQUENCE",
        "params": [{
            "datatype": "collection",
            "name": "eventobject"
        }],
        "language": "js",
        "actions": [{
            "id": "ADD_SNIPPET__e94afb3d99344e8caf7f816f5f93bf2b",
            "type": "ADD_SNIPPET",
            "codeSnippet": "var INSTANCE = kony.sdk.mvvm.KonyApplicationContext.getAppInstance();\nvar listController = INSTANCE.getFormController(\"frmAddExternalAccountKA\");\nvar navObject = new kony.sdk.mvvm.NavigationObject();\nvar datamodelflxAddressKA = new kony.sdk.mvvm.DataModel();\nnavObject.setDataModel(null,kony.sdk.mvvm.OperationType.ADD, \"form\");\n//navObject.setRequestOptions(\"ListCountryKA\",{\"headers\":{\"session_token\":kony.retailBanking.globalData.session_token}});\nnavObject.setRequestOptions(\"form\",{\"headers\":{\"session_token\":kony.retailBanking.globalData.session_token}});\nlistController.performAction(\"navigateTo\",[\"frmAddExternalAccountKA\",navObject]); ",
            "parentId": null,
            "callbackType": null
        }]
    }
}