{
    "AS_Button_d5612ae0ecc447159a04227c2c72be7c": {
        "id": "AS_Button_d5612ae0ecc447159a04227c2c72be7c",
        "type": "ACTION_SEQUENCE",
        "params": [{
            "datatype": "collection",
            "name": "eventobject"
        }],
        "language": "js",
        "actions": [{
            "id": "SHOW_ALERT__1a369bc790af4918be079160dc03d5bb",
            "type": "SHOW_ALERT",
            "alertType": "constants.ALERT_TYPE_CONFIRMATION",
            "alertTitle": "You are leaving the xyzBank Mobile App",
            "yesLabel": "OK",
            "noLabel": "Cancel",
            "alertMessage": "to open directions in Maps.",
            "messageType": "constant",
            "parentId": null,
            "callbackType": null,
            "alertTitlei18n": null,
            "yesLabeli18n": null,
            "noLabeli18n": null,
            "iconPosition": "constants.ALERT_ICON_POSITION_LEFT"
        }, {
            "id": "NAVIGATE_TO_FORM___105fab6e76874a7a87f92c3065effca3",
            "type": "NAVIGATE_TO_FORM",
            "formId": "frmDirectionsKA",
            "formKUID": "2a844aaae75b49948039c6e28c65dfcc",
            "mappings": {},
            "mappingsOrder": [],
            "parentId": "SHOW_ALERT__1a369bc790af4918be079160dc03d5bb",
            "callbackType": "True",
            "enableMappingEditor": true,
            "package": "",
            "navigationObj": "{\n    \"_meta_\": {\n        \"eventName\": \"\",\n        \"widgetId\": \"\"\n    }\n}",
            "isCustomInput": false
        }]
    }
}