{
    "AS_Button_e0b0e6e228bd4ac7b6741a6f392c1f9b": {
        "id": "AS_Button_e0b0e6e228bd4ac7b6741a6f392c1f9b",
        "type": "ACTION_SEQUENCE",
        "params": [{
            "datatype": "collection",
            "name": "eventobject"
        }],
        "language": "js",
        "actions": [{
            "id": "ADD_SNIPPET_ide_onClick_cc3dd728f1a74d04aac6f258f2bb25dd",
            "type": "ADD_SNIPPET",
            "codeSnippet": "cardManagementOperations(\"activateordeactivate\");",
            "callbackType": null
        }]
    }
}