{
    "AS_Button_1a3148df47cd46ab91f68c8d39ede51b": {
        "id": "AS_Button_1a3148df47cd46ab91f68c8d39ede51b",
        "type": "ACTION_SEQUENCE",
        "params": [{
            "datatype": "collection",
            "name": "eventobject"
        }],
        "language": "js",
        "actions": [{
            "id": "INVOKE_FUNCTION__ide_onClick_d3047d4d92cf42da9b7ca6a545c7072e",
            "type": "INVOKE_FUNCTION",
            "display": "firstTimeVisitAccountTermsForm",
            "inputparams": [],
            "callbackType": null,
            "source": "module"
        }]
    }
}