{
    "AS_Button_g90f06f5685c45c3a3418c8c1e9441f2": {
        "id": "AS_Button_g90f06f5685c45c3a3418c8c1e9441f2",
        "type": "ACTION_SEQUENCE",
        "params": [{
            "datatype": "collection",
            "name": "eventobject"
        }],
        "contextObj": {
            "name": "frmAccountDetailKA",
            "type": "forms",
            "platform": "",
            "KUID": "5ed703cad63c441882fc4a36f5ea0c28"
        },
        "language": "js",
        "actions": [{
            "id": "ADD_SNIPPET__e51cf00ab0694b38b32beaf29976f3f0",
            "type": "ADD_SNIPPET",
            "codeSnippet": "kony.print(\"ASdasd\");",
            "parentId": null,
            "callbackType": null
        }]
    }
}