{
    "AS_Button_d211ec7638604dd8ac10babfc6a22381": {
        "id": "AS_Button_d211ec7638604dd8ac10babfc6a22381",
        "type": "ACTION_SEQUENCE",
        "params": [{
            "datatype": "collection",
            "name": "eventobject"
        }],
        "contextObj": {
            "name": "frmConfirmCashWithDrawQRCodeKA",
            "type": "forms",
            "platform": "",
            "KUID": "ded4b5c79a094fb6a00d414ebe133610"
        },
        "language": "js",
        "actions": [{
            "id": "ADD_SNIPPET__hdb2fa92ee6a48208088b60ca75221de",
            "type": "ADD_SNIPPET",
            "codeSnippet": "var vc = new kony.rb.frmConfirmCashWithDrawQRCodeKAViewController();\nvc.goBackToNewCashWithdraw();",
            "parentId": null,
            "callbackType": null
        }]
    }
}