{
    "AS_Button_ec2995699abc47aa9218dac928e78320": {
        "id": "AS_Button_ec2995699abc47aa9218dac928e78320",
        "type": "ACTION_SEQUENCE",
        "params": [{
            "datatype": "collection",
            "name": "eventobject"
        }],
        "contextObj": {
            "name": "frmNewUserOnboardVerificationKA",
            "type": "forms",
            "platform": null,
            "KUID": "ie7b921fac134bd8a8afb16afc085409"
        },
        "language": "js",
        "actions": [{
            "id": "ADD_SNIPPET_ide_onClick_aca3483d361545da9bbe08a16c496515",
            "type": "ADD_SNIPPET",
            "codeSnippet": "var onClickCancelVC= applicationManager.getFrmNUOVerificationKAViewController();\nonClickCancelVC.onClickCancelOfVerification(); ",
            "callbackType": null
        }]
    }
}