{
    "AS_Button_d1bb6aea9ef6470fa84a3333926c4fda": {
        "id": "AS_Button_d1bb6aea9ef6470fa84a3333926c4fda",
        "type": "ACTION_SEQUENCE",
        "params": [{
            "datatype": "collection",
            "name": "eventobject"
        }],
        "language": "js",
        "actions": [{
            "id": "ADD_SNIPPET_ide_onClick_i6a00cc7ca434b358d98d09ee4b81c00",
            "type": "ADD_SNIPPET",
            "codeSnippet": "frmJoMoPay.show();",
            "callbackType": null
        }]
    }
}