{
    "AS_Button_36b667448adc406e8289be7247773031": {
        "id": "AS_Button_36b667448adc406e8289be7247773031",
        "type": "ACTION_SEQUENCE",
        "params": [{
            "datatype": "collection",
            "name": "eventobject"
        }],
        "language": "js",
        "actions": [{
            "id": "ADD_SNIPPET_ide_onClick_0b6c371df8354554a04e7ef93bfe73eb",
            "type": "ADD_SNIPPET",
            "codeSnippet": "    var INSTANCE = kony.sdk.mvvm.KonyApplicationContext.getAppInstance();\n    var frmName = kony.application.getCurrentForm().id;\n    var listController = INSTANCE.getFormController(frmName);\n    listController.performAction(\"navigateToAccountsInfo\");",
            "callbackType": null
        }]
    }
}