{
    "AS_Button_49f8bbb9dddc498c885e6a9ba84aa6d1": {
        "id": "AS_Button_49f8bbb9dddc498c885e6a9ba84aa6d1",
        "type": "ACTION_SEQUENCE",
        "params": [{
            "datatype": "collection",
            "name": "eventobject"
        }],
        "language": "js",
        "actions": [{
            "id": "ADD_SNIPPET_onClick_6db633392ca94ec48b01af032c66668f",
            "type": "ADD_SNIPPET",
            "codeSnippet": "setToAccountDefault();\nfrmNewTransferKA.toCardTitle.skin = \"skntransferPaySectionHeader\";\nsetContainerState(frmNewTransferKA,\"to\",\"ANIMATION_EXPAND\", toCardHeight);\n\n//onclickTransferEdit(\"to\");\n//editAccountCard(frmNewTransferKA, \"to\");\n//getAllToFieldsVisible(\"frmNewTransferKA\");\n//toSelectedSeg = true;\n//resetTOAccountData(\"segInternalFromAccountsKA\",\"segInternalTOAccountsKA\",\"frmNewTransferKA\");",
            "callbackType": null
        }]
    }
}