{
    "AS_Button_g8f91466b298400a94c50a74a0e7e8a3": {
        "id": "AS_Button_g8f91466b298400a94c50a74a0e7e8a3",
        "type": "ACTION_SEQUENCE",
        "params": [{
            "datatype": "collection",
            "name": "eventobject"
        }],
        "language": "js",
        "actions": [{
            "id": "ADD_SNIPPET_ide_onClick_b3ec05fbcd2d4716bb8c688af41e8146",
            "type": "ADD_SNIPPET",
            "codeSnippet": "kony.boj.displayParameter(\"INT\");\nkony.boj.restoreDetails();\n// kony.boj.addBeneNextStatus();",
            "callbackType": null
        }]
    }
}