{
    "AS_Button_f75838145b424722ab999f9ec26cffa3": {
        "id": "AS_Button_f75838145b424722ab999f9ec26cffa3",
        "type": "ACTION_SEQUENCE",
        "params": [{
            "datatype": "collection",
            "name": "eventobject"
        }],
        "contextObj": {
            "name": "frmDepositPayLandingKA",
            "type": "forms",
            "platform": "",
            "KUID": "dd44156e890e4ee28360f50ee6c67184"
        },
        "language": "js",
        "actions": [{
            "id": "SHOW_ALERT__93cd77986f994d02b733dfa9554ee21b",
            "type": "SHOW_ALERT",
            "alertType": "constants.ALERT_TYPE_CONFIRMATION",
            "alertTitle": "Confirm Sign Out",
            "yesLabel": "Sign Out",
            "noLabel": "Cancel",
            "alertMessage": "Are you sure you want to sign out?",
            "messageType": "constant",
            "parentId": null,
            "alertTitlei18n": "i18n.common.confirmSignOut",
            "yesLabeli18n": "i18n.common.signOut",
            "noLabeli18n": "i18n.common.cancel",
            "alertMessagei18n": "i18n.common.signOutAlert",
            "iconPosition": "constants.ALERT_ICON_POSITION_LEFT"
        }, {
            "id": "ADD_SNIPPET__9e0ccad439c742fdbe14e3f741854bf2",
            "type": "ADD_SNIPPET",
            "codeSnippet": "frmDepositPayLandingKA.flxCheckDepositNavOptKA.isVisible=false;\nkony.sdk.mvvm.LogoutAction();",
            "parentId": "SHOW_ALERT__93cd77986f994d02b733dfa9554ee21b",
            "callbackType": "True"
        }]
    }
}