{
    "AS_Button_ebf65b62b6a54b299c7f13a169c23243": {
        "id": "AS_Button_ebf65b62b6a54b299c7f13a169c23243",
        "type": "ACTION_SEQUENCE",
        "name": "AS_Button_onClickResendOTP",
        "params": [{
            "datatype": "collection",
            "name": "eventobject"
        }],
        "contextObj": {
            "name": "frmNewUserOnboardVerificationKA",
            "type": "forms",
            "platform": "",
            "KUID": "ie7b921fac134bd8a8afb16afc085409"
        },
        "language": "js",
        "actions": [{
            "id": "ADD_SNIPPET__fbfe680f99074ebebe277d339c03a47d",
            "type": "ADD_SNIPPET",
            "codeSnippet": "ShowLoadingScreen();\ncallRequestOTP();",
            "parentId": null,
            "callbackType": null
        }]
    }
}