{
    "AS_Button_d17df9e376f645b3a43b885263a3d52d": {
        "id": "AS_Button_d17df9e376f645b3a43b885263a3d52d",
        "type": "ACTION_SEQUENCE",
        "params": [{
            "datatype": "collection",
            "name": "eventobject"
        }],
        "language": "js",
        "actions": [{
            "id": "ADD_SNIPPET_ide_onClick_b91e80ac85be48e8afe4cf21272363c7",
            "type": "ADD_SNIPPET",
            "codeSnippet": "frmEPS.btnEmail.skin = sknOrangeBGRNDBOJ;\nfrmEPS.btnMobile.skin = slButtonBlueFocus;\nfrmEPS.btntext.skin = slButtonBlueFocus;\n",
            "callbackType": null
        }]
    }
}