{
    "AS_Button_e7add93844884697ba93172af5b6509d": {
        "id": "AS_Button_e7add93844884697ba93172af5b6509d",
        "type": "ACTION_SEQUENCE",
        "params": [{
            "datatype": "collection",
            "name": "eventobject"
        }],
        "contextObj": {
            "type": "forms",
            "platform": null,
            "KUID": "fac0b15f864c4fd5a691cfc1a6b71c33"
        },
        "language": "js",
        "actions": [{
            "id": "NAVIGATE_TO_FORM__ide_onClick_af0abba48d7d42d68c19fb53d6e216c5",
            "type": "NAVIGATE_TO_FORM",
            "formKUID": "70d10cb7bc484b6c92bcc81b0ccc655a",
            "mappings": {},
            "mappingsOrder": [],
            "parentId": "",
            "callbackType": null,
            "enableMappingEditor": true,
            "navigationObj": "{\n    \"_meta_\": {\n        \"eventName\": \"\",\n        \"widgetId\": \"\"\n    }\n}",
            "isCustomInput": false
        }]
    }
}