{
    "AS_Button_1752889f33f248f686c2d5de652b39bf": {
        "id": "AS_Button_1752889f33f248f686c2d5de652b39bf",
        "type": "ACTION_SEQUENCE",
        "params": [{
            "datatype": "collection",
            "name": "eventobject"
        }],
        "language": "js",
        "actions": [{
            "id": "ADD_SNIPPET_ide_onClick_3e99ad9456504986bd144f0bfa7752e8",
            "type": "ADD_SNIPPET",
            "codeSnippet": "check(7);",
            "callbackType": null
        }]
    }
}