{
    "AS_Form_i297d32c182e45ccbf1ab62d369ad215": {
        "id": "AS_Form_i297d32c182e45ccbf1ab62d369ad215",
        "type": "ACTION_SEQUENCE",
        "name": "AS_billerListpreShow",
        "params": [{
            "datatype": "collection",
            "name": "eventobject"
        }],
        "contextObj": {
            "name": "frmBillerListForm",
            "type": "forms",
            "platform": null,
            "KUID": "ea8e3b3429354ea892f6614a6a6c11cd"
        },
        "language": "js",
        "actions": [{
            "id": "ADD_SNIPPET__a75d02092f094042b0394d1d7dea9c7a",
            "type": "ADD_SNIPPET",
            "codeSnippet": "// billerListPreShow();\nfrmBillerListForm.tbxSearch.text = \"\";",
            "parentId": null,
            "callbackType": null
        }]
    }
}