{
    "AS_Button_cd830cd171444971bd8d587f874b25fe": {
        "id": "AS_Button_cd830cd171444971bd8d587f874b25fe",
        "type": "ACTION_SEQUENCE",
        "name": "AS_Button_showLocatorKA",
        "params": [{
            "datatype": "collection",
            "name": "eventobject"
        }],
        "language": "js",
        "actions": [{
            "id": "ADD_SNIPPET_ide_onClick_db154bfa08bb4b67b542435a1961961f",
            "type": "ADD_SNIPPET",
            "codeSnippet": "frmLocatorKA.show();",
            "callbackType": null
        }]
    }
}