{
    "AS_Button_cb688e1c2a504258ad767548c51420b0": {
        "id": "AS_Button_cb688e1c2a504258ad767548c51420b0",
        "type": "ACTION_SEQUENCE",
        "params": [{
            "datatype": "collection",
            "name": "eventobject"
        }],
        "language": "js",
        "actions": [{
            "id": "ADD_SNIPPET_ide_onClick_dc0067f5c47b497a87e3818d5c211bd9",
            "type": "ADD_SNIPPET",
            "codeSnippet": "onClickCardsMenu();"
        }]
    }
}