{
    "AS_Button_f4ef4398400b4171b691c02baff1203d": {
        "id": "AS_Button_f4ef4398400b4171b691c02baff1203d",
        "type": "ACTION_SEQUENCE",
        "params": [{
            "datatype": "collection",
            "name": "eventobject"
        }],
        "contextObj": {
            "name": "frmAccountDetailKA",
            "type": "forms",
            "platform": "",
            "KUID": "5ed703cad63c441882fc4a36f5ea0c28"
        },
        "language": "js",
        "actions": [{
            "id": "ADD_SNIPPET__d2cfa6c8a2ec43b995fc0289f71c9988",
            "type": "ADD_SNIPPET",
            "codeSnippet": "kony.print(\"sda\");",
            "parentId": null,
            "callbackType": null
        }]
    }
}