{
    "AS_Button_e921c166a2ca4d78b64614053d4d68aa": {
        "id": "AS_Button_e921c166a2ca4d78b64614053d4d68aa",
        "type": "ACTION_SEQUENCE",
        "params": [{
            "datatype": "collection",
            "name": "eventobject"
        }],
        "language": "js",
        "actions": [{
            "id": "ADD_SNIPPET_ide_onClick_46ad310b0ff64930aed0334c2e6b36b8",
            "type": "ADD_SNIPPET",
            "codeSnippet": "// validateSearchfields();\nsearchTransation();\n// KNYMetricsService.sendCustomMetrics(\"frmSearchOptionsKA\", {\"searchButton\":\"Final Search\"}); \n",
            "callbackType": null
        }]
    }
}