{
    "AS_Button_b64c1c9cdd454dbc81e56feb265c249d": {
        "id": "AS_Button_b64c1c9cdd454dbc81e56feb265c249d",
        "type": "ACTION_SEQUENCE",
        "params": [{
            "datatype": "collection",
            "name": "eventobject"
        }],
        "contextObj": {
            "name": "frmAccountDetailKA",
            "type": "forms",
            "platform": "",
            "KUID": "5ed703cad63c441882fc4a36f5ea0c28"
        },
        "language": "js",
        "actions": [{
            "id": "ADD_SNIPPET__db9cc624968f4104a82b2ee28743263e",
            "type": "ADD_SNIPPET",
            "codeSnippet": "kony.print(\"This si \");",
            "parentId": null,
            "callbackType": null
        }]
    }
}