{
    "AS_Button_fdc0727cc5db40f4acb9787a4bcbf703": {
        "id": "AS_Button_fdc0727cc5db40f4acb9787a4bcbf703",
        "type": "ACTION_SEQUENCE",
        "params": [{
            "datatype": "collection",
            "name": "eventobject"
        }],
        "contextObj": {
            "name": "frmAccountDetailKA",
            "type": "forms",
            "platform": "",
            "KUID": "5ed703cad63c441882fc4a36f5ea0c28"
        },
        "language": "js",
        "actions": [{
            "id": "ADD_SNIPPET__fde8e3bb3ede4fc58ca39b439c73bb1f",
            "type": "ADD_SNIPPET",
            "codeSnippet": "kony.print(\"sadasd\");",
            "parentId": null,
            "callbackType": null
        }]
    }
}