{
    "AS_Button_a32e2b981faf4efe95cc9e1129be7a7f": {
        "id": "AS_Button_a32e2b981faf4efe95cc9e1129be7a7f",
        "type": "ACTION_SEQUENCE",
        "params": [{
            "datatype": "collection",
            "name": "eventobject"
        }],
        "contextObj": {
            "type": "forms",
            "platform": "",
            "KUID": "c1ec9b0a2635465caf9f94d22caae9f7"
        },
        "language": "js",
        "actions": [{
            "id": "ADD_SNIPPET__j807ff0d90474a87b620ae6d3a75255a",
            "type": "ADD_SNIPPET",
            "codeSnippet": "var navManager = applicationManager.getNavManager();\nnavManager.goBack();",
            "parentId": null,
            "callbackType": null
        }]
    }
}