{
    "AS_Button_e9e4c0f013fe4fd8b78936ce8bb16990": {
        "id": "AS_Button_e9e4c0f013fe4fd8b78936ce8bb16990",
        "type": "ACTION_SEQUENCE",
        "params": [{
            "datatype": "collection",
            "name": "eventobject"
        }],
        "language": "js",
        "actions": [{
            "id": "ADD_SNIPPET_ide_onClick_d4587a6246ac4839b0eb35c65dca5ea7",
            "type": "ADD_SNIPPET",
            "codeSnippet": "initiate_QRCodeScanner();",
            "callbackType": null
        }]
    }
}