{
    "AS_Button_ff702f69bbfd4b71b7f19b79ef01483c": {
        "id": "AS_Button_ff702f69bbfd4b71b7f19b79ef01483c",
        "type": "ACTION_SEQUENCE",
        "name": "AS_Button_onClickMaturityInstructionWithInterest",
        "params": [{
            "datatype": "collection",
            "name": "eventobject"
        }],
        "contextObj": {
            "name": "frmOpenTermDeposit",
            "type": "forms",
            "platform": "",
            "KUID": "fec6fddbcf8543f2b30114c87e1a7e99"
        },
        "language": "js",
        "actions": [{
            "id": "ADD_SNIPPET__d151bd5f8dcc42fcbda251f7f9b5fda2",
            "type": "ADD_SNIPPET",
            "codeSnippet": "funMatInstructions(\"withInt\");",
            "parentId": null,
            "callbackType": null
        }]
    }
}