{
    "AS_Button_efd54815b1d742ff91b81e2a81405830": {
        "id": "AS_Button_efd54815b1d742ff91b81e2a81405830",
        "type": "ACTION_SEQUENCE",
        "params": [{
            "datatype": "collection",
            "name": "eventobject"
        }],
        "contextObj": {
            "name": "frmPinEntryStep2",
            "type": "forms",
            "platform": null,
            "KUID": "e015f1b273d34ea480f2c966bc9044d2"
        },
        "language": "js",
        "actions": [{
            "id": "ADD_SNIPPET_ide_onClick_gb31f5bff7bd469dbece4026f9421519",
            "type": "ADD_SNIPPET",
            "codeSnippet": "CancelClick();",
            "callbackType": null
        }]
    }
}