{
    "AS_Button_f97425d0fdd94a4b90a47aab1faceb59": {
        "id": "AS_Button_f97425d0fdd94a4b90a47aab1faceb59",
        "type": "ACTION_SEQUENCE",
        "params": [{
            "datatype": "collection",
            "name": "eventobject"
        }],
        "language": "js",
        "actions": [{
            "id": "ADD_SNIPPET_ide_onClick_fb2ab8db823f4b798eae05d7dddcb313",
            "type": "ADD_SNIPPET",
            "codeSnippet": "var currForm = kony.application.getCurrentForm().id;\nif(currForm !== \"frmAccountsLandingKA\"){\n    if(kony.sdk.isNetworkAvailable()){\n      frmAccountsLandingKA.flxDeals.setVisibility(false);\n            frmAccountsLandingKA.flxAccountsMain.setVisibility(true);\n      frmAccountsLandingKA.flxAccountsMain.left = \"0%\"\n            frmAccountsLandingKA.flxLoans.setVisibility(false);\n            frmAccountsLandingKA.flxAccountsMain.zIndex = 1;\n            frmAccountsLandingKA.flxDeals.zIndex = 1;\n            frmAccountsLandingKA.flxLoans.zIndex = 1;\n            frmAccountsLandingKA.forceLayout();\n      \nvar INSTANCE = kony.sdk.mvvm.KonyApplicationContext.getAppInstance();\n      var controller = INSTANCE.getFormController(\"frmAccountsLandingKA\");\n      var navObject = new kony.sdk.mvvm.NavigationObject();\n      navObject.setRequestOptions(\"segAccountsKA\",{\"headers\":{\"session_token\":kony.retailBanking.globalData.session_token}});\n      controller.loadDataAndShowForm(navObject);\nkony.print(\"Nav accounts Dadhboard:::\");\n    }else{\n  kony.sdk.mvvm.KonyApplicationContext.dismissLoadingScreen();\n        customAlertPopup(\"\", kony.i18n.getLocalizedString(\"i18n.errorMsg.deviceConnectionError\"), popupCommonAlertDimiss, \"\");\n  }\n}else{\n  kony.print(\"same form:::\");\n}",
            "callbackType": null
        }]
    }
}