{
    "AS_Button_ge741f86c1c94ffb9fb6be9a8c9242a4": {
        "id": "AS_Button_ge741f86c1c94ffb9fb6be9a8c9242a4",
        "type": "ACTION_SEQUENCE",
        "name": "AS_Button_onclick_favoriteJomopayBene",
        "params": [{
            "datatype": "collection",
            "name": "eventobject"
        }, {
            "datatype": "collection",
            "name": "context"
        }],
        "language": "js",
        "actions": [{
            "id": "ADD_SNIPPET_ide_onClick_ba5d620bdb594e418be34b55acf54dfb",
            "type": "ADD_SNIPPET",
            "codeSnippet": "kony.boj.setJomoBeneDataList(frmJoMoPayLanding.segJomopayBeneficiary.selectedRowItems[0]);\n",
            "callbackType": null
        }]
    }
}