{
    "AS_Button_9d6012306e254cc9bbda62ca45fe074b": {
        "id": "AS_Button_9d6012306e254cc9bbda62ca45fe074b",
        "type": "ACTION_SEQUENCE",
        "params": [{
            "datatype": "collection",
            "name": "eventobject"
        }],
        "contextObj": {
            "name": "frmDirectionsKA",
            "type": "forms",
            "platform": null,
            "KUID": "2a844aaae75b49948039c6e28c65dfcc"
        },
        "language": "js",
        "actions": [{
            "id": "INVOKE_FUNCTION__ide_onClick_0daee296732e43489eb7e4c05911328c",
            "type": "INVOKE_FUNCTION",
            "sequenceKUID": "onBothSelected",
            "display": "onBothSelected",
            "inputparams": [],
            "callbackType": null,
            "source": "module"
        }]
    }
}