{
    "AS_Button_iab94dbcfeaf4bb880fc13fb9066684b": {
        "id": "AS_Button_iab94dbcfeaf4bb880fc13fb9066684b",
        "type": "ACTION_SEQUENCE",
        "params": [{
            "datatype": "collection",
            "name": "eventobject"
        }],
        "contextObj": {
            "type": "forms",
            "platform": "",
            "KUID": "c61ad12e0ab14a518f43b91ce1670e1d"
        },
        "language": "js",
        "actions": [{
            "id": "ADD_SNIPPET__b3977135ce6942dbb9e331f7f7de726b",
            "type": "ADD_SNIPPET",
            "codeSnippet": "frmConfirmCashWithDraw.show();",
            "parentId": null,
            "callbackType": null
        }]
    }
}