{
    "AS_Button_i618d182eb4144f39fb61736a8b06628": {
        "id": "AS_Button_i618d182eb4144f39fb61736a8b06628",
        "type": "ACTION_SEQUENCE",
        "name": "AS_Button_whenClickPostPaidAddPrePaidPayee",
        "params": [{
            "datatype": "collection",
            "name": "eventobject"
        }],
        "language": "js",
        "actions": [{
            "id": "ADD_SNIPPET_ide_onClick_bb8c3ead95294f4aaada6ca97db4cd1b",
            "type": "ADD_SNIPPET",
            "codeSnippet": "frmAddNewPayeeKA.btnPostPaid.skin = \"slButtonWhiteTab\";\nfrmAddNewPayeeKA.btnPrePaid.skin = \"slButtonWhiteTabDisabled\";\nfrmAddNewPayeeKA.lblNext.skin = \"sknLblNextDisabled\";\nkony.boj.selectedBillerType = \"PostPaid\";\n//kony.boj.restoreBillerTabDetails();\n//kony.boj.restoreTextboxAddBiller();\nfrmAddNewPayeeKA.show();\nfrmAddNewPrePayeeKA.destroy();",
            "callbackType": null
        }]
    }
}