{
    "AS_Button_bbb140700d644a2d8b06c2b15fba1af6": {
        "id": "AS_Button_bbb140700d644a2d8b06c2b15fba1af6",
        "type": "ACTION_SEQUENCE",
        "params": [{
            "datatype": "collection",
            "name": "eventobject"
        }],
        "contextObj": {
            "name": "frmAccountDetailKA",
            "type": "forms",
            "platform": "",
            "KUID": "5ed703cad63c441882fc4a36f5ea0c28"
        },
        "language": "js",
        "actions": [{
            "id": "ADD_SNIPPET__c5b75a14bedf4f289071412a2834fd52",
            "type": "ADD_SNIPPET",
            "codeSnippet": "kony.print(\"\");",
            "parentId": null,
            "callbackType": null
        }]
    }
}