{
    "AS_Button_b14cc58f415c482da55169c57df4f427": {
        "id": "AS_Button_b14cc58f415c482da55169c57df4f427",
        "type": "ACTION_SEQUENCE",
        "params": [{
            "datatype": "collection",
            "name": "eventobject"
        }],
        "contextObj": {
            "name": "frmPinEntryStep2",
            "type": "forms",
            "platform": null,
            "KUID": "e015f1b273d34ea480f2c966bc9044d2"
        },
        "language": "js",
        "actions": [{
            "id": "ADD_SNIPPET_ide_onClick_fcd4345843234d30a6b7f22e9df7be00",
            "type": "ADD_SNIPPET",
            "codeSnippet": "check(4);",
            "callbackType": null
        }]
    }
}