{
    "AS_Button_fab0e584303d45f094fffeaea1ac9cc7": {
        "id": "AS_Button_fab0e584303d45f094fffeaea1ac9cc7",
        "type": "ACTION_SEQUENCE",
        "name": "AS_Button_OpenSettings",
        "params": [{
            "datatype": "collection",
            "name": "eventobject"
        }],
        "contextObj": {
            "name": "frmPaymentDashboard",
            "type": "forms",
            "platform": "",
            "KUID": "j5584f57cd764e66adb4087c6fc15f67"
        },
        "language": "js",
        "actions": [{
            "id": "ADD_SNIPPET__c265ddfd8f3c4727a104053688f45b57",
            "type": "ADD_SNIPPET",
            "codeSnippet": "gblEntryFormForSettings = \"Paymentdashboard\";\nsubMenuFlag = true;\nfrmSettingsKA.show();",
            "parentId": null,
            "callbackType": null
        }]
    }
}