{
    "AS_Button_0c0e9c80ed7147f4922863f0f04c9074": {
        "id": "AS_Button_0c0e9c80ed7147f4922863f0f04c9074",
        "type": "ACTION_SEQUENCE",
        "params": [{
            "datatype": "collection",
            "name": "eventobject"
        }],
        "contextObj": {
            "name": "frmConfirmDepositKA",
            "type": "forms",
            "platform": null,
            "KUID": "422237ff93274fe59fc6163e5e1f62cd"
        },
        "language": "js",
        "actions": [{
            "id": "ADD_SNIPPET_ide_onClick_719fa9a7cbaa4a6688d1d239b8dd3f18",
            "type": "ADD_SNIPPET",
            "codeSnippet": "getDeposits(\"frmDepositPayLandingKA\");",
            "callbackType": null
        }]
    }
}