{
    "AS_Button_b70bb0e330e2478a9ee90d84cee7e3e2": {
        "id": "AS_Button_b70bb0e330e2478a9ee90d84cee7e3e2",
        "type": "ACTION_SEQUENCE",
        "params": [{
            "datatype": "collection",
            "name": "eventobject"
        }],
        "language": "js",
        "actions": [{
            "id": "ADD_SNIPPET_ide_onClick_je8722d8594e46b794c14eebcf12fe0a",
            "type": "ADD_SNIPPET",
            "codeSnippet": "showAccountInsights();\n  ",
            "callbackType": null
        }]
    }
}