{
    "AS_Button_6bba69e6f8b647208571c47215dd549f": {
        "id": "AS_Button_6bba69e6f8b647208571c47215dd549f",
        "type": "ACTION_SEQUENCE",
        "params": [{
            "datatype": "collection",
            "name": "eventobject"
        }],
        "contextObj": {
            "name": "frmEnterLocationKA",
            "type": "forms",
            "platform": null,
            "KUID": "861873c077284bceac2ded89085a841b"
        },
        "language": "js",
        "actions": [{
            "id": "NAVIGATE_TO_FORM__ide_onClick_2a578fe3bdb540a3bdfb594cdb5990a2",
            "type": "NAVIGATE_TO_FORM",
            "formKUID": "baf8bcd68a2c41d9a1f80da15169c48f",
            "mappings": {},
            "mappingsOrder": [],
            "parentId": "",
            "callbackType": null,
            "enableMappingEditor": true,
            "navigationObj": "{\n    \"_meta_\": {\n        \"eventName\": \"onClick\",\n        \"widgetId\": \"androidBack\"\n    }\n}",
            "isCustomInput": false
        }]
    }
}