{
    "AS_Button_5c2a953fdcf140d8b887d19c16061eec": {
        "id": "AS_Button_5c2a953fdcf140d8b887d19c16061eec",
        "type": "ACTION_SEQUENCE",
        "params": [{
            "datatype": "collection",
            "name": "eventobject"
        }],
        "contextObj": {
            "name": "frmLocatorKA",
            "type": "forms",
            "platform": "",
            "KUID": "c471585baa904bb49278190a4437d425"
        },
        "language": "js",
        "actions": [{
            "id": "ADD_SNIPPET__2fd3eabfa45947658dbb313bf99a746c",
            "type": "ADD_SNIPPET",
            "codeSnippet": "gotoCurrentLocation();",
            "parentId": null,
            "callbackType": null
        }]
    }
}