{
    "AS_FlexContainer_d0fb37bb5e4c415d9790a4e96e75c169": {
        "id": "AS_FlexContainer_d0fb37bb5e4c415d9790a4e96e75c169",
        "type": "ACTION_SEQUENCE",
        "params": [{
            "datatype": "collection",
            "name": "eventobject"
        }],
        "contextObj": {
            "name": "frmAddNewPrePayeeKA",
            "type": "forms",
            "platform": null,
            "KUID": "a843292d9c674ff7ba10a9b594b7e7e5"
        },
        "language": "js",
        "actions": [{
            "id": "ADD_SNIPPET_ide_onClick_ge0b1f6c21c841c88e3ee9edbc2e7fd7",
            "type": "ADD_SNIPPET",
            "codeSnippet": "kony.boj.callService(\"GetEfwBillerCategory\");",
            "callbackType": null
        }]
    }
}