{
    "AS_FlexContainer_a617b5035c914eba85cf0e5a76d22105": {
        "id": "AS_FlexContainer_a617b5035c914eba85cf0e5a76d22105",
        "type": "ACTION_SEQUENCE",
        "params": [{
            "datatype": "collection",
            "name": "eventobject"
        }, {
            "datatype": "string",
            "name": "x"
        }, {
            "datatype": "string",
            "name": "y"
        }],
        "contextObj": {
            "name": "frmChatBots",
            "type": "forms",
            "platform": "",
            "KUID": "a5c82996d9864c6482f65cfffe81fda4"
        },
        "language": "js",
        "actions": [{
            "id": "ADD_SNIPPET__ce49c4d776f34ebb8187638b2bfa2697",
            "type": "ADD_SNIPPET",
            "codeSnippet": "onTouchEnd1();",
            "parentId": null,
            "callbackType": null
        }]
    }
}