{
    "AS_Form_ie21ecb36c664ea3b60fa60e4a2c741a": {
        "id": "AS_Form_ie21ecb36c664ea3b60fa60e4a2c741a",
        "type": "ACTION_SEQUENCE",
        "params": [{
            "datatype": "collection",
            "name": "eventobject"
        }],
        "contextObj": {
            "name": "frmSmartInfo",
            "type": "forms",
            "platform": "",
            "KUID": "hbc8e1f50349469c98875dd068ab58ff"
        },
        "language": "js",
        "actions": [{
            "id": "ADD_SNIPPET__g045bd060ceb4cebabb16cb6c2a2ab09",
            "type": "ADD_SNIPPET",
            "codeSnippet": "frmDataGrid.dgRates.headerSkin = \"slDataGridAltRowBold\";",
            "parentId": null,
            "callbackType": null
        }]
    }
}