{
    "AS_FlexContainer_fbc6a1b6a9e746c3879fbb0afe01d757": {
        "id": "AS_FlexContainer_fbc6a1b6a9e746c3879fbb0afe01d757",
        "type": "ACTION_SEQUENCE",
        "params": [{
            "datatype": "collection",
            "name": "eventobject"
        }],
        "language": "js",
        "actions": [{
            "id": "NAVIGATE_TO_FORM__ide_onClick_aae9da3ea5324362b4ddb83b1da92176",
            "type": "NAVIGATE_TO_FORM",
            "formId": "frmMoreLandingKA",
            "formKUID": "f90cf53e47ae407c83e2e30720fff3da",
            "mappings": {},
            "mappingsOrder": [],
            "parentId": "",
            "callbackType": null,
            "enableMappingEditor": true,
            "disabled": true,
            "package": "",
            "navigationObj": "{\n    \"_meta_\": {\n        \"eventName\": \"onClick\",\n        \"widgetId\": \"FlxMore\"\n    }\n}",
            "isCustomInput": false
        }, {
            "id": "ADD_SNIPPET_ide_onClick_a93a1ef2952744f985bab532c9f6542a",
            "type": "ADD_SNIPPET",
            "codeSnippet": "frmJoMoPayRegistration.show();",
            "callbackType": null
        }]
    }
}