{
    "AS_Form_f371adcbdc81480591d61d4bfb45545f": {
        "id": "AS_Form_f371adcbdc81480591d61d4bfb45545f",
        "type": "ACTION_SEQUENCE",
        "params": [{
            "datatype": "collection",
            "name": "eventobject"
        }],
        "contextObj": {
            "type": "forms",
            "platform": null,
            "KUID": "e13f1296e0a4463e851f937f693990a9"
        },
        "language": "js",
        "actions": [{
            "id": "ADD_SNIPPET_ide_preShow_e59c6193c04d42dba986965523047e47",
            "type": "ADD_SNIPPET",
            "codeSnippet": "kony.print(\"Rempved\");",
            "callbackType": null
        }]
    }
}