{
    "AS_FlexContainer_c014f1029f12408e96aea0cfc4a232d9": {
        "id": "AS_FlexContainer_c014f1029f12408e96aea0cfc4a232d9",
        "type": "ACTION_SEQUENCE",
        "params": [{
            "datatype": "collection",
            "name": "eventobject"
        }],
        "language": "js",
        "actions": [{
            "id": "ADD_SNIPPET_ide_onClick_f0b913566ca64dad8683fada7f0712ab",
            "type": "ADD_SNIPPET",
            "codeSnippet": "previous_FORM.show();\nfrmTermsAndCondtions.destroy();\nprevious_FORM = null;",
            "callbackType": null
        }]
    }
}