{
    "AS_FlexContainer_ee6a65968af14b18931d3817453c3c24": {
        "id": "AS_FlexContainer_ee6a65968af14b18931d3817453c3c24",
        "type": "ACTION_SEQUENCE",
        "params": [{
            "datatype": "collection",
            "name": "eventobject"
        }],
        "contextObj": {
            "name": "frmChatBots",
            "type": "forms",
            "platform": "",
            "KUID": "a5c82996d9864c6482f65cfffe81fda4"
        },
        "language": "js",
        "actions": [{
            "id": "ADD_SNIPPET__i1e2204ce03b4f7f97251689d6378261",
            "type": "ADD_SNIPPET",
            "codeSnippet": "kony.chatbots.user.onClickEnter();\n",
            "parentId": null,
            "callbackType": null
        }]
    }
}