{
    "AS_FlexContainer_e5dffb7d9a724612a3b5099b843fc072": {
        "id": "AS_FlexContainer_e5dffb7d9a724612a3b5099b843fc072",
        "type": "ACTION_SEQUENCE",
        "params": [{
            "datatype": "collection",
            "name": "eventobject"
        }],
        "contextObj": {
            "name": "frmLoginKA",
            "type": "forms",
            "platform": "",
            "KUID": "7b1aa8fceb6b4070833e9eab879b0e5e"
        },
        "language": "js",
        "actions": [{
            "id": "ADD_SNIPPET_ide_onClick_ce0f22e4dfd74a0f894e4156ce4a4b55",
            "type": "ADD_SNIPPET",
            "codeSnippet": "showLoginorPinScreen(\"FaceIdScreen\");",
            "callbackType": null
        }]
    }
}