{
    "AS_FlexScrollContainer_ga29f643d3374c2a838c69a757bb46a5": {
        "id": "AS_FlexScrollContainer_ga29f643d3374c2a838c69a757bb46a5",
        "type": "ACTION_SEQUENCE",
        "params": [{
            "datatype": "collection",
            "name": "eventobject"
        }],
        "language": "js",
        "actions": [{
            "id": "ADD_SNIPPET_ide_onScrollEnd_j8139b69511a45f0a5212b9f6b2e014c",
            "type": "ADD_SNIPPET",
            "codeSnippet": "innerDoneScrolling();",
            "callbackType": null
        }]
    }
}