{
    "AS_Form_252aa9bc0ca54042ac1f2a1093f38935": {
        "id": "AS_Form_252aa9bc0ca54042ac1f2a1093f38935",
        "type": "ACTION_SEQUENCE",
        "params": [{
            "datatype": "collection",
            "name": "eventobject"
        }],
        "contextObj": {
            "type": "forms",
            "platform": null,
            "KUID": "7e8f4c02f2714bf38af176e5231ef448"
        },
        "language": "js",
        "actions": [{
            "id": "ADD_SNIPPET_ide_onDeviceBack_710f43e21c3a4a789d4704cde9c06425",
            "type": "ADD_SNIPPET",
            "codeSnippet": "kony.print(\"Device Back\");",
            "callbackType": null
        }]
    }
}