{
    "AS_FlexContainer_c3f7f684ba454c569ca5e970ddcb67e4": {
        "id": "AS_FlexContainer_c3f7f684ba454c569ca5e970ddcb67e4",
        "type": "ACTION_SEQUENCE",
        "params": [{
            "datatype": "collection",
            "name": "eventobject"
        }],
        "language": "js",
        "actions": [{
            "id": "ADD_SNIPPET_ide_onClick_g23ec339f4a242f4af8ce274cf9a4610",
            "type": "ADD_SNIPPET",
            "codeSnippet": "// var currentForm = kony.application.getCurrentForm();\n// kony.chatbots.bot.showBotSplash(currentForm);\nfrmPaymentDashboard.show();",
            "callbackType": null
        }]
    }
}