{
    "AS_FlexScrollContainer_ae9df5ae14ea46daa7376b78399ecd1e": {
        "id": "AS_FlexScrollContainer_ae9df5ae14ea46daa7376b78399ecd1e",
        "type": "ACTION_SEQUENCE",
        "params": [{
            "datatype": "collection",
            "name": "eventobject"
        }],
        "language": "js",
        "actions": [{
            "id": "ADD_SNIPPET_ide_onScrolling_a86bd717f89f47ddaf7532dca72c2ee6",
            "type": "ADD_SNIPPET",
            "codeSnippet": "innerAccountScroll();",
            "callbackType": null
        }]
    }
}