{
    "AS_FlexContainer_a15e1d0c695f43d1b82c298889044e67": {
        "id": "AS_FlexContainer_a15e1d0c695f43d1b82c298889044e67",
        "type": "ACTION_SEQUENCE",
        "params": [{
            "datatype": "collection",
            "name": "eventobject"
        }],
        "language": "js",
        "actions": [{
            "id": "ADD_SNIPPET_ide_onClick_f4da94e3a7a742df89d55d2b6869c148",
            "type": "ADD_SNIPPET",
            "codeSnippet": "kony.print(\"Removed\");",
            "callbackType": null
        }]
    }
}