{
    "AS_FlexContainer_c4b89bb731a74015ab4cee5ae7e17482": {
        "id": "AS_FlexContainer_c4b89bb731a74015ab4cee5ae7e17482",
        "type": "ACTION_SEQUENCE",
        "params": [{
            "datatype": "collection",
            "name": "eventobject"
        }],
        "contextObj": {
            "name": "tabBarAccounts",
            "type": "templates",
            "platform": "",
            "KUID": "9ceb0802eab24c759c1e8b5a27a8bf7a"
        },
        "language": "js",
        "actions": [{
            "id": "ADD_SNIPPET__38945418540941f6a314fe387a5154f9",
            "type": "ADD_SNIPPET",
            "codeSnippet": "kony.print(\"Removed\");",
            "parentId": null,
            "callbackType": null
        }]
    }
}