{
    "AS_Form_e447b7abbd264e7d8db42fa3370e1c0d": {
        "id": "AS_Form_e447b7abbd264e7d8db42fa3370e1c0d",
        "type": "ACTION_SEQUENCE",
        "params": [{
            "datatype": "collection",
            "name": "eventobject"
        }],
        "contextObj": {
            "name": "frmAccountsLandingKA",
            "type": "forms",
            "platform": "",
            "KUID": "d62a2a0906c64d2281addc95893a6544"
        },
        "language": "js",
        "actions": []
    }
}