{
    "AS_Form_dd82dd63a25c40c3b77a7151136b1f18": {
        "id": "AS_Form_dd82dd63a25c40c3b77a7151136b1f18",
        "type": "ACTION_SEQUENCE",
        "params": [{
            "datatype": "collection",
            "name": "eventobject"
        }],
        "contextObj": {
            "type": "forms",
            "platform": "",
            "KUID": "he1d62b4711f4c5abdcb97f4fa0c8653"
        },
        "language": "js",
        "actions": [{
            "id": "ADD_SNIPPET__j2c0fb347c0248c58775d840b7fe0ffe",
            "type": "ADD_SNIPPET",
            "codeSnippet": "var vc = new kony.rb.frmContactListphnViewController();\nvc.contactsListPreshow();",
            "parentId": null,
            "callbackType": null
        }]
    }
}