{
    "AS_FlexContainer_bcd6bcb4539145c1aee8c5b5c14b9833": {
        "id": "AS_FlexContainer_bcd6bcb4539145c1aee8c5b5c14b9833",
        "type": "ACTION_SEQUENCE",
        "params": [{
            "datatype": "collection",
            "name": "eventobject"
        }],
        "language": "js",
        "actions": [{
            "id": "ADD_SNIPPET_ide_onClick_dded1d3fb231449aadeef4ee85c3f9c1",
            "type": "ADD_SNIPPET",
            "codeSnippet": "frmAccountsLandingKA.flxAccntLandingNavOptKA.isVisible=false;",
            "callbackType": null
        }]
    }
}