{
    "AS_FlexContainer_ffdddc731e7e44ed99ac397fe84d8588": {
        "id": "AS_FlexContainer_ffdddc731e7e44ed99ac397fe84d8588",
        "type": "ACTION_SEQUENCE",
        "params": [{
            "datatype": "collection",
            "name": "eventobject"
        }],
        "contextObj": {
            "name": "frmNewTransferKA",
            "type": "forms",
            "platform": "",
            "KUID": "2ac343500306428da0ceef91a3b44d18"
        },
        "language": "js",
        "actions": [{
            "id": "ADD_SNIPPET__9accbc6d429449c4b4edc676ee3fe770",
            "type": "ADD_SNIPPET",
            "codeSnippet": "RecurringChanges(\"3\");",
            "parentId": null,
            "callbackType": null
        }]
    }
}