{
    "AS_FlexContainer_f6d0d3ef6b7849c7902894bfdc560ac6": {
        "id": "AS_FlexContainer_f6d0d3ef6b7849c7902894bfdc560ac6",
        "type": "ACTION_SEQUENCE",
        "params": [{
            "datatype": "collection",
            "name": "eventobject"
        }],
        "language": "js",
        "actions": [{
            "id": "ADD_SNIPPET_ide_onClick_j1b33263a8f14bca992452ac2e8b3c4c",
            "type": "ADD_SNIPPET",
            "codeSnippet": "navigatetofrmRequestSattementAccounts();",
            "callbackType": null
        }]
    }
}