{
    "AS_FlexContainer_g2f0be3323644491a4c33711294986b9": {
        "id": "AS_FlexContainer_g2f0be3323644491a4c33711294986b9",
        "type": "ACTION_SEQUENCE",
        "params": [{
            "datatype": "collection",
            "name": "eventobject"
        }],
        "contextObj": {
            "name": "frmAddNewPrePayeeKA",
            "type": "forms",
            "platform": null,
            "KUID": "a843292d9c674ff7ba10a9b594b7e7e5"
        },
        "language": "js",
        "actions": [{
            "id": "ADD_SNIPPET_ide_onClick_a68e70d748d04922a2c1731b39d5188f",
            "type": "ADD_SNIPPET",
            "codeSnippet": "kony.boj.manualService(\"Denomination\");",
            "callbackType": null
        }]
    }
}