{
    "AS_FlexContainer_d4a6867a19cb4811b657dd96e84ac255": {
        "id": "AS_FlexContainer_d4a6867a19cb4811b657dd96e84ac255",
        "type": "ACTION_SEQUENCE",
        "params": [{
            "datatype": "collection",
            "name": "eventobject"
        }],
        "language": "js",
        "actions": [{
            "id": "ADD_SNIPPET_ide_onClick_ge25c57378614696a53e3727d760f002",
            "type": "ADD_SNIPPET",
            "codeSnippet": "kony.print(\"Removed\");",
            "callbackType": null
        }]
    }
}