{
    "AS_FlexContainer_d422c704ec0f41509f3270d6f0c32e6b": {
        "id": "AS_FlexContainer_d422c704ec0f41509f3270d6f0c32e6b",
        "type": "ACTION_SEQUENCE",
        "params": [{
            "datatype": "collection",
            "name": "eventobject"
        }],
        "language": "js",
        "actions": [{
            "id": "ADD_SNIPPET_ide_onClick_dfe8dc526f344359bcff811b944eb578",
            "type": "ADD_SNIPPET",
            "codeSnippet": "setSegmentData(\"frmAccountsLandingKA\");\nfrmAccountsLandingKA.flxAccntLandingNavOptKA.isVisible=true;",
            "callbackType": null
        }]
    }
}