{
    "AS_FlexContainer_g64d54efde31407e89f31c84d36cf94c": {
        "id": "AS_FlexContainer_g64d54efde31407e89f31c84d36cf94c",
        "type": "ACTION_SEQUENCE",
        "params": [{
            "datatype": "collection",
            "name": "eventobject"
        }],
        "language": "js",
        "actions": [{
            "id": "ADD_SNIPPET_ide_onClick_ce13d29ee71a460db4678294a2eb114c",
            "type": "ADD_SNIPPET",
            "codeSnippet": "frmManagePayeeKA.show();",
            "callbackType": null
        }]
    }
}