{
    "AS_Form_f9d98989d67e46aea8e9426bba719dd7": {
        "id": "AS_Form_f9d98989d67e46aea8e9426bba719dd7",
        "type": "ACTION_SEQUENCE",
        "params": [{
            "datatype": "collection",
            "name": "eventobject"
        }],
        "contextObj": {
            "name": "frmSelectDetailsBene",
            "type": "forms",
            "platform": "",
            "KUID": "dc083a9578ae4c11820ce4dbba701670"
        },
        "language": "js",
        "actions": [{
            "id": "ADD_SNIPPET__e4ae971bbc474b8f9c7d0da5e1a9ddd9",
            "type": "ADD_SNIPPET",
            "codeSnippet": "if(gblsubaccBranchList){\n  frmOrderCheckBook.show();\n }else if(gblrequestStatementBranch){\n  frmRequestStatementAccounts.show();\n }else if(gblRequestNewPinBranchList){\n  frmRequestPinCard.show();\n }else{\nfrmAddExternalAccountKA.show();\nkony.boj.addBeneNextStatus();\n}\n\n",
            "parentId": null
        }]
    }
}