{
    "AS_Form_f6a55ea9cf194c12a318ab2ac01354dc": {
        "id": "AS_Form_f6a55ea9cf194c12a318ab2ac01354dc",
        "type": "ACTION_SEQUENCE",
        "params": [{
            "datatype": "collection",
            "name": "eventobject"
        }],
        "contextObj": {
            "name": "frmConfirmCashWithDraw",
            "type": "forms",
            "platform": "",
            "KUID": "b2e7c11eabab44839d19ed317b9260fc"
        },
        "language": "js",
        "actions": [{
            "id": "ADD_SNIPPET__hd6ec40c5f5043d5aec6d1bf0530d755",
            "type": "ADD_SNIPPET",
            "codeSnippet": "kony.print(\"device back\");",
            "parentId": null,
            "callbackType": null
        }]
    }
}