{
    "AS_FlexContainer_a3d623b85f9e4f2a9d357c3e562a071c": {
        "id": "AS_FlexContainer_a3d623b85f9e4f2a9d357c3e562a071c",
        "type": "ACTION_SEQUENCE",
        "params": [{
            "datatype": "collection",
            "name": "eventobject"
        }],
        "language": "js",
        "actions": [{
            "id": "ADD_SNIPPET_ide_onClick_b124fbd25cd84969a72e4acf0bb81cc2",
            "type": "ADD_SNIPPET",
            "codeSnippet": "\t  var INSTANCE = kony.sdk.mvvm.KonyApplicationContext.getAppInstance();\n      var controller = INSTANCE.getFormController(\"frmAccountsLandingKA\");\n      var navObject = new kony.sdk.mvvm.NavigationObject();\n      navObject.setRequestOptions(\"segAccountsKA\",{\"headers\":{\"session_token\":kony.retailBanking.globalData.session_token}});\n      controller.loadDataAndShowForm(navObject);",
            "callbackType": null
        }]
    }
}