{
    "AS_Form_badc5fdb8d4248e28dce0ace96e7a751": {
        "id": "AS_Form_badc5fdb8d4248e28dce0ace96e7a751",
        "type": "ACTION_SEQUENCE",
        "params": [{
            "datatype": "collection",
            "name": "eventobject"
        }],
        "contextObj": {
            "name": "frmPaymentDashboard",
            "type": "forms",
            "platform": "",
            "KUID": "j5584f57cd764e66adb4087c6fc15f67"
        },
        "language": "js",
        "actions": [{
            "id": "ADD_SNIPPET__faae373f281743ccaee1a367cde09e3a",
            "type": "ADD_SNIPPET",
            "codeSnippet": "gblOtpFromforRemovingOTP=\"\";\ngblsubaccBranchList= false;\ngblrequestStatementBranch=false;\ngblRequestNewPinBranchList=false;\ngetBojBankList();\n//disabling credit card payment icon\n//frmPaymentDashboard.flxCreditCardPayment.setVisibility(false);",
            "parentId": null,
            "callbackType": null
        }]
    }
}