{
    "AS_Form_aa667b9e4e194f49be82b1543025ddd7": {
        "id": "AS_Form_aa667b9e4e194f49be82b1543025ddd7",
        "type": "ACTION_SEQUENCE",
        "params": [{
            "datatype": "collection",
            "name": "eventobject"
        }],
        "contextObj": {
            "type": "forms",
            "platform": "",
            "KUID": "8c525af2d26c4599b2327f0b14f14239"
        },
        "language": "js",
        "actions": [{
            "id": "ADD_SNIPPET__583376d7268a4e8ab04ac0e3eba801f0",
            "type": "ADD_SNIPPET",
            "codeSnippet": "kony.print(\"Deleted\");",
            "parentId": null,
            "callbackType": null
        }]
    }
}