{
    "AS_Form_eb861489cb11444588b78806182fc657": {
        "id": "AS_Form_eb861489cb11444588b78806182fc657",
        "type": "ACTION_SEQUENCE",
        "params": [{
            "datatype": "collection",
            "name": "eventobject"
        }],
        "contextObj": {
            "name": "frmIPSManageBene",
            "type": "forms",
            "platform": "",
            "KUID": "d198f3888a0d4e49b2778593248a3f42"
        },
        "language": "js",
        "actions": []
    }
}