{
    "AS_FlexContainer_594ad1bb128b46be92ff65d036fd994d": {
        "id": "AS_FlexContainer_594ad1bb128b46be92ff65d036fd994d",
        "type": "ACTION_SEQUENCE",
        "params": [{
            "datatype": "collection",
            "name": "eventobject"
        }],
        "contextObj": {
            "name": "frmAccountInfoKA",
            "type": "forms",
            "platform": "",
            "KUID": "b2f984d11c5244e6ae5f81fe393d837e"
        },
        "language": "js",
        "actions": [{
            "id": "ADD_SNIPPET__33d4065cd3b2486fbfe637c8e26e98cb",
            "type": "ADD_SNIPPET",
            "codeSnippet": "frmAccountInfoKA.flxAccountInfoNavOptKA.isVisible=false;",
            "parentId": null,
            "callbackType": null
        }]
    }
}