{
    "AS_Form_232629efa62545c0b9cea1265e6227c9": {
        "id": "AS_Form_232629efa62545c0b9cea1265e6227c9",
        "type": "ACTION_SEQUENCE",
        "params": [{
            "datatype": "collection",
            "name": "eventobject"
        }],
        "contextObj": {
            "name": "frmDirectionsKA",
            "type": "forms",
            "platform": "",
            "KUID": "2a844aaae75b49948039c6e28c65dfcc"
        },
        "language": "js",
        "actions": [{
            "id": "ADD_SNIPPET__7ad2a38a5115425d90c2af189567555f",
            "type": "ADD_SNIPPET",
            "codeSnippet": "directionPostShow();",
            "parentId": null,
            "callbackType": null
        }]
    }
}