{
    "AS_FlexContainer_f11eeda981d94b34bd265112ce65bb3c": {
        "id": "AS_FlexContainer_f11eeda981d94b34bd265112ce65bb3c",
        "type": "ACTION_SEQUENCE",
        "params": [{
            "datatype": "collection",
            "name": "eventobject"
        }],
        "language": "js",
        "actions": [{
            "id": "ADD_SNIPPET_ide_onClick_ec212cfc8bde47c6965303a84f8e7184",
            "type": "ADD_SNIPPET",
            "codeSnippet": "gblfrmName = \"\";\nadditionalValidationRdc(this,gotoDeposits);\n",
            "callbackType": null
        }]
    }
}