{
    "AS_FlexContainer_b51267f0fe5b47cc9fd9159bc2a1b4d8": {
        "id": "AS_FlexContainer_b51267f0fe5b47cc9fd9159bc2a1b4d8",
        "type": "ACTION_SEQUENCE",
        "name": "AS_FlexContainer_OnClickSelectAccountPrePaidScreen",
        "params": [{
            "datatype": "collection",
            "name": "eventobject"
        }],
        "language": "js",
        "actions": [{
            "id": "ADD_SNIPPET_ide_onClick_f23eaf5e57364ebbb04d80bd77f0ed67",
            "type": "ADD_SNIPPET",
            "codeSnippet": "frmAccountDetailsScreen.lblHead.text = \"Accounts\";\ngblTModule = \"BillPrePayNewBillKA\";\nkony.boj.selectedBillerType = \"PrePaid\";\ngotoAccountDetailsScreen(1);",
            "callbackType": null
        }]
    }
}