{
    "AS_FlexContainer_abbc1db71b7a4eeaa0d9a171480cce65": {
        "id": "AS_FlexContainer_abbc1db71b7a4eeaa0d9a171480cce65",
        "type": "ACTION_SEQUENCE",
        "params": [{
            "datatype": "collection",
            "name": "eventobject"
        }],
        "contextObj": {
            "name": "frmEnrolluserLandingKA",
            "type": "forms",
            "platform": "",
            "KUID": "de724966138b4e7c9bfdd35033a0bdb3"
        },
        "language": "js",
        "actions": [{
            "id": "ADD_SNIPPET__fab07b22620143cd81446d06e0b78483",
            "type": "ADD_SNIPPET",
            "codeSnippet": "if(gblFromModule == \"RegisterUser\"){\n\tfrmRegisterUser.show();\n}\nelse if(gblFromModule == \"ChangeUsername\"){\n  frmSettingsKA.show();\n}\nelse if(gblFromModule == \"ChangePassword\"){\n  frmSettingsKA.show();\n}\nelse{\n  frmEnrolluserLandingKA.lblFlag.text=\"F\";\n  if(gblReqField == \"Username\"){\n    frmLoginKA.show();\n  }\n  else{\n    frmRegisterUser.show();\n  }\n}\nfrmNewUserOnboardVerificationKA.destroy();\n//frmEnrolluserLandingKA.destroy();",
            "parentId": null,
            "callbackType": null
        }]
    }
}