{
    "AS_FlexContainer_bdc64190786d4f28834f572ea346958d": {
        "id": "AS_FlexContainer_bdc64190786d4f28834f572ea346958d",
        "type": "ACTION_SEQUENCE",
        "name": "AS_FlexContainer_DownloadSelect",
        "params": [{
            "datatype": "collection",
            "name": "eventobject"
        }],
        "language": "js",
        "actions": [{
            "id": "ADD_SNIPPET_ide_onClick_g987577c11ec419ebd95d7e03416c8a1",
            "type": "ADD_SNIPPET",
            "codeSnippet": "var temp = [{\"lblValue\":\"PDF\",\"lblTitle\":\"Type\"},\n           {\"lblValue\":\"XLS\",\"lblTitle\":\"Type\"}];\nfrmCardStatementKA.segCardsOptions.setData(temp);\nanimate_cardsFilterOption();"
        }]
    }
}