{
    "AS_FlexContainer_ebc4485fae454f7984b20fc84c1d4ab4": {
        "id": "AS_FlexContainer_ebc4485fae454f7984b20fc84c1d4ab4",
        "type": "ACTION_SEQUENCE",
        "params": [{
            "datatype": "collection",
            "name": "eventobject"
        }],
        "language": "js",
        "actions": [{
            "id": "ADD_SNIPPET_ide_onClick_edb340ad0dc44267bbca1e5a71c41914",
            "type": "ADD_SNIPPET",
            "codeSnippet": "if(gblPayAppFlow && !isEmpty(gblLaunchModeOBJ.appFlow)){\n  openBOJPAYAppLink();\n}else if(gblforceflag){\n  kony.sdk.mvvm.LogoutAction();\n}else{\nif(gblFromModule == \"RegisterUser\"){\n\tfrmRegisterUser.show();\n}\nelse if(gblFromModule == \"ChangeUsername\"){\n  frmSettingsKA.show();\n}\nelse if(gblFromModule == \"ChangePassword\"){\n  frmSettingsKA.show();\n}\nelse{\n  frmEnrolluserLandingKA.lblFlag.text=\"F\";\n  if(gblReqField == \"Username\"){\n    frmLoginKA.show();\n  }\n  else{\n    frmRegisterUser.show();\n  }\n}\nfrmNewUserOnboardVerificationKA.destroy();\n//frmEnrolluserLandingKA.destroy();\n}",
            "callbackType": null
        }]
    }
}