{
    "AS_FlexContainer_a327525814774212aceb72b4edcb6cc1": {
        "id": "AS_FlexContainer_a327525814774212aceb72b4edcb6cc1",
        "type": "ACTION_SEQUENCE",
        "params": [{
            "datatype": "collection",
            "name": "eventobject"
        }],
        "language": "js",
        "actions": [{
            "id": "ADD_SNIPPET_ide_onClick_af01f3085b214a67ae8b2f5bb8138536",
            "type": "ADD_SNIPPET",
            "codeSnippet": "gblFromModule = \"RegisterUser\";\nfrmRegisterUser.show();\nfrmLoginKA.passwordTextField.text=\"\";",
            "callbackType": null,
            "disabled": false
        }]
    }
}