{
    "AS_Form_d3d82019a5f2448aac6d0cfe8676ec6c": {
        "id": "AS_Form_d3d82019a5f2448aac6d0cfe8676ec6c",
        "type": "ACTION_SEQUENCE",
        "params": [{
            "datatype": "collection",
            "name": "eventobject"
        }],
        "contextObj": {
            "name": "frmJoMoPayQRConfirm",
            "type": "forms",
            "platform": "",
            "KUID": "ce92d593b2af47c89097ae0c24ec8f40"
        },
        "language": "js",
        "actions": [{
            "id": "ADD_SNIPPET__bfc03b7ae94c48b8ba6ad7a041f53d1d",
            "type": "ADD_SNIPPET",
            "codeSnippet": "kony.print(\"DEVICE BACK IS DISABLED\");",
            "parentId": null,
            "callbackType": null
        }]
    }
}