{
    "AS_Form_5f3bd8dff9e240aa9b0b45cd8f2b28cd": {
        "id": "AS_Form_5f3bd8dff9e240aa9b0b45cd8f2b28cd",
        "type": "ACTION_SEQUENCE",
        "params": [{
            "datatype": "collection",
            "name": "eventobject"
        }],
        "contextObj": {
            "type": "forms",
            "platform": null,
            "KUID": "f644133a06fe4ebb8fed2a0bbbe06db2"
        },
        "language": "js",
        "actions": [{
            "id": "ADD_SNIPPET_ide_onDeviceBack_0a8ca19ff9724e95ad3867a90a9f9eab",
            "type": "ADD_SNIPPET",
            "codeSnippet": "kony.print(\"Device Back\");",
            "callbackType": null
        }]
    }
}