{
    "AS_Form_f79a33c994f446bf8b7b6fb5716f7c36": {
        "id": "AS_Form_f79a33c994f446bf8b7b6fb5716f7c36",
        "type": "ACTION_SEQUENCE",
        "name": "AS_frmShowAllBeneficiaryAnim",
        "params": [{
            "datatype": "collection",
            "name": "eventobject"
        }],
        "contextObj": {
            "name": "frmShowAllBeneficiary",
            "type": "forms",
            "platform": "",
            "KUID": "da135140bfd946caa325afeee19e7e04"
        },
        "language": "js",
        "actions": [{
            "id": "ADD_SNIPPET__hd79bd5028b2424c8cd6018aba68752e",
            "type": "ADD_SNIPPET",
            "codeSnippet": "kony.boj.setAnimationToBenfSegment();",
            "parentId": null,
            "callbackType": null,
            "disabled": true
        }]
    }
}