{
    "AS_Form_b347419299ca4fb5a8ed6822518c74df": {
        "id": "AS_Form_b347419299ca4fb5a8ed6822518c74df",
        "type": "ACTION_SEQUENCE",
        "name": "AS_Form_POstShowfrmJOMOPayAddBiller",
        "params": [{
            "datatype": "collection",
            "name": "eventobject"
        }],
        "contextObj": {
            "name": "frmJOMOPayAddBiller",
            "type": "forms",
            "platform": "",
            "KUID": "df7e7935cb6a4e5c8a9dad110f300c3c"
        },
        "language": "js",
        "actions": [{
            "id": "ADD_SNIPPET__f9a10114bc30416290838ca034be61fd",
            "type": "ADD_SNIPPET",
            "codeSnippet": "animate_NEWCARDSOPTIOS(\"UP\", \"lblNickNameTitle\",frmJOMOPayAddBiller.txtNickName);\nanimate_NEWCARDSOPTIOS(\"UP\", \"lblNameTitle\", frmJOMOPayAddBiller.txtName);\nanimate_NEWCARDSOPTIOS(\"UP\", \"lblBeneficiaryMobileTitle\", frmJOMOPayAddBiller.txtBeneficiaryMobile);\nanimate_NEWCARDSOPTIOS(\"UP\", \"lblBeneficiaryAlias\", frmJOMOPayAddBiller.txtBeneficiaryAliass);",
            "parentId": null,
            "callbackType": null
        }]
    }
}