{
    "AS_Image_hcdc25c22d2e44e19ff601236efd081f": {
        "id": "AS_Image_hcdc25c22d2e44e19ff601236efd081f",
        "type": "ACTION_SEQUENCE",
        "params": [{
            "datatype": "collection",
            "name": "eventobject"
        }, {
            "datatype": "string",
            "name": "x"
        }, {
            "datatype": "string",
            "name": "y"
        }],
        "contextObj": {
            "type": "forms",
            "platform": "",
            "KUID": "b05c2215220d4fcea5167c0ae154dcd7"
        },
        "language": "js",
        "actions": [{
            "id": "ADD_SNIPPET__i7cbd2d8b4254bb39b47ab3784541e8c",
            "type": "ADD_SNIPPET",
            "codeSnippet": "if(kony.os.deviceInfo()[\"name\"] == \"iPhone\"){\n  BarcodeScannerIPhone();\n}\nelse{\nBarcodeScanner();\n}",
            "parentId": null,
            "callbackType": null
        }]
    }
}