{
    "AS_Label_b382d52720d9477f8d924d12180bf0dc": {
        "id": "AS_Label_b382d52720d9477f8d924d12180bf0dc",
        "type": "ACTION_SEQUENCE",
        "params": [{
            "datatype": "collection",
            "name": "eventobject"
        }, {
            "datatype": "string",
            "name": "x"
        }, {
            "datatype": "string",
            "name": "y"
        }],
        "contextObj": {
            "name": "frmAccountDetailKA",
            "type": "forms",
            "platform": "",
            "KUID": "5ed703cad63c441882fc4a36f5ea0c28"
        },
        "language": "js",
        "actions": [{
            "id": "ADD_SNIPPET__b6d98c3969724a14a311da30321899e2",
            "type": "ADD_SNIPPET",
            "codeSnippet": "accountInfo(\"loans\");",
            "parentId": null,
            "callbackType": null
        }]
    }
}