{
    "AS_ListBox_c9ac3b427c2b41549f2c6e606a273779": {
        "id": "AS_ListBox_c9ac3b427c2b41549f2c6e606a273779",
        "type": "ACTION_SEQUENCE",
        "params": [{
            "datatype": "collection",
            "name": "eventobject"
        }],
        "language": "js",
        "actions": [{
            "id": "ADD_SNIPPET_ide_onSelection_fe65fe9c010546469d00e8b67e1a6416",
            "type": "ADD_SNIPPET",
            "codeSnippet": "frmAddExternalAccountKA.lblCountryNameKA.text = frmAddExternalAccountKA.ListCountryKA.selectedKeyValue[1];\nkony.boj.addBeneNextStatus();",
            "callbackType": null
        }]
    }
}