{
    "AS_Label_ia0457f3651b4da08301ac76e847d8d3": {
        "id": "AS_Label_ia0457f3651b4da08301ac76e847d8d3",
        "type": "ACTION_SEQUENCE",
        "params": [{
            "datatype": "collection",
            "name": "eventobject"
        }, {
            "datatype": "string",
            "name": "x"
        }, {
            "datatype": "string",
            "name": "y"
        }],
        "contextObj": {
            "name": "frmLoginKA",
            "type": "forms",
            "platform": "",
            "KUID": "7b1aa8fceb6b4070833e9eab879b0e5e"
        },
        "language": "js",
        "actions": [{
            "id": "ADD_SNIPPET__f91d08f06eb6468893b98bcf42ab6c7d",
            "type": "ADD_SNIPPET",
            "codeSnippet": "startOnboardingActivity();\n// alert(returnedValue);",
            "parentId": null,
            "callbackType": null
        }]
    }
}