{
    "AS_Label_j8ccc68d6f14401599a0be40280f411a": {
        "id": "AS_Label_j8ccc68d6f14401599a0be40280f411a",
        "type": "ACTION_SEQUENCE",
        "name": "AS_Label_NavigatetoAccountDashBoardDetails",
        "params": [{
            "datatype": "collection",
            "name": "eventobject"
        }, {
            "datatype": "string",
            "name": "x"
        }, {
            "datatype": "string",
            "name": "y"
        }],
        "contextObj": {
            "name": "frmAuthorizationAlternatives",
            "type": "forms",
            "platform": "",
            "KUID": "d410b4cb8325465eb5a9cb0f8e472aec"
        },
        "language": "js",
        "actions": [{
            "id": "ADD_SNIPPET__a99dc377b30140a4b0d6443e01a1e7a9",
            "type": "ADD_SNIPPET",
            "codeSnippet": "//accountDashboardDataCall();",
            "parentId": null,
            "callbackType": null
        }]
    }
}