{
    "AS_Label_d4de92a360224d50ac617e7f277db65a": {
        "id": "AS_Label_d4de92a360224d50ac617e7f277db65a",
        "type": "ACTION_SEQUENCE",
        "params": [{
            "datatype": "collection",
            "name": "eventobject"
        }, {
            "datatype": "string",
            "name": "x"
        }, {
            "datatype": "string",
            "name": "y"
        }],
        "contextObj": {
            "name": "frmUserSettingsSiri",
            "type": "forms",
            "platform": "",
            "KUID": "f6a73333c5b04d9f97a80b02ff57e6ae"
        },
        "language": "js",
        "actions": [{
            "id": "ADD_SNIPPET__c282ca449a25450783e60573450c0d64",
            "type": "ADD_SNIPPET",
            "codeSnippet": "if(isSiriEnabled === \"Y\"){\n  if(!isEmpty(gblDefaultAccTransfer)){\n  frmUserSettingsSIRILIMIT.show();\n  }else{\n    customAlertPopup(geti18Value(\"i18n.maps.Info\"), geti18nkey(\"i18n.Siri.addaccount\"),popupCommonAlertDimiss,\"\");\n  }\n}else{\n  customAlertPopup(geti18Value(\"i18n.maps.Info\"), geti18nkey(\"i18n.SIRI.trasnferLimitenable\"),popupCommonAlertDimiss,\"\");\n}",
            "parentId": null,
            "callbackType": null
        }]
    }
}