{
    "AS_TextField_adb3fcf860f4475fa9c9a8bf1ed73d68": {
        "id": "AS_TextField_adb3fcf860f4475fa9c9a8bf1ed73d68",
        "type": "ACTION_SEQUENCE",
        "name": "AS_onTextChangeDebitCardNum",
        "params": [{
            "datatype": "collection",
            "name": "eventobject"
        }, {
            "datatype": "string",
            "name": "changedtext"
        }],
        "contextObj": {
            "name": "frmRegisterUser",
            "type": "forms",
            "platform": "",
            "KUID": "cd7432ec5087404590338186c94e35d2"
        },
        "language": "js",
        "actions": [{
            "id": "ADD_SNIPPET__ec49b45a482749c8b2685270e19f9419",
            "type": "ADD_SNIPPET",
            "codeSnippet": "onTextChangeScanCard();\n//onTextChangeCardNum();\nif(frmRegisterUser.txtCardNum.text.length == 16)\n{\n  frmRegisterUser.flxLine.skin = \"sknFlxGreenLine\";\n  if(kony.store.getItem(\"langPrefObj\") === \"en\"){\n  \tfrmRegisterUser.lblCircle1.skin = \"sknPINEmptyDark\";\n    frmRegisterUser.lblCircle1.text = \"\";\n  }else{\n  \tfrmRegisterUser.lblCircle4.skin = \"sknPINEmptyDark\";\n    frmRegisterUser.lblCircle4.text = \"\";\n  }\n  frmRegisterUser.txtPIN.setFocus(true);\n}else{\n\tfrmRegisterUser.lblCircle1.skin = \"sknPINEmpty\";\n    frmRegisterUser.lblCircle1.text = \"s\";\n\t\n}\n  isNextEnabled();\nisClearButtonVisible(frmRegisterUser.txtCardNum,frmRegisterUser.lblClose);\nfrmRegisterUser.lblInvalidCredentialsKA.setVisibility(false);\nif (frmRegisterUser.txtCardNum.text !== null && frmRegisterUser.txtPIN.text !== null && frmRegisterUser.txtMobileNumber.text !== null) {\n var cardNo = getCardNum(frmRegisterUser.txtCardNum.text);\n  if (cardNo.length == 16 && frmRegisterUser.txtPIN.text.length == 4) {\n  frmRegisterUser.btnMobileNumberConfirm.skin = \"slButtonWhite\";\n }\n}else{\n  frmRegisterUser.btnMobileNumberConfirm.skin = \"slButtonWhite\";\n}\n",
            "parentId": null,
            "callbackType": null
        }]
    }
}