{
    "AS_Button_e4cdf6e3abac4b41a3cd06c81905d337": {
        "id": "AS_Button_e4cdf6e3abac4b41a3cd06c81905d337",
        "type": "ACTION_SEQUENCE",
        "name": "AS_onRegisterDeviceNoClick",
        "params": [{
            "datatype": "collection",
            "name": "eventobject"
        }],
        "contextObj": {
            "name": "frmDeviceRegistrationOptionsKA",
            "type": "forms",
            "platform": "",
            "KUID": "24f3bbc2ed074c75a9b6604d9e48a90c"
        },
        "language": "js",
        "actions": [{
            "id": "ADD_SNIPPET__dc955c379dea4c7ba0165e1aa599f0f9",
            "type": "ADD_SNIPPET",
            "codeSnippet": "kony.sdk.mvvm.KonyApplicationContext.dismissLoadingScreen();\nfrmAccountsLandingKA.flxAccountsMain.setVisibility(true);\nfrmAccountsLandingKA.flxDeals.setVisibility(false);\nfrmAccountsLandingKA.flxLoans.setVisibility(false);\nfrmAccountsLandingKA.flxAccountsMain.zIndex = 1;\nfrmAccountsLandingKA.flxDeals.zIndex = 1;\nfrmAccountsLandingKA.flxLoans.zIndex = 1;\nfrmAccountsLandingKA.forceLayout();\ngblNoThanksClickSaveDatatoQB = true;\naccountDashboardDataCall();",
            "parentId": null,
            "callbackType": null
        }]
    }
}