{
    "AS_TextField_i2e0d561af984cdcb297fe8871a1edc3": {
        "id": "AS_TextField_i2e0d561af984cdcb297fe8871a1edc3",
        "type": "ACTION_SEQUENCE",
        "name": "AS_onDoneAddr1AddBene",
        "params": [{
            "datatype": "collection",
            "name": "eventobject"
        }, {
            "datatype": "string",
            "name": "changedtext"
        }],
        "language": "js",
        "actions": [{
            "id": "ADD_SNIPPET_ide_onDone_e411771c1ed6425fb0fa68527238974e",
            "type": "ADD_SNIPPET",
            "codeSnippet": "kony.boj.addBeneficiaryAnimation(\"lblAddress2\");",
            "callbackType": null
        }]
    }
}