{
    "AS_FlexContainer_d050f4dd5a7f436b9381f3b0eaeeaed4": {
        "id": "AS_FlexContainer_d050f4dd5a7f436b9381f3b0eaeeaed4",
        "type": "ACTION_SEQUENCE",
        "name": "AS_OnclickofNumberofCheckBook",
        "params": [{
            "datatype": "collection",
            "name": "eventobject"
        }],
        "language": "js",
        "actions": [{
            "id": "ADD_SNIPPET_ide_onClick_d08f6e1896f548d880b741e482933a8f",
            "type": "ADD_SNIPPET",
            "codeSnippet": "gblsubacclist=\"Book\";\nfrmAccountType.show();",
            "callbackType": null
        }]
    }
}