{
    "AS_TextField_d3fefef19b6644b9b6856a4da211fa0e": {
        "id": "AS_TextField_d3fefef19b6644b9b6856a4da211fa0e",
        "type": "ACTION_SEQUENCE",
        "name": "AS_onDoneCity",
        "params": [{
            "datatype": "collection",
            "name": "eventobject"
        }, {
            "datatype": "string",
            "name": "changedtext"
        }],
        "contextObj": {
            "name": "frmAddExternalAccountKA",
            "type": "forms",
            "platform": "",
            "KUID": "4943cca5d62d4f0ca6f2e9ab47274db5"
        },
        "language": "js",
        "actions": [{
            "id": "ADD_SNIPPET__hb97a894349e4f9fb3f31a85311c1803",
            "type": "ADD_SNIPPET",
            "codeSnippet": "kony.boj.addBeneficiaryAnimation(\"lblAccountNumber\");",
            "parentId": null,
            "callbackType": null
        }]
    }
}