{
    "AS_ListBox_c08d1b0b2a3949b89fdee4437c217cbe": {
        "id": "AS_ListBox_c08d1b0b2a3949b89fdee4437c217cbe",
        "type": "ACTION_SEQUENCE",
        "name": "AS_onCitySelect",
        "params": [{
            "datatype": "collection",
            "name": "eventobject"
        }],
        "contextObj": {
            "name": "frmAddExternalAccountKA",
            "type": "forms",
            "platform": "",
            "KUID": "4943cca5d62d4f0ca6f2e9ab47274db5"
        },
        "language": "js",
        "actions": [{
            "id": "ADD_SNIPPET__f0524128f15d45839f8049a02a35b339",
            "type": "ADD_SNIPPET",
            "codeSnippet": "frmAddExternalAccountKA.tbxCity.text = frmAddExternalAccountKA.ListCityKA.selectedKeyValue[1];\nkony.boj.addBeneNextStatus();",
            "parentId": null,
            "callbackType": null
        }]
    }
}