{
    "AS_TextField_bc4ded162d684558b1f082b71c78080c": {
        "id": "AS_TextField_bc4ded162d684558b1f082b71c78080c",
        "type": "ACTION_SEQUENCE",
        "name": "AS_onTextChangeToSI",
        "params": [{
            "datatype": "collection",
            "name": "eventobject"
        }, {
            "datatype": "string",
            "name": "changedtext"
        }],
        "contextObj": {
            "name": "frmFilterSI",
            "type": "forms",
            "platform": null,
            "KUID": "ic4b1b46f1f740f3aa18d23b3648b743"
        },
        "language": "js",
        "actions": [{
            "id": "ADD_SNIPPET_ide_onTextChange_c9b7ae09ec7f4ad88d68eb3e03671342",
            "type": "ADD_SNIPPET",
            "codeSnippet": "if(!new RegExp(\"^[0-9.]+$\").test(frmFilterSI.txtAmountRangeTo.text))\n  frmFilterSI.txtAmountRangeTo.text = frmFilterSI.txtAmountRangeTo.text.substring(0, frmFilterSI.txtAmountRangeTo.text.length - 1);",
            "callbackType": null
        }]
    }
}