{
    "AS_TextField_eb6b320afa1544f49739c5f08ca4b586": {
        "id": "AS_TextField_eb6b320afa1544f49739c5f08ca4b586",
        "type": "ACTION_SEQUENCE",
        "name": "AS_onEndEditingBillerNumberAddBilleriOS",
        "params": [{
            "datatype": "collection",
            "name": "eventobject"
        }, {
            "datatype": "string",
            "name": "changedtext"
        }],
        "contextObj": {
            "name": "frmAddNewPayeeKA",
            "type": "forms",
            "platform": "",
            "KUID": "22b994296d374ff48427012b2b05feb7"
        },
        "language": "js",
        "actions": [{
            "id": "ADD_SNIPPET__adef559da6bd488ca0734c6450053e91",
            "type": "ADD_SNIPPET",
            "codeSnippet": "animateLabel(\"DOWN\", \"lblBillerNumber\",frmAddNewPayeeKA.tbxBillerNumber.text);",
            "parentId": null,
            "callbackType": null
        }]
    }
}