{
    "AS_TextField_g690699ce1fd4554894f3c7a03c4ae13": {
        "id": "AS_TextField_g690699ce1fd4554894f3c7a03c4ae13",
        "type": "ACTION_SEQUENCE",
        "name": "AS_onTextChangeAddr1AddBene",
        "params": [{
            "datatype": "collection",
            "name": "eventobject"
        }, {
            "datatype": "string",
            "name": "changedtext"
        }],
        "language": "js",
        "actions": [{
            "id": "ADD_SNIPPET_ide_onTextChange_jf0cc54751c04dde8aa848b599bcd29f",
            "type": "ADD_SNIPPET",
            "codeSnippet": "if(frmAddExternalAccountKA.tbxAddress1.text !== \"\"){\n  frmAddExternalAccountKA.flxUnderlineAddress1.skin = \"sknFlxGreenLine\";\n}else{\n  frmAddExternalAccountKA.flxUnderlineAddress1.skin = \"sknFlxOrangeLine\";\n}\nkony.boj.addBeneNextStatus();\nif(true){\n  //frmEnrolluserLandingKA.lblNext.skin = \"sknLblNextEnabled\";\n}\nelse{\n // frmEnrolluserLandingKA.lblNext.skin = \"sknLblNextDisabled\";\n}\n",
            "callbackType": null
        }]
    }
}