{
    "AS_TextField_fbc1b9c4744d4af5a85c67acc1147aa1": {
        "id": "AS_TextField_fbc1b9c4744d4af5a85c67acc1147aa1",
        "type": "ACTION_SEQUENCE",
        "name": "AS_onDoneFullNameAddBene",
        "params": [{
            "datatype": "collection",
            "name": "eventobject"
        }, {
            "datatype": "string",
            "name": "changedtext"
        }],
        "language": "js",
        "actions": [{
            "id": "ADD_SNIPPET_ide_onDone_ad76e2d6ea9842feb67e8d3f0182376b",
            "type": "ADD_SNIPPET",
            "codeSnippet": "kony.boj.addBeneficiaryAnimation(\"lblBenficiryNickName\");",
            "callbackType": null
        }]
    }
}