{
    "AS_TextField_d7783b0248124d92b2c443f3ce53e0e4": {
        "id": "AS_TextField_d7783b0248124d92b2c443f3ce53e0e4",
        "type": "ACTION_SEQUENCE",
        "name": "AS_onTouchEndAddressBankAddBene",
        "params": [{
            "datatype": "collection",
            "name": "eventobject"
        }, {
            "datatype": "string",
            "name": "x"
        }, {
            "datatype": "string",
            "name": "y"
        }],
        "contextObj": {
            "name": "frmAddExternalAccountKA",
            "type": "forms",
            "platform": "",
            "KUID": "4943cca5d62d4f0ca6f2e9ab47274db5"
        },
        "language": "js",
        "actions": [{
            "id": "ADD_SNIPPET__f6204ab209ef411a8e7771ab29490b2e",
            "type": "ADD_SNIPPET",
            "codeSnippet": "kony.boj.addBeneficiaryAnimation(\"lblAddressBank\");\nfrmAddExternalAccountKA.flxUnderlineAddressBank.skin = \"sknFlxBlueLine\";",
            "parentId": null,
            "callbackType": null
        }]
    }
}