{
    "AS_TextField_b6c17987905c452d9df69f1c9d1968a0": {
        "id": "AS_TextField_b6c17987905c452d9df69f1c9d1968a0",
        "type": "ACTION_SEQUENCE",
        "name": "AS_onDoneBankDetails",
        "params": [{
            "datatype": "collection",
            "name": "eventobject"
        }, {
            "datatype": "string",
            "name": "changedtext"
        }],
        "language": "js",
        "actions": [{
            "id": "ADD_SNIPPET_ide_onDone_f1746331ee484a6b9006663b582fbe3d",
            "type": "ADD_SNIPPET",
            "codeSnippet": "kony.boj.addBeneficiaryAnimation(\"lblEmail\");",
            "callbackType": null
        }]
    }
}