{
    "AS_TextField_a36f6668de914f8386432a44c6febb20": {
        "id": "AS_TextField_a36f6668de914f8386432a44c6febb20",
        "type": "ACTION_SEQUENCE",
        "name": "AS_onEndEditingSwiftiOS",
        "params": [{
            "datatype": "collection",
            "name": "eventobject"
        }, {
            "datatype": "string",
            "name": "changedtext"
        }],
        "contextObj": {
            "name": "frmAddExternalAccountKA",
            "type": "forms",
            "platform": "",
            "KUID": "4943cca5d62d4f0ca6f2e9ab47274db5"
        },
        "language": "js",
        "actions": [{
            "id": "ADD_SNIPPET_ide_onEndEditing_bd49a6885e9841a38bd85f01ca2775df",
            "type": "ADD_SNIPPET",
            "codeSnippet": "if(frmAddExternalAccountKA.txtSwiftCodeKA.text !== \"\"){\n  frmAddExternalAccountKA.flxUnderlineSwiftCode.skin = \"sknFlxGreenLine\";\n}else{\n  frmAddExternalAccountKA.flxUnderlineSwiftCode.skin = \"sknFlxOrangeLine\";\n}\n\nanimateLabel(\"DOWN\", \"lblSwiftCode\", frmAddExternalAccountKA.txtSwiftCodeKA.text);",
            "callbackType": null
        }]
    }
}