{
    "AS_FlexContainer_aecd9a99edb04b54916dd726b5d7e661": {
        "id": "AS_FlexContainer_aecd9a99edb04b54916dd726b5d7e661",
        "type": "ACTION_SEQUENCE",
        "name": "AS_onClickNextCard",
        "params": [{
            "datatype": "collection",
            "name": "eventobject"
        }],
        "contextObj": {
            "name": "frmRegisterUser",
            "type": "forms",
            "platform": "",
            "KUID": "cd7432ec5087404590338186c94e35d2"
        },
        "language": "js",
        "actions": [{
            "id": "ADD_SNIPPET__j70e103a0ab1474d9bcd746a00d9d711",
            "type": "ADD_SNIPPET",
            "codeSnippet": "kony.sdk.mvvm.KonyApplicationContext.showLoadingScreen(\"\");\n ShowLoadingScreen();\nnextFromCardDetails();",
            "parentId": null,
            "callbackType": null
        }]
    }
}