{
    "AS_Button_j32e139de27741d99e33de932d6d5b90": {
        "id": "AS_Button_j32e139de27741d99e33de932d6d5b90",
        "type": "ACTION_SEQUENCE",
        "name": "AS_OnClickIPSPaymentHistory",
        "params": [{
            "datatype": "collection",
            "name": "eventobject"
        }],
        "language": "js",
        "actions": [{
            "id": "ADD_SNIPPET_ide_onClick_d8b1cbf1cb344cba826e35462ab4e299",
            "type": "ADD_SNIPPET",
            "codeSnippet": "// frmEPS.flxMain.setVisibility(true);\n// frmEPS.flxConfirmEPS.setVisibility(false);\n\n// frmEPS.show();\nIPSPaymentHistory=[];\nIPSHistorySeg = [];\nfrmIPSRequests.flxNote.setVisibility(false);\nfrmIPSRequests.segIPSHistory.setData([]);\nfrmIPSRequests.flxReturnPayment.setVisibility(false);\nfrmIPSRequests.flxRequestToPay.setVisibility(false);\nfrmIPSRequests.flxPaymentHistory.setVisibility(true);\nfrmIPSRequests.skin = \"CopyslFormCommon0aaa3928efb3d48\";\nfrmIPSRequests.flxConfirmEPS.setVisibility(false);\ngblTModule = \"CLIQHistory\";\nLoadIPSRequests();\n//frmIPSRequests.show();",
            "callbackType": null
        }]
    }
}