{
    "AS_Button_c88a8f67016f425db797fe62a5fd5500": {
        "id": "AS_Button_c88a8f67016f425db797fe62a5fd5500",
        "type": "ACTION_SEQUENCE",
        "name": "AS_onClickPrePaidAddPayee",
        "params": [{
            "datatype": "collection",
            "name": "eventobject"
        }],
        "contextObj": {
            "name": "frmAddNewPayeeKA",
            "type": "forms",
            "platform": "",
            "KUID": "22b994296d374ff48427012b2b05feb7"
        },
        "language": "js",
        "actions": [{
            "id": "ADD_SNIPPET__f3d6673ab89346bfb619eed10f0623d1",
            "type": "ADD_SNIPPET",
            "codeSnippet": "  frmAddNewPayeeKA.btnPostPaid.skin = \"slButtonWhiteTabDisabled\";\n  frmAddNewPayeeKA.btnPrePaid.skin = \"slButtonWhiteTab\";\n  frmAddNewPayeeKA.lblNext.skin = \"sknLblNextDisabled\";\n  kony.boj.selectedBillerType = \"PrePaid\";\n  // kony.boj.restoreBillerTabDetails();\n  // kony.boj.restoreTextboxAddBiller();\nfrmAddNewPrePayeeKA.show();\nfrmAddNewPayeeKA.destroy();",
            "parentId": null,
            "callbackType": null
        }]
    }
}