{
    "AS_FlexContainer_hd92cc663fcd4501be12b764ee78b818": {
        "id": "AS_FlexContainer_hd92cc663fcd4501be12b764ee78b818",
        "type": "ACTION_SEQUENCE",
        "name": "AS_onBackPayeeDetails",
        "params": [{
            "datatype": "collection",
            "name": "eventobject"
        }],
        "language": "js",
        "actions": [{
            "id": "ADD_SNIPPET_ide_onClick_ea0b6a938eae47a38216baa4c652cab0",
            "type": "ADD_SNIPPET",
            "codeSnippet": "// if(loadBillerDetails){\n  if (kony.sdk.isNetworkAvailable()) {\n    var INSTANCE = kony.sdk.mvvm.KonyApplicationContext.getAppInstance();\n    var controller = INSTANCE.getFormController(\"frmManagePayeeKA\");\n    var navObject = new kony.sdk.mvvm.NavigationObject();\n    navObject.setRequestOptions(\"managepayeesegment\", {\n      \"headers\": {},\n      \"queryParams\": {\"custId\": custid,\n                      \"P_BENE_TYPE\": \"PRE\"\n                     }\n    });\n    controller.loadDataAndShowForm(navObject);\n  } else {\n    customAlertPopup(\"\", kony.i18n.getLocalizedString(\"i18n.errorMsg.deviceConnectionError\"), popupCommonAlertDimiss, \"\");\n  }\n// }else{\n//   frmManagePayeeKA.show();\n// }",
            "callbackType": null
        }]
    }
}