{
    "AS_Button_je0b2af62a0b4f71970966792713a3c5": {
        "id": "AS_Button_je0b2af62a0b4f71970966792713a3c5",
        "type": "ACTION_SEQUENCE",
        "name": "AS_onClickQuickPayManagePayee",
        "params": [{
            "datatype": "collection",
            "name": "eventobject"
        }],
        "contextObj": {
            "name": "frmManagePayeeKA",
            "type": "forms",
            "platform": "",
            "KUID": "794f84071c7c4320866cf3978ca5357e"
        },
        "language": "js",
        "actions": [{
            "id": "ADD_SNIPPET__fc189fe92df0406ebe0f21ce37a19d3f",
            "type": "ADD_SNIPPET",
            "codeSnippet": "frmNewBillKA.show();",
            "parentId": null,
            "callbackType": null
        }]
    }
}