{
    "AS_FlexContainer_j718fdec73e142dc9499396d118608f5": {
        "id": "AS_FlexContainer_j718fdec73e142dc9499396d118608f5",
        "type": "ACTION_SEQUENCE",
        "name": "AS_onClickBillerCategoryAddBiller",
        "params": [{
            "datatype": "collection",
            "name": "eventobject"
        }],
        "contextObj": {
            "name": "frmAddNewPayeeKA",
            "type": "forms",
            "platform": "",
            "KUID": "22b994296d374ff48427012b2b05feb7"
        },
        "language": "js",
        "actions": [{
            "id": "ADD_SNIPPET__fedf36ec325843e5aed14ffaa9509c13",
            "type": "ADD_SNIPPET",
            "codeSnippet": "kony.boj.callService(\"GetEfwBillerCategory\");",
            "parentId": null,
            "callbackType": null
        }]
    }
}