{
    "AS_TextField_j2dddbff421d4c5dbf262b5b5432d252": {
        "id": "AS_TextField_j2dddbff421d4c5dbf262b5b5432d252",
        "type": "ACTION_SEQUENCE",
        "name": "AS_onDoneDesc",
        "params": [{
            "datatype": "collection",
            "name": "eventobject"
        }, {
            "datatype": "string",
            "name": "changedtext"
        }],
        "contextObj": {
            "name": "frmNewTransferKA",
            "type": "forms",
            "platform": "",
            "KUID": "2ac343500306428da0ceef91a3b44d18"
        },
        "language": "js",
        "actions": [{
            "id": "ADD_SNIPPET__e885facf40ab483a891ff92dbfbd784d",
            "type": "ADD_SNIPPET",
            "codeSnippet": "animateLabel(\"DOWN\",\"lblDescription\",frmNewTransferKA.txtDesc.text);",
            "parentId": null,
            "callbackType": null
        }]
    }
}