{
    "AS_Form_e402f8727610492cb060966c945eaff8": {
        "id": "AS_Form_e402f8727610492cb060966c945eaff8",
        "type": "ACTION_SEQUENCE",
        "name": "AS_preShowConfirmBill",
        "params": [{
            "datatype": "collection",
            "name": "eventobject"
        }],
        "contextObj": {
            "name": "frmConfirmPayBill",
            "type": "forms",
            "platform": "",
            "KUID": "9244958e3f364c6b9e342b6d7ea74555"
        },
        "language": "js",
        "actions": [{
            "id": "ADD_SNIPPET__jbc5d0e3c03e4f1daa08fa25b2d772d5",
            "type": "ADD_SNIPPET",
            "codeSnippet": "// if(gblQuickFlow == \"pre\")\n//   nextfrmPrePaidQuickPay();\n// else\n//   nextfrmPostPaidQuickPay();",
            "parentId": null,
            "callbackType": null
        }]
    }
}