{
    "AS_Segment_cf1fc57c629d4fec88bd9f705813c59e": {
        "id": "AS_Segment_cf1fc57c629d4fec88bd9f705813c59e",
        "type": "ACTION_SEQUENCE",
        "params": [{
            "datatype": "collection",
            "name": "eventobject"
        }, {
            "datatype": "number",
            "name": "sectionNumber"
        }, {
            "datatype": "number",
            "name": "rowNumber"
        }],
        "contextObj": {
            "name": "frmDirectionsKA",
            "type": "forms",
            "platform": null,
            "KUID": "2a844aaae75b49948039c6e28c65dfcc"
        },
        "language": "js",
        "actions": [{
            "id": "NAVIGATE_TO_FORM__ide_onRowClick_7aa5b5487a124462a19010fcc5284709",
            "type": "NAVIGATE_TO_FORM",
            "formId": "frmLocatorBranchDetailsKA",
            "formKUID": "413f08375ca14d89a7755001885d1014",
            "mappings": {},
            "mappingsOrder": [],
            "parentId": "",
            "callbackType": null,
            "enableMappingEditor": true,
            "package": "",
            "navigationObj": "{\n    \"_meta_\": {\n        \"eventName\": \"\",\n        \"widgetId\": \"\"\n    }\n}",
            "isCustomInput": false
        }]
    }
}