{
    "AS_Segment_6246333d6f2b45ab98c2149c1526b216": {
        "id": "AS_Segment_6246333d6f2b45ab98c2149c1526b216",
        "type": "ACTION_SEQUENCE",
        "params": [{
            "datatype": "collection",
            "name": "eventobject"
        }, {
            "datatype": "number",
            "name": "sectionNumber"
        }, {
            "datatype": "number",
            "name": "rowNumber"
        }],
        "language": "js",
        "actions": [{
            "id": "ADD_SNIPPET_ide_onRowClick_df9ac0dbf8f04ea1bd291b06fe2a96b1",
            "type": "ADD_SNIPPET",
            "codeSnippet": "navigateToCheckReOrderDetails();",
            "callbackType": null
        }]
    }
}