{
    "AS_Segment_j2347ac6bc474c23afa5912e57144d31": {
        "id": "AS_Segment_j2347ac6bc474c23afa5912e57144d31",
        "type": "ACTION_SEQUENCE",
        "params": [{
            "datatype": "collection",
            "name": "eventobject"
        }, {
            "datatype": "number",
            "name": "sectionNumber"
        }, {
            "datatype": "number",
            "name": "rowNumber"
        }],
        "contextObj": {
            "name": "frmNewBillDetails",
            "type": "forms",
            "platform": null,
            "KUID": "c2132c3b91ec4677ab952b729de9fc0e"
        },
        "language": "js",
        "actions": [{
            "id": "ADD_SNIPPET_ide_onRowClick_f0db9858e7bf42bd94ce72889e93d25c",
            "type": "ADD_SNIPPET",
            "codeSnippet": "kony.print(\"Segment on click\");\nonClickPopUpSegmentQuickPay();",
            "callbackType": null
        }]
    }
}