{
    "AS_Segment_e9dbf2cd9cdb431c9a0aa3079cada7d5": {
        "id": "AS_Segment_e9dbf2cd9cdb431c9a0aa3079cada7d5",
        "type": "ACTION_SEQUENCE",
        "params": [{
            "datatype": "collection",
            "name": "eventobject"
        }, {
            "datatype": "number",
            "name": "sectionNumber"
        }, {
            "datatype": "number",
            "name": "rowNumber"
        }],
        "contextObj": {
            "type": "forms",
            "platform": "",
            "KUID": "he1d62b4711f4c5abdcb97f4fa0c8653"
        },
        "language": "js",
        "actions": [{
            "id": "ADD_SNIPPET__i713722e980b41f4a2febcf498007fc7",
            "type": "ADD_SNIPPET",
            "codeSnippet": "var vc = new kony.rb.frmContactListphnViewController();\n  vc.onContactsSelect();",
            "parentId": null,
            "callbackType": null
        }]
    }
}