{
    "AS_Switch_7dbb1f93ab2449d3aeea8e232c3e11d1": {
        "id": "AS_Switch_7dbb1f93ab2449d3aeea8e232c3e11d1",
        "type": "ACTION_SEQUENCE",
        "params": [{
            "datatype": "collection",
            "name": "eventobject"
        }],
        "language": "js",
        "actions": [{
            "id": "ADD_SNIPPET_ide_onSlide_8be6f9d619724b1f8a00e491f5e5cbe2",
            "type": "ADD_SNIPPET",
            "codeSnippet": "selectCheckNumbers();",
            "callbackType": null
        }]
    }
}