{
    "AS_Segment_b74d529298004272bb5ee301dcb70273": {
        "id": "AS_Segment_b74d529298004272bb5ee301dcb70273",
        "type": "ACTION_SEQUENCE",
        "name": "AS_Segment_loansOnRowClick",
        "params": [{
            "datatype": "collection",
            "name": "eventobject"
        }, {
            "datatype": "number",
            "name": "sectionNumber"
        }, {
            "datatype": "number",
            "name": "rowNumber"
        }],
        "contextObj": {
            "name": "frmAccountsLandingKA",
            "type": "forms",
            "platform": "",
            "KUID": "d62a2a0906c64d2281addc95893a6544"
        },
        "language": "js",
        "actions": [{
            "id": "ADD_SNIPPET__b1b7b08238104101b2bc1348955e8879",
            "type": "ADD_SNIPPET",
            "codeSnippet": "var rowIndex = frmAccountsLandingKA.segAccountsKALoans.selectedRowIndex[1];\nkony.print(\"Selected rowIndex::\"+rowIndex)\nvar context = { \"sectionIndex\" : 0,\n               \"rowIndex\" : rowIndex,\n               \"widgetInfo\" : { \"id\" : \"segAccountsKALoans\"}};\n\nonheaderDashboard(frmAccountsLandingKA.segAccountsKALoans.data, context);\n",
            "parentId": null
        }]
    }
}