{
    "AS_Switch_157de4c2be7f4aaeb3d267d698e3be6f": {
        "id": "AS_Switch_157de4c2be7f4aaeb3d267d698e3be6f",
        "type": "ACTION_SEQUENCE",
        "params": [{
            "datatype": "collection",
            "name": "eventobject"
        }],
        "language": "js",
        "actions": [{
            "id": "ADD_SNIPPET_ide_onSlide_63e6d7e172cb452d9c10fe276b36d54a",
            "type": "ADD_SNIPPET",
            "codeSnippet": "updateSecurityAletStatus(\"addressPhoneChanged\");",
            "callbackType": null
        }]
    }
}