{
    "AS_Segment_ce11afe13d114334b806d2f5f1443261": {
        "id": "AS_Segment_ce11afe13d114334b806d2f5f1443261",
        "type": "ACTION_SEQUENCE",
        "params": [{
            "datatype": "collection",
            "name": "eventobject"
        }, {
            "datatype": "number",
            "name": "sectionNumber"
        }, {
            "datatype": "number",
            "name": "rowNumber"
        }],
        "contextObj": {
            "type": "forms",
            "platform": "",
            "KUID": "a02dbf79071c44d8bbebef11952b6767"
        },
        "language": "js",
        "actions": [{
            "id": "ADD_SNIPPET__h865bbb823eb4143b9490a8b68559d65",
            "type": "ADD_SNIPPET",
            "codeSnippet": "kony.print(\"Deleted\");",
            "parentId": null,
            "callbackType": null
        }]
    }
}