{
    "AS_Segment_h96dcdc805314e09b9cee5851614017c": {
        "id": "AS_Segment_h96dcdc805314e09b9cee5851614017c",
        "type": "ACTION_SEQUENCE",
        "params": [{
            "datatype": "collection",
            "name": "eventobject"
        }, {
            "datatype": "number",
            "name": "sectionNumber"
        }, {
            "datatype": "number",
            "name": "rowNumber"
        }],
        "language": "js",
        "actions": [{
            "id": "ADD_SNIPPET_ide_onRowClick_e8f9ff0e42644acbb9247110b01aca52",
            "type": "ADD_SNIPPET",
            "codeSnippet": "kony.print(\"Perf Log: Details page form - start\");\n    var INSTANCE = kony.sdk.mvvm.KonyApplicationContext.getAppInstance();\n    var listController = INSTANCE.getFormController(\"frmAccountsLandingKA\");\n    listController.performAction(\"navigateToAccountsDetails\");",
            "callbackType": null,
            "disabled": true
        }, {
            "id": "INVOKE_FUNCTION___c142f9d5e3e24f278e03ec600bb2c2f6",
            "type": "INVOKE_FUNCTION",
            "sequenceKUID": "onrowclickDashboard",
            "display": "onrowclickDashboard",
            "inputparams": [{
                "name": "data",
                "value": " eventobject"
            }, {
                "name": "section",
                "value": " sectionNumber"
            }, {
                "name": "row",
                "value": " rowNumber"
            }],
            "parentId": null,
            "callbackType": null,
            "disabled": null,
            "source": "module"
        }]
    }
}