{
    "AS_Segment_5793a39472324d06b9268da2297769ca": {
        "id": "AS_Segment_5793a39472324d06b9268da2297769ca",
        "type": "ACTION_SEQUENCE",
        "params": [{
            "datatype": "collection",
            "name": "eventobject"
        }, {
            "datatype": "number",
            "name": "sectionNumber"
        }, {
            "datatype": "number",
            "name": "rowNumber"
        }],
        "contextObj": {
            "name": "frmAccountDetailKA",
            "type": "forms",
            "platform": "",
            "KUID": "5ed703cad63c441882fc4a36f5ea0c28"
        },
        "language": "js",
        "actions": [{
            "id": "ADD_SNIPPET__387bc0fb29d748b9b349008952591f75",
            "type": "ADD_SNIPPET",
            "codeSnippet": "navOptTransfer();",
            "parentId": null,
            "callbackType": null
        }]
    }
}