{
    "AS_TextField_i521b8e7d6914fb4996712235b5a91b1": {
        "id": "AS_TextField_i521b8e7d6914fb4996712235b5a91b1",
        "type": "ACTION_SEQUENCE",
        "name": "AS_TextField_OnDoneIBANBeneNameEPS",
        "params": [{
            "datatype": "collection",
            "name": "eventobject"
        }, {
            "datatype": "string",
            "name": "changedtext"
        }],
        "contextObj": {
            "name": "frmEPS",
            "type": "forms",
            "platform": "",
            "KUID": "c49bbb3175be499d86d933cee301b3c4"
        },
        "language": "js",
        "actions": [{
            "id": "ADD_SNIPPET__dfa96ab518d143fc892315abcab6d847",
            "type": "ADD_SNIPPET",
            "codeSnippet": "if(frmEPS.IBANBeneNameDiv.skin == \"sknFlxGreyLine\"){\nvalidateLblNext();\n}",
            "parentId": null,
            "callbackType": null
        }]
    }
}