{
    "AS_Calendar_j2a48395348848b0973109fc575b0980": {
        "id": "AS_Calendar_j2a48395348848b0973109fc575b0980",
        "type": "ACTION_SEQUENCE",
        "name": "AS_TextField_NationalIDRegistration_ExpiryDate_onSelection",
        "params": [{
            "datatype": "collection",
            "name": "eventobject"
        }, {
            "datatype": "boolean",
            "name": "isValidDateSelected"
        }],
        "contextObj": {
            "name": "frmRegisterUser",
            "type": "forms",
            "platform": "",
            "KUID": "cd7432ec5087404590338186c94e35d2"
        },
        "language": "js",
        "actions": [{
            "id": "ADD_SNIPPET__cac459ab11a44ec9b12ee072e51a3248",
            "type": "ADD_SNIPPET",
            "codeSnippet": "var field=frmRegisterUser.calIDExpiryDate;\nanimateLabel(\"UP\", \"lblIDExpiryDatelblIDExpiryDate\", frmRegisterUser.calIDExpiryDate.text);\nfrmRegisterUser.lblIDExpiryDate.text= field.dateComponents[2] +\"-\"+\n  (parseInt(field.dateComponents[1])<10?\"0\"+field.dateComponents[1]:field.dateComponents[1])+\"-\"+ (parseInt(field.dateComponents[0])<10?\"0\"+field.dateComponents[0]:field.dateComponents[0])\n\n// frmRegisterUser.lblIDExpiryDate.text = frmRegisterUser.calIDExpiryDate.dateComponents[2] + \"-\" + MonthExp + \"-\" + DayExp ;\n// frmRegisterUser.lblIDExpiryDatelblIDExpiryDate.setVisibility(false);\nfrmRegisterUser.lblIDExpiryDate.setVisibility(true);\nisNextEnabledNat();\nfrmRegisterUser.flxBorderIDExpiryDate.skin = \"skntextFieldDividerGreen\";",
            "parentId": null,
            "callbackType": null
        }]
    }
}