{
    "AS_TextField_b8d1a98a62de4383ac38e785ffa22c2d": {
        "id": "AS_TextField_b8d1a98a62de4383ac38e785ffa22c2d",
        "type": "ACTION_SEQUENCE",
        "params": [{
            "datatype": "collection",
            "name": "eventobject"
        }, {
            "datatype": "string",
            "name": "changedtext"
        }],
        "language": "js",
        "actions": [{
            "id": "ADD_SNIPPET_ide_onEndEditing_h4d3dc0c866a4698845a1a2f440a8def",
            "type": "ADD_SNIPPET",
            "codeSnippet": "animateLabel(\"DOWN\",\"lblAmount\", frmAddNewPrePayeeKA.tbxAmount.text);",
            "callbackType": null
        }]
    }
}