{
    "AS_TextField_96bc2e25ee7c47dda8a7977177bc562b": {
        "id": "AS_TextField_96bc2e25ee7c47dda8a7977177bc562b",
        "type": "ACTION_SEQUENCE",
        "params": [{
            "datatype": "collection",
            "name": "eventobject"
        }, {
            "datatype": "string",
            "name": "changedtext"
        }],
        "language": "js",
        "actions": [{
            "id": "ADD_SNIPPET__3c2d34e94d06496d95a611d063e569be",
            "type": "ADD_SNIPPET",
            "codeSnippet": "searchTextChange();\n//frmSearchKA[\"btnAccounts-All\"].skin = \"skntabSelected\";\n",
            "parentId": null,
            "callbackType": null
        }]
    }
}