{
    "AS_TextField_ac6724f3831947ca860fd19f31296c05": {
        "id": "AS_TextField_ac6724f3831947ca860fd19f31296c05",
        "type": "ACTION_SEQUENCE",
        "params": [{
            "datatype": "collection",
            "name": "eventobject"
        }, {
            "datatype": "string",
            "name": "changedtext"
        }],
        "contextObj": {
            "name": "frmEPS",
            "type": "forms",
            "platform": "",
            "KUID": "c49bbb3175be499d86d933cee301b3c4"
        },
        "language": "js",
        "actions": [{
            "id": "ADD_SNIPPET__ef0fa59413344de98ecd9b733d8afc42",
            "type": "ADD_SNIPPET",
            "codeSnippet": "validateLblNext();",
            "parentId": null,
            "callbackType": null
        }]
    }
}