{
    "AS_TextField_4c3b50331ae24954ad6c6d6e4c9e957b": {
        "id": "AS_TextField_4c3b50331ae24954ad6c6d6e4c9e957b",
        "type": "ACTION_SEQUENCE",
        "params": [{
            "datatype": "collection",
            "name": "eventobject"
        }, {
            "datatype": "string",
            "name": "changedtext"
        }],
        "language": "js",
        "actions": [{
            "id": "ADD_SNIPPET_ide_onEndEditing_f4a527fc39494047bd57e3bc8e87defa",
            "type": "ADD_SNIPPET",
            "codeSnippet": "onRecurrenceNumberOfTimesSelection();",
            "callbackType": null
        }]
    }
}