{
    "AS_TextField_e0afbaeca6684ff5887fa217c17e96e1": {
        "id": "AS_TextField_e0afbaeca6684ff5887fa217c17e96e1",
        "type": "ACTION_SEQUENCE",
        "params": [{
            "datatype": "collection",
            "name": "eventobject"
        }, {
            "datatype": "string",
            "name": "changedtext"
        }],
        "language": "js",
        "actions": [{
            "id": "ADD_SNIPPET_ide_onBeginEditing_g6671b88b13f41ad83e3ce9af842f480",
            "type": "ADD_SNIPPET",
            "codeSnippet": "frmJoMoPay.flxBorderBenificiary.skin=\"skntextFieldDividerBlue\";",
            "callbackType": null
        }]
    }
}