{
    "AS_Calendar_e642fefaa6cc435f94d82fa4dbc74cdd": {
        "id": "AS_Calendar_e642fefaa6cc435f94d82fa4dbc74cdd",
        "type": "ACTION_SEQUENCE",
        "name": "AS_TextField_NationalIDRegistration_DateOfBirth_onSelection",
        "params": [{
            "datatype": "collection",
            "name": "eventobject"
        }, {
            "datatype": "boolean",
            "name": "isValidDateSelected"
        }],
        "contextObj": {
            "name": "frmRegisterUser",
            "type": "forms",
            "platform": "",
            "KUID": "cd7432ec5087404590338186c94e35d2"
        },
        "language": "js",
        "actions": [{
            "id": "ADD_SNIPPET__j2eb792d189749438b21313d64a29ad8",
            "type": "ADD_SNIPPET",
            "codeSnippet": "var field=frmRegisterUser.calDateOfBirth;\nanimateLabel(\"UP\", \"lblDateOfBirthTitle\", frmRegisterUser.calDateOfBirth.text);\nfrmRegisterUser.lblDateOfBirth.text= field.dateComponents[2] +\"-\"+\n  (parseInt(field.dateComponents[1])<10?\"0\"+field.dateComponents[1]:field.dateComponents[1])+\"-\"+ (parseInt(field.dateComponents[0])<10?\"0\"+field.dateComponents[0]:field.dateComponents[0])\n\nfrmRegisterUser.lblDateOfBirth.setVisibility(true);\nisNextEnabledNat();\nfrmRegisterUser.flxBorderDateOfBirth.skin = \"skntextFieldDividerGreen\";\n",
            "parentId": null,
            "callbackType": null
        }]
    }
}