{
    "AS_TextField_iaa5d1ab89c14104afc9f6b5eee490b0": {
        "id": "AS_TextField_iaa5d1ab89c14104afc9f6b5eee490b0",
        "type": "ACTION_SEQUENCE",
        "params": [{
            "datatype": "collection",
            "name": "eventobject"
        }, {
            "datatype": "string",
            "name": "changedtext"
        }],
        "language": "js",
        "actions": [{
            "id": "ADD_SNIPPET_ide_onEndEditing_c3acdb4810b34097904e239149ca8be8",
            "type": "ADD_SNIPPET",
            "codeSnippet": "onendeditingCaredless();\nfrmCardlessTransaction.txtFieldAmount.maxTextLength = 20;\nfrmCardlessTransaction.txtFieldAmount.text=formatAmountwithcomma(frmCardlessTransaction.lblHiddenAmount.text,getDecimalNumForCurr(frmCardlessTransaction.lblCurrencyCode.text));",
            "callbackType": null
        }]
    }
}