{
    "AS_TextField_d3f4d13f6c4a484fa533f5a7dc320cc2": {
        "id": "AS_TextField_d3f4d13f6c4a484fa533f5a7dc320cc2",
        "type": "ACTION_SEQUENCE",
        "params": [{
            "datatype": "collection",
            "name": "eventobject"
        }, {
            "datatype": "string",
            "name": "changedtext"
        }],
        "contextObj": {
            "name": "frmChatBots",
            "type": "forms",
            "platform": "",
            "KUID": "a5c82996d9864c6482f65cfffe81fda4"
        },
        "language": "js",
        "actions": [{
            "id": "ADD_SNIPPET__j51a9770f93342eb8fd5f41244ce77d6",
            "type": "ADD_SNIPPET",
            "codeSnippet": "kony.chatbots.user.onTextChangeOfUserTextField();",
            "parentId": null,
            "callbackType": null
        }]
    }
}