{
    "AS_TextField_c7618e00b301494cb79781311d966be8": {
        "id": "AS_TextField_c7618e00b301494cb79781311d966be8",
        "type": "ACTION_SEQUENCE",
        "params": [{
            "datatype": "collection",
            "name": "eventobject"
        }, {
            "datatype": "string",
            "name": "changedtext"
        }],
        "language": "js",
        "actions": [{
            "id": "ADD_SNIPPET_ide_onDone_c99f02d78cd74a65810422611074137b",
            "type": "ADD_SNIPPET",
            "codeSnippet": "animateLabel(\"DOWN\",\"lblDescription\",frmNewTransferKA.txtDesc.text);",
            "callbackType": null
        }]
    }
}