{
    "AS_TextField_e2b4722045e043ccaa6b4866efe852de": {
        "id": "AS_TextField_e2b4722045e043ccaa6b4866efe852de",
        "type": "ACTION_SEQUENCE",
        "name": "AS_TextField_OnEndEditingIphoneAddressAliasEPS",
        "params": [{
            "datatype": "collection",
            "name": "eventobject"
        }, {
            "datatype": "string",
            "name": "changedtext"
        }],
        "contextObj": {
            "name": "frmEPS",
            "type": "forms",
            "platform": "",
            "KUID": "c49bbb3175be499d86d933cee301b3c4"
        },
        "language": "js",
        "actions": [{
            "id": "ADD_SNIPPET__f5ad66f2e8cd43bb90812d00211eb887",
            "type": "ADD_SNIPPET",
            "codeSnippet": "animateLabel(\"DOWN\",\"lblAddress\",frmEPS.txtAddressAlias.text);",
            "parentId": null,
            "callbackType": null
        }]
    }
}