{
    "AS_TextField_cfd0f0b445de4583b335c4cf08dde1a7": {
        "id": "AS_TextField_cfd0f0b445de4583b335c4cf08dde1a7",
        "type": "ACTION_SEQUENCE",
        "params": [{
            "datatype": "collection",
            "name": "eventobject"
        }, {
            "datatype": "string",
            "name": "x"
        }, {
            "datatype": "string",
            "name": "y"
        }],
        "contextObj": {
            "name": "frmEstatementLandingKA",
            "type": "forms",
            "platform": "",
            "KUID": "d1dcb94f4a054dda97d66cbdc216d96a"
        },
        "language": "js",
        "actions": [{
            "id": "ADD_SNIPPET__e1b93f1f73bd456992b47432199fea74",
            "type": "ADD_SNIPPET",
            "codeSnippet": "try{\n  if(frmEstatementLandingKA.txtEmail1.text!==null&& frmEstatementLandingKA.txtEmail1.text!==\"\")\n  {\n    frmEstatementLandingKA.borderBottom1.skin=\"skntextFieldDividerGreen\";\n  }else\n  {\n    frmEstatementLandingKA.borderBottom1.skin=\"skntextFieldDivider\";\n  }\n  frmEstatementLandingKA.lblClose1.setVisibility(true);\n  frmEstatementLandingKA.lblClose2.setVisibility(false);\n}catch(err){\n  kony.print( \"err in pwd::\"+err);\n}",
            "parentId": null,
            "callbackType": null
        }]
    }
}