{
    "AS_TextField_b49c2ccdc510490eb0ea3245005430ae": {
        "id": "AS_TextField_b49c2ccdc510490eb0ea3245005430ae",
        "type": "ACTION_SEQUENCE",
        "params": [{
            "datatype": "collection",
            "name": "eventobject"
        }, {
            "datatype": "string",
            "name": "changedtext"
        }],
        "language": "js",
        "actions": [{
            "id": "ADD_SNIPPET_ide_onDone_f5cbb43257c84abeb8caee55e30b4bed",
            "type": "ADD_SNIPPET",
            "codeSnippet": "if(frmJoMoPayLanding.txtSearch.text==\"\"||frmJoMoPayLanding.txtSearch.text==null)\n  {\n   flag=1;\n    kony.boj.JomopayLanding(flag,frmJoMoPayLanding.txtSearch.text);\n  }\nelse\n  {\nflag=2;\nkony.boj.JomopayLanding(flag,frmJoMoPayLanding.txtSearch.text);\n  }",
            "callbackType": null
        }]
    }
}