{
    "AS_TextField_d3fd7f3eb5314f6fa2bbcf81cd34f699": {
        "id": "AS_TextField_d3fd7f3eb5314f6fa2bbcf81cd34f699",
        "type": "ACTION_SEQUENCE",
        "params": [{
            "datatype": "collection",
            "name": "eventobject"
        }, {
            "datatype": "string",
            "name": "changedtext"
        }],
        "language": "js",
        "actions": [{
            "id": "ADD_SNIPPET_ide_onEndEditing_i13949b71d1741968f3ca53fdb19f6c3",
            "type": "ADD_SNIPPET",
            "codeSnippet": "// if(frmAddExternalAccountKA.txtBenficiryNameKA.text !== \"\"){\n//   frmAddExternalAccountKA.flxUnderlineBenficiryNameKA.skin = \"sknFlxGreenLine\";\n// }else{\n//   frmAddExternalAccountKA.flxUnderlineBenficiryNameKA.skin = \"sknFlxOrangeLine\";\n// }\nkony.boj.addBeneNextStatus();\nanimateLabel(\"DOWN\", \"lblBenficiryNickName\", frmAddExternalAccountKA.txtBenficiryNickName.text);\nif(kony.boj.addBeneVar.selectedType === \"BOJ\")\n  kony.boj.addBeneficiaryAnimation(\"lblAccountNumber\");\nelse\n  kony.boj.addBeneficiaryAnimation(\"lblAddressBene\");",
            "callbackType": null
        }]
    }
}