{
    "AS_TextField_a2bd29e7d5944c77b59772db8d5e038b": {
        "id": "AS_TextField_a2bd29e7d5944c77b59772db8d5e038b",
        "type": "ACTION_SEQUENCE",
        "params": [{
            "datatype": "collection",
            "name": "eventobject"
        }, {
            "datatype": "string",
            "name": "x"
        }, {
            "datatype": "string",
            "name": "y"
        }],
        "contextObj": {
            "name": "frmAddNewPrePayeeKA",
            "type": "forms",
            "platform": "",
            "KUID": "a843292d9c674ff7ba10a9b594b7e7e5"
        },
        "language": "js",
        "actions": [{
            "id": "ADD_SNIPPET__e96c3401d45c4915bfb74807810fe92e",
            "type": "ADD_SNIPPET",
            "codeSnippet": "//1985 fix\nanimateLabel(\"UP\", \"lblNickName\",frmAddNewPrePayeeKA.tbxNickName.text);",
            "parentId": null,
            "callbackType": null
        }]
    }
}