{
    "AS_TextField_h346553134234151b6ed3f745242bc3d": {
        "id": "AS_TextField_h346553134234151b6ed3f745242bc3d",
        "type": "ACTION_SEQUENCE",
        "name": "AS_TextField_onTextChangeOTPp",
        "params": [{
            "datatype": "collection",
            "name": "eventobject"
        }, {
            "datatype": "string",
            "name": "changedtext"
        }],
        "contextObj": {
            "name": "frmNewUserOnboardVerificationKA",
            "type": "forms",
            "platform": "",
            "KUID": "ie7b921fac134bd8a8afb16afc085409"
        },
        "language": "js",
        "actions": [{
            "id": "ADD_SNIPPET__fffd32bdc40a49bd8b0c11b6c01bad8e",
            "type": "ADD_SNIPPET",
            "codeSnippet": "onTextChangeOTP(false);",
            "parentId": null
        }]
    }
}