{
    "AS_TextField_d6ec2026af6d4206b938290d1e4cc694": {
        "id": "AS_TextField_d6ec2026af6d4206b938290d1e4cc694",
        "type": "ACTION_SEQUENCE",
        "name": "AS_TextField_NationalIDRegistration_FileName_onDone",
        "params": [{
            "datatype": "collection",
            "name": "eventobject"
        }, {
            "datatype": "string",
            "name": "changedtext"
        }],
        "contextObj": {
            "name": "frmRegisterUser",
            "type": "forms",
            "platform": "",
            "KUID": "cd7432ec5087404590338186c94e35d2"
        },
        "language": "js",
        "actions": [{
            "id": "ADD_SNIPPET__d0d444cf3ae2476dbc36451a51b15ee5",
            "type": "ADD_SNIPPET",
            "codeSnippet": "isNextEnabledNat();",
            "parentId": null,
            "callbackType": null
        }]
    }
}