{
    "AS_TextField_he5b124f1cce4f809e0342f41f46221b": {
        "id": "AS_TextField_he5b124f1cce4f809e0342f41f46221b",
        "type": "ACTION_SEQUENCE",
        "params": [{
            "datatype": "collection",
            "name": "eventobject"
        }, {
            "datatype": "string",
            "name": "changedtext"
        }],
        "language": "js",
        "actions": [{
            "id": "ADD_SNIPPET_ide_onEndEditing_hea950e1e9bd436d85515eac00e2077c",
            "type": "ADD_SNIPPET",
            "codeSnippet": "kony.print(\"onEndEditing\");\n// amountFieldCheck();\ncallRateService();\ncheckNextOpenDeposite();"
        }]
    }
}