{
    "AS_TextField_f17beaab32c2418384c9e2c50d1b592f": {
        "id": "AS_TextField_f17beaab32c2418384c9e2c50d1b592f",
        "type": "ACTION_SEQUENCE",
        "name": "AS_TextField_passwordCardlessOnDone",
        "params": [{
            "datatype": "collection",
            "name": "eventobject"
        }, {
            "datatype": "string",
            "name": "changedtext"
        }],
        "language": "js",
        "actions": [{
            "id": "ADD_SNIPPET_ide_onDone_acc5bfad249c48a98bcf8527c427017d",
            "type": "ADD_SNIPPET",
            "codeSnippet": "animateLabel(\"DOWN\", \"lblPassword\",frmCardlessTransaction.tbxPassword.text);\nanimateLabel(\"UP\", \"lblPassword\",frmCardlessTransaction.tbxPassword.text);\nif (frmCardlessTransaction.tbxPassword.length < 6){\n  frmCardlessTransaction.flxUnderlinePassword.skin = \"skntextFieldDividerOrange\";\n}else{\n  frmCardlessTransaction.flxUnderlinePassword.skin = \"skntextFieldDivider\";\n}",
            "callbackType": null
        }]
    }
}