{
    "AS_TextField_d9e4bc7175ed4f418c68dcd339b0892a": {
        "id": "AS_TextField_d9e4bc7175ed4f418c68dcd339b0892a",
        "type": "ACTION_SEQUENCE",
        "name": "AS_TextField_NationalIDRegistration_CustomerID_onBeginEditingIOS",
        "params": [{
            "datatype": "collection",
            "name": "eventobject"
        }, {
            "datatype": "string",
            "name": "changedtext"
        }],
        "contextObj": {
            "name": "frmRegisterUser",
            "type": "forms",
            "platform": "",
            "KUID": "cd7432ec5087404590338186c94e35d2"
        },
        "language": "js",
        "actions": [{
            "id": "ADD_SNIPPET__g74244bf937e411d9237fe9bf445c3aa",
            "type": "ADD_SNIPPET",
            "codeSnippet": "animateLabel(\"UP\", \"lblAccountNumberTitle\", frmRegisterUser.txtAccountNumber.text);",
            "parentId": null,
            "callbackType": null
        }]
    }
}