{
    "AS_TextField_a1371d88b862458c82dc09c523c2685a": {
        "id": "AS_TextField_a1371d88b862458c82dc09c523c2685a",
        "type": "ACTION_SEQUENCE",
        "name": "AS_TextField_OnTouchEndTxtAliasIPSREG",
        "params": [{
            "datatype": "collection",
            "name": "eventobject"
        }, {
            "datatype": "string",
            "name": "x"
        }, {
            "datatype": "string",
            "name": "y"
        }],
        "contextObj": {
            "name": "frmIPSRegistration",
            "type": "forms",
            "platform": "",
            "KUID": "d9019aaca9814c4fb7b2e6f1a98cc411"
        },
        "language": "js",
        "actions": [{
            "id": "ADD_SNIPPET__ff05f7c094b54ac48c4afaebfe52194b",
            "type": "ADD_SNIPPET",
            "codeSnippet": "animateLabel(\"UP\",\"lblAliasTitle\",frmIPSRegistration.txtAlias.text);",
            "parentId": null,
            "callbackType": null
        }]
    }
}