{
    "AS_TextField_f1ac2ac9f6fb440a90e246f54cf51fd7": {
        "id": "AS_TextField_f1ac2ac9f6fb440a90e246f54cf51fd7",
        "type": "ACTION_SEQUENCE",
        "params": [{
            "datatype": "collection",
            "name": "eventobject"
        }, {
            "datatype": "string",
            "name": "changedtext"
        }],
        "contextObj": {
            "name": "frmAddNewPrePayeeKA",
            "type": "forms",
            "platform": null,
            "KUID": "a843292d9c674ff7ba10a9b594b7e7e5"
        },
        "language": "js",
        "actions": [{
            "id": "ADD_SNIPPET_ide_onDone_b2ac705c066a4b999ada0cc78f5bc098",
            "type": "ADD_SNIPPET",
            "codeSnippet": "animateLabel(\"DOWN\", \"lblAddress\",frmAddNewPayeeKA.tbxAddress.text);",
            "callbackType": null
        }]
    }
}