{
    "AS_Video_h296d8234712437291c488cb7183c55e": {
        "id": "AS_Video_h296d8234712437291c488cb7183c55e",
        "type": "ACTION_SEQUENCE",
        "name": "AS_Video_onPreparedAn",
        "params": [{
            "datatype": "collection",
            "name": "eventobject"
        }],
        "contextObj": {
            "name": "frmSplash",
            "type": "forms",
            "platform": "",
            "KUID": "db67a9fe92674e5e9f19aa5b50fa0e6f"
        },
        "language": "js",
        "actions": [{
            "id": "ADD_SNIPPET__d522480621474084b4c71ccfb4d1c848",
            "type": "ADD_SNIPPET",
            "codeSnippet": "frmSplash.vdoSplash.play();",
            "parentId": null,
            "callbackType": null
        }]
    }
}