{
    "AS_VBox_e39ff3637dca42849ed9d9df4a20fe08": {
        "id": "AS_VBox_e39ff3637dca42849ed9d9df4a20fe08",
        "type": "ACTION_SEQUENCE",
        "params": [{
            "datatype": "collection",
            "name": "eventobject"
        }],
        "contextObj": {
            "name": "popupCommonAlert",
            "type": "popups",
            "platform": "",
            "KUID": "a858ead763084439955bc861790ad001"
        },
        "language": "js",
        "actions": [{
            "id": "ADD_SNIPPET__c86d8630506847e1b40eca44797de9ac",
            "type": "ADD_SNIPPET",
            "codeSnippet": "if(popupSort.imgAmountDesc.src == \"map_arrow_down_nonselected.png\")\n\tpopupSort.imgAmountDesc.src = \"map_arrow_down.png\";\nelse\n  \tpopupSort.imgAmountDesc.src = \"map_arrow_down_nonselected.png\";",
            "parentId": null,
            "disabled": true
        }, {
            "id": "INVOKE_FUNCTION___f7d7917743964b23ae99b64219b60996",
            "type": "INVOKE_FUNCTION",
            "sequenceKUID": "accountInfoSorting",
            "display": "accountInfoSorting",
            "inputparams": [{
                "name": "widget",
                "value": "popupSort.imgAmountDesc"
            }, {
                "name": "sortby",
                "value": "\"Amount\""
            }, {
                "name": "type",
                "value": "\"descending\""
            }],
            "parentId": null,
            "callbackType": null,
            "disabled": null,
            "source": "module"
        }]
    }
}