{
    "AS_FlexContainer_eb19fb0c326e480eb2825a09799abaf2": {
        "id": "AS_FlexContainer_eb19fb0c326e480eb2825a09799abaf2",
        "type": "ACTION_SEQUENCE",
        "name": "backfromChooseCountryRegJP",
        "params": [{
            "datatype": "collection",
            "name": "eventobject"
        }],
        "language": "js",
        "actions": [{
            "id": "ADD_SNIPPET_ide_onClick_cbd585fdcfd548edbc98271899d2a4ca",
            "type": "ADD_SNIPPET",
            "codeSnippet": "frmJoMoPayRegistration.show();",
            "callbackType": null
        }]
    }
}