{
    "AS_Button_403541828d944fcd818f8a0ce66bf4f6": {
        "id": "AS_Button_403541828d944fcd818f8a0ce66bf4f6",
        "type": "ACTION_SEQUENCE",
        "name": "btn1_frmPinLoginSuccessKA",
        "params": [{
            "datatype": "collection",
            "name": "eventobject"
        }],
        "contextObj": {
            "type": "forms",
            "platform": "",
            "KUID": "4dc207cd9ba542e880a7fee434e24ecb"
        },
        "language": "js",
        "actions": [{
            "id": "ADD_SNIPPET__f7d33974fd2e4176adf0e696e5a9bfc4",
            "type": "ADD_SNIPPET",
            "codeSnippet": "check_updated(1);\n",
            "parentId": null,
            "callbackType": null
        }]
    }
}