{
    "AS_Button_5ec3ae74bdaf45e59ec4701e84828451": {
        "id": "AS_Button_5ec3ae74bdaf45e59ec4701e84828451",
        "type": "ACTION_SEQUENCE",
        "name": "btn1_frmLoginKA",
        "params": [{
            "datatype": "collection",
            "name": "eventobject"
        }],
        "contextObj": {
            "name": "frmLoginKA",
            "type": "forms",
            "platform": "",
            "KUID": "7b1aa8fceb6b4070833e9eab879b0e5e"
        },
        "language": "js",
        "actions": [{
            "id": "ADD_SNIPPET__fbda4818b90e4040abae60f7eac44346",
            "type": "ADD_SNIPPET",
            "codeSnippet": "check_Login_Pin(1);",
            "parentId": null,
            "callbackType": null
        }]
    }
}