{
    "AS_Button_9b6849fa8187432dac029e7b357d4042": {
        "id": "AS_Button_9b6849fa8187432dac029e7b357d4042",
        "type": "ACTION_SEQUENCE",
        "name": "btn7_frmPinLoginSuccessKA",
        "params": [{
            "datatype": "collection",
            "name": "eventobject"
        }],
        "contextObj": {
            "type": "forms",
            "platform": "",
            "KUID": "4dc207cd9ba542e880a7fee434e24ecb"
        },
        "language": "js",
        "actions": [{
            "id": "ADD_SNIPPET__af0cb1a7049249c59ea20d4334969a80",
            "type": "ADD_SNIPPET",
            "codeSnippet": "check_updated(7);",
            "parentId": null,
            "callbackType": null
        }]
    }
}