{
    "AS_Button_1691f99ca9314ba9bc473e834e66db82": {
        "id": "AS_Button_1691f99ca9314ba9bc473e834e66db82",
        "type": "ACTION_SEQUENCE",
        "name": "btnClear_frmPinLogin",
        "params": [{
            "datatype": "collection",
            "name": "eventobject"
        }],
        "contextObj": {
            "type": "forms",
            "platform": "",
            "KUID": "4dc207cd9ba542e880a7fee434e24ecb"
        },
        "language": "js",
        "actions": [{
            "id": "ADD_SNIPPET__703302ff5b9b4ff69ab0f619e3cda42f",
            "type": "ADD_SNIPPET",
            "codeSnippet": "clearBtnClicked();",
            "parentId": null,
            "callbackType": null
        }]
    }
}