{
    "AS_TextField_ae99f253dcce476c8ec52c4f33fa98e4": {
        "id": "AS_TextField_ae99f253dcce476c8ec52c4f33fa98e4",
        "type": "ACTION_SEQUENCE",
        "name": "CopyAS_onTouchEndNickName",
        "params": [{
            "datatype": "collection",
            "name": "eventobject"
        }, {
            "datatype": "string",
            "name": "x"
        }, {
            "datatype": "string",
            "name": "y"
        }],
        "contextObj": {
            "KUID": "4943cca5d62d4f0ca6f2e9ab47274db5",
            "name": "frmAddExternalAccountKA",
            "platform": "",
            "type": "forms"
        },
        "language": "js",
        "actions": [{
            "id": "ADD_SNIPPET__a73562eca43947ada1f78118a6dc6609",
            "type": "ADD_SNIPPET",
            "codeSnippet": "// kony.boj.addBeneficiaryAnimation(\"lblBenficiryNickName\");\n// frmAddExternalAccountKA.flxUnderlineBenficiryNickName.skin = \"sknFlxBlueLine\";\n\nanimateLabel(\"UP\", \"lblBank\",frmEPS.lblBank.text);\n\n",
            "parentId": null,
            "callbackType": null
        }]
    }
}