{
    "AS_Button_e27af30ad2e5446fa6295186230e1751": {
        "id": "AS_Button_e27af30ad2e5446fa6295186230e1751",
        "type": "ACTION_SEQUENCE",
        "name": "dealsAlertAndroidBack",
        "params": [{
            "datatype": "collection",
            "name": "eventobject"
        }],
        "contextObj": {
            "type": "forms",
            "platform": null,
            "KUID": "2faae4f42a084d0194092153c0bb7a75"
        },
        "language": "js",
        "actions": [{
            "id": "NAVIGATE_TO_FORM__ide_onClick_92165dab1cc9452ab9a3c8f372a2074c",
            "type": "NAVIGATE_TO_FORM",
            "formId": "frmAlertsKA",
            "formKUID": "8f4fb6ef80f34f5f861f12908e1a5309",
            "mappings": {},
            "mappingsOrder": [],
            "parentId": "",
            "callbackType": null,
            "enableMappingEditor": true,
            "package": "",
            "navigationObj": "{\n    \"_meta_\": {\n        \"eventName\": \"\",\n        \"widgetId\": \"\"\n    }\n}",
            "isCustomInput": false
        }]
    }
}