{
    "AS_Form_db91454e3da441969b5a1201e65d0203": {
        "id": "AS_Form_db91454e3da441969b5a1201e65d0203",
        "type": "ACTION_SEQUENCE",
        "name": "DevBackInformation",
        "params": [{
            "datatype": "collection",
            "name": "eventobject"
        }],
        "contextObj": {
            "name": "frmInformationKA",
            "type": "forms",
            "platform": "",
            "KUID": "f18169832ba24ba09c8780278abfc207"
        },
        "language": "js",
        "actions": [{
            "id": "ADD_SNIPPET__cb06a5071ac4475e952704ce84df5e48",
            "type": "ADD_SNIPPET",
            "codeSnippet": "if(isLoggedIn){\n  frmMore.show();  \n}else{\n  frmLoginKA.show();\n}\n//kony.application.getPreviousForm().show();",
            "parentId": null,
            "callbackType": null
        }]
    }
}