{
    "AS_Form_g0dfc8745b614489bff755d736be5348": {
        "id": "AS_Form_g0dfc8745b614489bff755d736be5348",
        "type": "ACTION_SEQUENCE",
        "name": "DevBackInfo",
        "params": [{
            "datatype": "collection",
            "name": "eventobject"
        }],
        "contextObj": {
            "name": "frmInformationDetailsKA",
            "type": "forms",
            "platform": "",
            "KUID": "bd024cbb5a764c1aadf8f9ba5c1bdc64"
        },
        "language": "js",
        "actions": [{
            "id": "ADD_SNIPPET__a0b9ebcadba14ddfa38cb1408390c796",
            "type": "ADD_SNIPPET",
            "codeSnippet": "frmInformationKA.show();",
            "parentId": null,
            "callbackType": null
        }]
    }
}