{
    "AS_Switch_6634b9ab478248bf82e87e9516f52f3d": {
        "id": "AS_Switch_6634b9ab478248bf82e87e9516f52f3d",
        "type": "ACTION_SEQUENCE",
        "name": "enablePin_devReg",
        "params": [{
            "datatype": "collection",
            "name": "eventobject"
        }],
        "contextObj": {
            "name": "frmDeviceregistrarionSuccessKA",
            "type": "forms",
            "platform": "",
            "KUID": "71f8ab34e5b2429c81c09a27704cb4a1"
        },
        "language": "js",
        "actions": [{
            "id": "ADD_SNIPPET__84d0d00555524ebb88cd1a0a803edc47",
            "type": "ADD_SNIPPET",
            "codeSnippet": "updateStatusforPin(\"isPinEnabledFlag\",\"enablePinSwitch\");",
            "parentId": null,
            "callbackType": null
        }]
    }
}