{
    "AS_Segment_7d8a1730846840f18b43928c48ba5c3b": {
        "id": "AS_Segment_7d8a1730846840f18b43928c48ba5c3b",
        "type": "ACTION_SEQUENCE",
        "name": "forPaymentsOnrowClickAndroid",
        "params": [{
            "datatype": "collection",
            "name": "eventobject"
        }, {
            "datatype": "number",
            "name": "sectionNumber"
        }, {
            "datatype": "number",
            "name": "rowNumber"
        }],
        "contextObj": {
            "name": "frmPreferredAccountsKA",
            "type": "forms",
            "platform": "",
            "KUID": "7a9e568cea85447086c10e8f96c76840"
        },
        "language": "js",
        "actions": [{
            "id": "INVOKE_FUNCTION___121e8114432742999dfc33464cc8cc29",
            "type": "INVOKE_FUNCTION",
            "display": "onClickPaymentsAccounts",
            "inputparams": [],
            "parentId": null,
            "callbackType": null,
            "source": "module"
        }]
    }
}