{
    "AS_FlexContainer_4618e028d7e74e6094664e6f48c9d355": {
        "id": "AS_FlexContainer_4618e028d7e74e6094664e6f48c9d355",
        "type": "ACTION_SEQUENCE",
        "name": "frmPinEntryStep1_clear",
        "params": [{
            "datatype": "collection",
            "name": "eventobject"
        }, {
            "datatype": "string",
            "name": "x"
        }, {
            "datatype": "string",
            "name": "y"
        }],
        "contextObj": {
            "name": "frmPinEntryStep1",
            "type": "forms",
            "platform": "",
            "KUID": "ad1414e8a4dc485fbf6846bf2cbeaf84"
        },
        "language": "js",
        "actions": [{
            "id": "ADD_SNIPPET__4525ac2dd10549d59a59f8c47d0296c8",
            "type": "ADD_SNIPPET",
            "codeSnippet": "clearClicked();",
            "parentId": null,
            "callbackType": null
        }]
    }
}