{
    "AS_Form_d688c69f17364d7299965f4700c8aef9": {
        "id": "AS_Form_d688c69f17364d7299965f4700c8aef9",
        "type": "ACTION_SEQUENCE",
        "name": "frmUserSettingsEditPasswordKAdeviceback",
        "params": [{
            "datatype": "collection",
            "name": "eventobject"
        }],
        "contextObj": {
            "type": "forms",
            "platform": "",
            "KUID": "c968931d2e6e4741bd77f49329ffbaac"
        },
        "language": "js",
        "actions": [{
            "id": "ADD_SNIPPET__25441c06b0e246ccb2c8e7733330fb95",
            "type": "ADD_SNIPPET",
            "codeSnippet": "kony.print(\"Device Back\");",
            "parentId": null,
            "callbackType": null
        }]
    }
}