{
    "AS_Form_j90df7e9f14e4a0e95d40d78c2117993": {
        "id": "AS_Form_j90df7e9f14e4a0e95d40d78c2117993",
        "type": "ACTION_SEQUENCE",
        "name": "frmUserSettingsPinLoginKAPreShow",
        "params": [{
            "datatype": "collection",
            "name": "eventobject"
        }],
        "contextObj": {
            "name": "frmUserSettingsPinLoginKA",
            "type": "forms",
            "platform": "",
            "KUID": "d6efcea46d734da8bf7a8f21578e100d"
        },
        "language": "js",
        "actions": [{
            "id": "ADD_SNIPPET__b126342a77dc4fe193f10ac1c30900b8",
            "type": "ADD_SNIPPET",
            "codeSnippet": "frmUSPinLoginPreShow();",
            "parentId": null,
            "callbackType": null
        }]
    }
}