{
    "AS_Button_d16232ef24b340f5b2a1458e12cc15db": {
        "id": "AS_Button_d16232ef24b340f5b2a1458e12cc15db",
        "type": "ACTION_SEQUENCE",
        "name": "gotofrmPayeeDetailsKA",
        "params": [{
            "datatype": "collection",
            "name": "eventobject"
        }],
        "contextObj": {
            "name": "frmPayeeTransactionsKA",
            "type": "forms",
            "platform": "",
            "KUID": "78b4c1f03e764c0e8ab4e36a3dcb4742"
        },
        "language": "js",
        "actions": [{
            "id": "ADD_SNIPPET__f9c0bfff466a43fa9cc4a523ca09d8e7",
            "type": "ADD_SNIPPET",
            "codeSnippet": "navigateToPayeeDetails();",
            "parentId": null,
            "callbackType": null
        }]
    }
}