{
    "AS_Button_h7cb1349585c4927ae00890163092a84": {
        "id": "AS_Button_h7cb1349585c4927ae00890163092a84",
        "type": "ACTION_SEQUENCE",
        "name": "IPS_PaymentHistory_IncomingOnCLick",
        "params": [{
            "datatype": "collection",
            "name": "eventobject"
        }],
        "language": "js",
        "actions": [{
            "id": "ADD_SNIPPET_ide_onClick_df3762f9d58d4f0b9f5a647dc98e8adf",
            "type": "ADD_SNIPPET",
            "codeSnippet": "frmIPSRequests.btnAll.skin = \"slButtonWhiteTabDisabled\";\nfrmIPSRequests.btnIncoming.skin = \"slButtonWhiteTab\";\nfrmIPSRequests.btnOutgoing.skin = \"slButtonWhiteTabDisabled\";\nfrmIPSRequests.btnRequestToPay.skin = \"slButtonWhiteTabDisabled\";\nkony.sdk.mvvm.KonyApplicationContext.showLoadingScreen(\"\");\nloadPaymentHistory(\"IPS_INWARD\");\nkony.sdk.mvvm.KonyApplicationContext.dismissLoadingScreen();\n/*selectedIndex_BULK_PAYMENT = [];\nvalidate_BULK_BILL_SELECTION();\nshow_BILLER_LIST(\"postpaid\");*/",
            "callbackType": null
        }]
    }
}