{
    "AS_TextField_fef6dd3a85ea4b698cb277e2c28e65c2": {
        "id": "AS_TextField_fef6dd3a85ea4b698cb277e2c28e65c2",
        "type": "ACTION_SEQUENCE",
        "name": "jomopayaliasTFonbegineditingiphone",
        "params": [{
            "datatype": "collection",
            "name": "eventobject"
        }, {
            "datatype": "string",
            "name": "changedtext"
        }],
        "contextObj": {
            "name": "frmJoMoPay",
            "type": "forms",
            "platform": "",
            "KUID": "d41a38dfc97d4e0a8f3b1db96d6a1ca0"
        },
        "language": "js",
        "actions": [{
            "id": "ADD_SNIPPET__fdb2134f143a4f99bbdce476514d1dff",
            "type": "ADD_SNIPPET",
            "codeSnippet": "frmJoMoPay.flxBorderBenificiary.skin=\"skntextFieldDividerBlue\";",
            "parentId": null,
            "callbackType": null
        }]
    }
}