{
    "AS_Button_dd5d5f0bf99c4d13be15d7aff6a28c94": {
        "id": "AS_Button_dd5d5f0bf99c4d13be15d7aff6a28c94",
        "type": "ACTION_SEQUENCE",
        "name": "newgotofrmNewBillKA",
        "params": [{
            "datatype": "collection",
            "name": "eventobject"
        }],
        "language": "js",
        "actions": [{
            "id": "ADD_SNIPPET__286d5f60816f4702947d0bb8554167af",
            "type": "ADD_SNIPPET",
            "codeSnippet": "fromManagePayeetoBillPay();\t",
            "parentId": null,
            "callbackType": null
        }]
    }
}