{
    "AS_TextField_hce8f31a9bc048e7bdef1ac38ab9243f": {
        "id": "AS_TextField_hce8f31a9bc048e7bdef1ac38ab9243f",
        "type": "ACTION_SEQUENCE",
        "name": "onbegineditingamountweb",
        "params": [{
            "datatype": "collection",
            "name": "eventobject"
        }, {
            "datatype": "string",
            "name": "changedtext"
        }],
        "language": "js",
        "actions": [{
            "id": "ADD_SNIPPET_ide_onBeginEditing_d9916df2ce1b49699f3069c7071e0840",
            "type": "ADD_SNIPPET",
            "codeSnippet": "frmWebCharge.flxBorderAmount.skin=\"skntextFieldDividerBlue\";",
            "callbackType": null
        }]
    }
}