{
    "AS_Button_a981eea9879649daa9cd7b23890f7481": {
        "id": "AS_Button_a981eea9879649daa9cd7b23890f7481",
        "type": "ACTION_SEQUENCE",
        "name": "onClickChooseCurrency",
        "params": [{
            "datatype": "collection",
            "name": "eventobject"
        }],
        "contextObj": {
            "name": "frmNewTransferKA",
            "type": "forms",
            "platform": "",
            "KUID": "2ac343500306428da0ceef91a3b44d18"
        },
        "language": "js",
        "actions": [{
            "id": "ADD_SNIPPET__e94d79416ad14fa8bd49c59675d1288b",
            "type": "ADD_SNIPPET",
            "codeSnippet": "frmCurrency.show();",
            "parentId": null,
            "callbackType": null
        }]
    }
}