{
    "AS_FlexContainer_i0c3c7e31623425dbe981e5b0ecdd9cf": {
        "id": "AS_FlexContainer_i0c3c7e31623425dbe981e5b0ecdd9cf",
        "type": "ACTION_SEQUENCE",
        "name": "onClickPaymentTransactionSortDateDescending",
        "params": [{
            "datatype": "collection",
            "name": "eventobject"
        }],
        "language": "js",
        "actions": [{
            "id": "INVOKE_FUNCTION__ide_onClick_e07c5a0a101f4f3ebee376af5bdfc059",
            "type": "INVOKE_FUNCTION",
            "sequenceKUID": "accountInfoSorting",
            "display": "accountInfoSorting",
            "inputparams": [{
                "name": "widget",
                "value": "frmJoMoPayLanding.imgSortDateDesc"
            }, {
                "name": "sortby",
                "value": "\"Date\""
            }, {
                "name": "type",
                "value": "\"descending\""
            }],
            "callbackType": null,
            "disabled": false,
            "source": "module"
        }]
    }
}