{
    "AS_Button_ed50bda53f5c46939f242f84319bc6f4": {
        "id": "AS_Button_ed50bda53f5c46939f242f84319bc6f4",
        "type": "ACTION_SEQUENCE",
        "name": "onclickcountrydropdownRegJP",
        "params": [{
            "datatype": "collection",
            "name": "eventobject"
        }],
        "contextObj": {
            "name": "frmJoMoPayRegistration",
            "type": "forms",
            "platform": null,
            "KUID": "h0b4f51069c74c7bbbbd6798301d77d6"
        },
        "language": "js",
        "actions": [{
            "id": "ADD_SNIPPET__d371eb9caa724a12864fd7b057b7a517",
            "type": "ADD_SNIPPET",
            "codeSnippet": "kony.boj.showCountryorCity(\"Country\", \"lblCountry\",\"\");",
            "parentId": null,
            "callbackType": null
        }]
    }
}