{
    "AS_FlexContainer_i0658a5be5734810b60eec8a561623a8": {
        "id": "AS_FlexContainer_i0658a5be5734810b60eec8a561623a8",
        "type": "ACTION_SEQUENCE",
        "name": "onclickpayforweb",
        "params": [{
            "datatype": "collection",
            "name": "eventobject"
        }],
        "contextObj": {
            "name": "frmManageCardsKA",
            "type": "forms",
            "platform": "",
            "KUID": "75db60b6b4944b7faf9c556f4dbcaf8d"
        },
        "language": "js",
        "actions": [{
            "id": "ADD_SNIPPET__e4af1c2012114b63b1fcc1f13b853f65",
            "type": "ADD_SNIPPET",
            "codeSnippet": "gblTModule=\"web\";\ngetAllAccounts();",
            "parentId": null,
            "callbackType": null
        }]
    }
}