{
    "AS_FlexContainer_fbbebab5ad644b6db8686d0475931181": {
        "id": "AS_FlexContainer_fbbebab5ad644b6db8686d0475931181",
        "type": "ACTION_SEQUENCE",
        "name": "onClickServiceType",
        "params": [{
            "datatype": "collection",
            "name": "eventobject"
        }],
        "contextObj": {
            "name": "frmNewBillKA",
            "type": "forms",
            "platform": "",
            "KUID": "94b57de480514c9f98e1f6979b71a37b"
        },
        "language": "js",
        "actions": [{
            "id": "ADD_SNIPPET__e9965e8dc751420fa7428490e14c4d4e",
            "type": "ADD_SNIPPET",
            "codeSnippet": "if(gblQuickFlow === \"pre\")\n  frmNewBillKA.flxPopupOuter.setVisibility(true);",
            "parentId": null,
            "callbackType": null
        }]
    }
}