{
    "AS_FlexContainer_a3b7a477c4db474c8a336530a9f9cf5f": {
        "id": "AS_FlexContainer_a3b7a477c4db474c8a336530a9f9cf5f",
        "type": "ACTION_SEQUENCE",
        "name": "onClickContactUS",
        "params": [{
            "datatype": "collection",
            "name": "eventobject"
        }],
        "contextObj": {
            "name": "frmInformationKA",
            "type": "forms",
            "platform": "",
            "KUID": "f18169832ba24ba09c8780278abfc207"
        },
        "language": "js",
        "actions": [{
            "id": "ADD_SNIPPET__hbddb5a9b0894795bce02d2da54581a0",
            "type": "ADD_SNIPPET",
            "codeSnippet": "CallTheNumber();",
            "parentId": null,
            "callbackType": null
        }]
    }
}