{
    "AS_FlexContainer_ac67fe22d13a4a80b7c3143e1951ac41": {
        "id": "AS_FlexContainer_ac67fe22d13a4a80b7c3143e1951ac41",
        "type": "ACTION_SEQUENCE",
        "name": "onClickEnableMorningBalanceAlert",
        "params": [{
            "datatype": "collection",
            "name": "eventobject"
        }],
        "contextObj": {
            "name": "frmAlertsKA",
            "type": "forms",
            "platform": "",
            "KUID": "8f4fb6ef80f34f5f861f12908e1a5309"
        },
        "language": "js",
        "actions": [{
            "id": "ADD_SNIPPET__j5ef66f9edbd4480b20f448e70651bea",
            "type": "ADD_SNIPPET",
            "codeSnippet": "show_optalert(\"morningbalance\",frmAlertsKA.lblMorningBalanceFlag);",
            "parentId": null
        }]
    }
}