{
    "AS_Button_haa46aa00a9b4de5bbbe6be325b63eb2": {
        "id": "AS_Button_haa46aa00a9b4de5bbbe6be325b63eb2",
        "type": "ACTION_SEQUENCE",
        "name": "onClickApplyStickers",
        "params": [{
            "datatype": "collection",
            "name": "eventobject"
        }],
        "contextObj": {
            "name": "frmApplyNewCardsKA",
            "type": "forms",
            "platform": "",
            "KUID": "a05ce8d2e4404e40bfbc8dad585d28dc"
        },
        "language": "js",
        "actions": [{
            "id": "ADD_SNIPPET__af4cc18ee51c45538c0f470cf07b71db",
            "type": "ADD_SNIPPET",
            "codeSnippet": "onClick_RADIOBUTTON_APPLYNEWCARDSTYPE(frmApplyNewCardsKA.btnSticker,frmApplyNewCardsKA.lblStickerTitle,\"Sticker\");",
            "parentId": null
        }]
    }
}