{
    "AS_Button_b0a8863628ea4cb58cdcabf8af298add": {
        "id": "AS_Button_b0a8863628ea4cb58cdcabf8af298add",
        "type": "ACTION_SEQUENCE",
        "name": "onClickAcceptTandC",
        "params": [{
            "datatype": "collection",
            "name": "eventobject"
        }],
        "language": "js",
        "actions": [{
            "id": "ADD_SNIPPET_ide_onClick_c6ebb8729ee74bbf9bdffd9cf0a06e86",
            "type": "ADD_SNIPPET",
            "codeSnippet": "getDeviceRegStatus();",
            "callbackType": null
        }]
    }
}