{
    "AS_Button_d8e6be846ae24849bc31be2444d44206": {
        "id": "AS_Button_d8e6be846ae24849bc31be2444d44206",
        "type": "ACTION_SEQUENCE",
        "name": "onClickAllCardsCardsLanding",
        "params": [{
            "datatype": "collection",
            "name": "eventobject"
        }],
        "contextObj": {
            "name": "frmCardsLandingKA",
            "type": "forms",
            "platform": "",
            "KUID": "d077415ce83a4f0096a87719325e288d"
        },
        "language": "js",
        "actions": [{
            "id": "ADD_SNIPPET__d72f2e15a7ce47c3bd800063b49dac86",
            "type": "ADD_SNIPPET",
            "codeSnippet": "switch_CARDSLANDING_APPLYCARDS(\"flxScrollMain\");",
            "parentId": null,
            "callbackType": null
        }]
    }
}