{
    "AS_FlexContainer_cb990460e21d46a9a56b74cb311a897a": {
        "id": "AS_FlexContainer_cb990460e21d46a9a56b74cb311a897a",
        "type": "ACTION_SEQUENCE",
        "name": "onClickEnableDepositAlert",
        "params": [{
            "datatype": "collection",
            "name": "eventobject"
        }],
        "contextObj": {
            "name": "frmAlertsKA",
            "type": "forms",
            "platform": "",
            "KUID": "8f4fb6ef80f34f5f861f12908e1a5309"
        },
        "language": "js",
        "actions": [{
            "id": "ADD_SNIPPET__b3de985014804a9cb5f7ce8a6bf58717",
            "type": "ADD_SNIPPET",
            "codeSnippet": "show_optalert(\"deposit\",frmAlertsKA.lblDepositFlag);",
            "parentId": null
        }]
    }
}