{
    "AS_Button_a8c331a07fd145f398ebd6eba855c2a6": {
        "id": "AS_Button_a8c331a07fd145f398ebd6eba855c2a6",
        "type": "ACTION_SEQUENCE",
        "name": "onClickCardsRadioPrepaidRegisteredBill",
        "params": [{
            "datatype": "collection",
            "name": "eventobject"
        }],
        "language": "js",
        "actions": [{
            "id": "ADD_SNIPPET_ide_onClick_e68efb28240c4eb68c4f2d4508192009",
            "type": "ADD_SNIPPET",
            "codeSnippet": "onChangingradioBtnNewBillKA(frmPrePaidPayeeDetailsKA.btnBillsPayCards,frmPrePaidPayeeDetailsKA.lblBillsPayCards.text);",
            "callbackType": null
        }]
    }
}