{
    "AS_Button_jec179e4b8e24920b633b5f05d585b60": {
        "id": "AS_Button_jec179e4b8e24920b633b5f05d585b60",
        "type": "ACTION_SEQUENCE",
        "name": "onClickBackAndroidDeviceRegistration",
        "params": [{
            "datatype": "collection",
            "name": "eventobject"
        }],
        "contextObj": {
            "name": "frmDeviceRegistration",
            "type": "forms",
            "platform": "",
            "KUID": "d3f5bb6d97f641aa9040a4a3bbbb5f11"
        },
        "language": "js",
        "actions": [{
            "id": "ADD_SNIPPET__bf6335148cd447a9ac3ea0fe98a3b646",
            "type": "ADD_SNIPPET",
            "codeSnippet": "frmSettingsKA.show();",
            "parentId": null,
            "callbackType": null
        }]
    }
}