{
    "AS_Button_e4773561daab4cdeb9cf285d0b592b8e": {
        "id": "AS_Button_e4773561daab4cdeb9cf285d0b592b8e",
        "type": "ACTION_SEQUENCE",
        "name": "onclickDealsAcc",
        "params": [{
            "datatype": "collection",
            "name": "eventobject"
        }],
        "contextObj": {
            "name": "frmAccountsLandingKA",
            "type": "forms",
            "platform": "",
            "KUID": "d62a2a0906c64d2281addc95893a6544"
        },
        "language": "js",
        "actions": [{
            "id": "ADD_SNIPPET__fa233f039d044050a1c9a875547a97c0",
            "type": "ADD_SNIPPET",
            "codeSnippet": "\nif(frmAccountsLandingKA.segAccountsKADeals.data !==null && frmAccountsLandingKA.segAccountsKADeals.data.length === 1){\n        depositOnetimeCall();\n      }else{\ndealsAnimation();\n      }\nfrmAccountsLandingKA.btnNewAccount.setVisibility(false);//hide open sub account",
            "parentId": null,
            "callbackType": null
        }]
    }
}