{
    "AS_Button_he29dc34a4024cb3ab60bf4e7d31a84e": {
        "id": "AS_Button_he29dc34a4024cb3ab60bf4e7d31a84e",
        "type": "ACTION_SEQUENCE",
        "name": "onClickApplyNewCardsIcon",
        "params": [{
            "datatype": "collection",
            "name": "eventobject"
        }],
        "contextObj": {
            "name": "frmCardsLandingKA",
            "type": "forms",
            "platform": "",
            "KUID": "d077415ce83a4f0096a87719325e288d"
        },
        "language": "js",
        "actions": [{
            "id": "ADD_SNIPPET__d6d564e4f38348999f86e4ebdbcbc9f1",
            "type": "ADD_SNIPPET",
            "codeSnippet": "if(eventobject.id === \"flxapplyCredit\"){\n\tkony.newCARD.maincardTYPE = \"Credit\";\n}else if(eventobject.id === \"flxapplyDebit\"){\n\tkony.newCARD.maincardTYPE = \"Debit\";\n}else if(eventobject.id === \"flxapplyPrepaid\"){\n\tkony.newCARD.maincardTYPE = \"Prepaid\";\n}\nreset_APPLYNEWCARDS();",
            "parentId": null,
            "callbackType": null
        }]
    }
}