{
    "AS_Button_c825bea40e0a44b785db59cd5c6565a1": {
        "id": "AS_Button_c825bea40e0a44b785db59cd5c6565a1",
        "type": "ACTION_SEQUENCE",
        "name": "onClickbtnFinancialinfo",
        "params": [{
            "datatype": "collection",
            "name": "eventobject"
        }],
        "language": "js",
        "actions": [{
            "id": "ADD_SNIPPET_ide_onClick_a98263020ddb475fa561fcb99506003a",
            "type": "ADD_SNIPPET",
            "codeSnippet": "kony.print(\"Deleted\");",
            "callbackType": null
        }]
    }
}