{
    "AS_Button_8a5adceb7f774a99b663467730baf0aa": {
        "id": "AS_Button_8a5adceb7f774a99b663467730baf0aa",
        "type": "ACTION_SEQUENCE",
        "name": "onclickaccountstatemtnslandingKA",
        "params": [{
            "datatype": "collection",
            "name": "eventobject"
        }],
        "contextObj": {
            "name": "frmAccountDetailKA",
            "type": "forms",
            "platform": "",
            "KUID": "5ed703cad63c441882fc4a36f5ea0c28"
        },
        "language": "js",
        "actions": [{
            "id": "INVOKE_FUNCTION___489afd4ff4244c2c9d2d25ae55d2eb18",
            "type": "INVOKE_FUNCTION",
            "display": "firstTimeVisitAccountTermsForm",
            "inputparams": [],
            "parentId": null,
            "callbackType": null,
            "source": "module"
        }]
    }
}