{
    "AS_Form_fd77d4cbeb9d418f960977a7cd693719": {
        "id": "AS_Form_fd77d4cbeb9d418f960977a7cd693719",
        "type": "ACTION_SEQUENCE",
        "name": "onDeviceBackLocationDetails",
        "params": [{
            "datatype": "collection",
            "name": "eventobject"
        }],
        "contextObj": {
            "name": "frmLocationDetailsKA",
            "type": "forms",
            "platform": "",
            "KUID": "e7de264a6af64c4987f127a82acb7800"
        },
        "language": "js",
        "actions": [{
            "id": "ADD_SNIPPET__jeae56e9bdab434a88e1ecbf44d65434",
            "type": "ADD_SNIPPET",
            "codeSnippet": "frmLocatorKA.show();",
            "parentId": null,
            "callbackType": null
        }]
    }
}