{
    "AS_Form_jc6acd88647a4638956fd5632d7f3443": {
        "id": "AS_Form_jc6acd88647a4638956fd5632d7f3443",
        "type": "ACTION_SEQUENCE",
        "name": "onDeviceBackFromEstmtConfirm",
        "params": [{
            "datatype": "collection",
            "name": "eventobject"
        }],
        "contextObj": {
            "name": "frmEstatementConfirmKA",
            "type": "forms",
            "platform": null,
            "KUID": "jeebb130131d44348829571f3a6ba9c8"
        },
        "language": "js",
        "actions": [{
            "id": "ADD_SNIPPET__j1475cfde63d4dfcb522d168612bd97f",
            "type": "ADD_SNIPPET",
            "codeSnippet": "frmEstatementLandingKA.show();",
            "parentId": null,
            "callbackType": null
        }]
    }
}