{
    "AS_TextField_d17c3a9fee8e4fbdb873091c71f32296": {
        "id": "AS_TextField_d17c3a9fee8e4fbdb873091c71f32296",
        "type": "ACTION_SEQUENCE",
        "name": "ondonephoneRegJP",
        "params": [{
            "datatype": "collection",
            "name": "eventobject"
        }, {
            "datatype": "string",
            "name": "changedtext"
        }],
        "language": "js",
        "actions": [{
            "id": "ADD_SNIPPET_ide_onDone_jea79f77328b4ff4bef02ce6e6067834",
            "type": "ADD_SNIPPET",
            "codeSnippet": "animate_NEWCARDSOPTIOS(\"DOWN\",\"lblMobileNumberText\",frmJoMoPayRegistration.txtPhoneNo.text);\nanimate_NEWCARDSOPTIOS(\"UP\",\"lblEmailStatic\",frmJoMoPayRegistration.txtEmail.text);\nif(frmJoMoPayRegistration.txtPhoneNo.text!==\"\"&&frmJoMoPayRegistration.txtPhoneNo.text!==null)\n  {\nfrmJoMoPayRegistration.flxBorderMobileNumber.skin=\"skntextFieldDividerGreen\";\n  }\nelse\n  {\n    frmJoMoPayRegistration.flxBorderMobileNumber.skin=\"skntextFieldDividerJomoPay\";\n  }",
            "callbackType": null
        }]
    }
}