{
    "AS_TextField_fb7349c350ff4fdca0bcd0ac4b4209dd": {
        "id": "AS_TextField_fb7349c350ff4fdca0bcd0ac4b4209dd",
        "type": "ACTION_SEQUENCE",
        "name": "ondoneWeb",
        "params": [{
            "datatype": "collection",
            "name": "eventobject"
        }, {
            "datatype": "string",
            "name": "changedtext"
        }],
        "language": "js",
        "actions": [{
            "id": "ADD_SNIPPET_ide_onDone_g450a1c2b8fe458ba26c6e56a2cb2869",
            "type": "ADD_SNIPPET",
            "codeSnippet": "frmWebCharge.flxBorderAmount.skin=\"skntextFieldDividerGreen\";",
            "callbackType": null
        }]
    }
}