{
    "AS_TextField_d669cf1796924f769522d8f3eb03f365": {
        "id": "AS_TextField_d669cf1796924f769522d8f3eb03f365",
        "type": "ACTION_SEQUENCE",
        "name": "onDoneSearchManageCards",
        "params": [{
            "datatype": "collection",
            "name": "eventobject"
        }, {
            "datatype": "string",
            "name": "changedtext"
        }],
        "contextObj": {
            "name": "frmManageCardsKA",
            "type": "forms",
            "platform": "",
            "KUID": "75db60b6b4944b7faf9c556f4dbcaf8d"
        },
        "language": "js",
        "actions": [{
            "id": "ADD_SNIPPET__hc1e6d53f1cd4c32ae3e607cdc95b146",
            "type": "ADD_SNIPPET",
            "codeSnippet": "searchTransation();",
            "parentId": null,
            "callbackType": null
        }]
    }
}