{
    "AS_TextField_bac995ab61d747009936c9b961ac855c": {
        "id": "AS_TextField_bac995ab61d747009936c9b961ac855c",
        "type": "ACTION_SEQUENCE",
        "name": "onEndEditingofAmountTextBoxjomopay",
        "params": [{
            "datatype": "collection",
            "name": "eventobject"
        }, {
            "datatype": "string",
            "name": "changedtext"
        }],
        "contextObj": {
            "name": "frmJoMoPay",
            "type": "forms",
            "platform": "",
            "KUID": "d41a38dfc97d4e0a8f3b1db96d6a1ca0"
        },
        "language": "js",
        "actions": [{
            "id": "ADD_SNIPPET__fdeeacad84c341218de6104b08f20d28",
            "type": "ADD_SNIPPET",
            "codeSnippet": "onendediting();",
            "parentId": null,
            "callbackType": null
        }]
    }
}