{
    "AS_Form_i0bf97d045334061a78880a4609a40f9": {
        "id": "AS_Form_i0bf97d045334061a78880a4609a40f9",
        "type": "ACTION_SEQUENCE",
        "name": "onPreshowfrmFaceIDCapture",
        "params": [{
            "datatype": "collection",
            "name": "eventobject"
        }],
        "contextObj": {
            "name": "frmFaceIDCapture",
            "type": "forms",
            "platform": "",
            "KUID": "jdc67b20279844178c76bcb039e286bd"
        },
        "language": "js",
        "actions": [{
            "id": "ADD_SNIPPET__e371c65aab4f405fa0625c9d389ae510",
            "type": "ADD_SNIPPET",
            "codeSnippet": "kony.print(\"Removed\");",
            "parentId": null,
            "callbackType": null
        }]
    }
}