{
    "AS_Button_b49a60fcf6df4c69a3ec1c476ab73e33": {
        "id": "AS_Button_b49a60fcf6df4c69a3ec1c476ab73e33",
        "type": "ACTION_SEQUENCE",
        "name": "onRowClickJomoPayBeneficiary",
        "params": [{
            "datatype": "collection",
            "name": "eventobject"
        }],
        "language": "js",
        "actions": [{
            "id": "ADD_SNIPPET_ide_onClick_ge61ad46aff0416786003e2f97c6dfaf",
            "type": "ADD_SNIPPET",
            "codeSnippet": "if(kony.sdk.isNetworkAvailable())\n  { \n  \tgblTModule = \"jomoBiller\";\n\tgetAllAccounts();\n  }\nelse\n{\n   kony.sdk.mvvm.KonyApplicationContext.dismissLoadingScreen();\n        customAlertPopup(\"\", kony.i18n.getLocalizedString(\"i18n.errorMsg.deviceConnectionError\"), popupCommonAlertDimiss, \"\");\n}",
            "callbackType": null
        }]
    }
}