{
    "AS_Browser_c90cf007ad2a485ca56b9744b1295541": {
        "id": "AS_Browser_c90cf007ad2a485ca56b9744b1295541",
        "type": "ACTION_SEQUENCE",
        "name": "onSuccessBrowser",
        "params": [{
            "datatype": "collection",
            "name": "eventobject"
        }],
        "contextObj": {
            "type": "forms",
            "platform": null,
            "KUID": "b9fe351cda0b44398e4921e1449f41e0"
        },
        "language": "js",
        "actions": [{
            "id": "ADD_SNIPPET__d22f1a092c274eedbb355ef3958d7df5",
            "type": "ADD_SNIPPET",
            "codeSnippet": "kony.print(\"::: onSuccess :::\");",
            "parentId": null
        }]
    }
}