{
    "AS_TextField_ddf88f993079431789c712f1ad2a85fb": {
        "id": "AS_TextField_ddf88f993079431789c712f1ad2a85fb",
        "type": "ACTION_SEQUENCE",
        "name": "onTextChangeApplyCardsSupplementaryCardLimit",
        "params": [{
            "datatype": "collection",
            "name": "eventobject"
        }, {
            "datatype": "string",
            "name": "changedtext"
        }],
        "contextObj": {
            "name": "frmApplyNewCardsKA",
            "type": "forms",
            "platform": "",
            "KUID": "a05ce8d2e4404e40bfbc8dad585d28dc"
        },
        "language": "js",
        "actions": [{
            "id": "ADD_SNIPPET__f3e76baca2e64d3a9c5e4c88b583c4c6",
            "type": "ADD_SNIPPET",
            "codeSnippet": "if(new RegExp(/[^0-9]/g).test(frmApplyNewCardsKA.txtSuplementryCardLimit.text)){\n   frmApplyNewCardsKA.flxBorderSuplementryCardLimit.skin = \"sknFlxOrangeLine\";\n}else{\n  frmApplyNewCardsKA.flxBorderSuplementryCardLimit.skin = \"skntextFieldDividerGreen\";\n}\nvalidate_APPLYCARDSDETAILS();",
            "parentId": null
        }]
    }
}