{
    "AS_TextField_e6a8afebd96e4a409322c6f74d829986": {
        "id": "AS_TextField_e6a8afebd96e4a409322c6f74d829986",
        "type": "ACTION_SEQUENCE",
        "name": "onTEJIDRegJP",
        "params": [{
            "datatype": "collection",
            "name": "eventobject"
        }, {
            "datatype": "string",
            "name": "x"
        }, {
            "datatype": "string",
            "name": "y"
        }],
        "contextObj": {
            "name": "frmJoMoPayRegistration",
            "type": "forms",
            "platform": null,
            "KUID": "h0b4f51069c74c7bbbbd6798301d77d6"
        },
        "language": "js",
        "actions": [{
            "id": "ADD_SNIPPET__de98130ec755483c91e35e07f9433a4f",
            "type": "ADD_SNIPPET",
            "codeSnippet": "animate_NEWCARDSOPTIOS(\"UP\",\"lblJomopayIDstatic\",frmJoMoPayRegistration.txtJomopayID.text);\n// frmJoMoPayRegistration.txtJomopayID.setFocus();",
            "parentId": null,
            "callbackType": null
        }]
    }
}