{
    "AS_TextField_e30846faa3e2449c9b8361ac6331f246": {
        "id": "AS_TextField_e30846faa3e2449c9b8361ac6331f246",
        "type": "ACTION_SEQUENCE",
        "name": "onTextChangeApplyCardsRequestLimit",
        "params": [{
            "datatype": "collection",
            "name": "eventobject"
        }, {
            "datatype": "string",
            "name": "changedtext"
        }],
        "contextObj": {
            "name": "frmApplyNewCardsKA",
            "type": "forms",
            "platform": "",
            "KUID": "a05ce8d2e4404e40bfbc8dad585d28dc"
        },
        "language": "js",
        "actions": [{
            "id": "ADD_SNIPPET__aa29490872fe45acaf70d8af9a6c9ab4",
            "type": "ADD_SNIPPET",
            "codeSnippet": "if(new RegExp(/[^0-9]/g).test(frmApplyNewCardsKA.txtRequestLimit.text)){\n   frmApplyNewCardsKA.flxBorderRequestLimit.skin = \"sknFlxOrangeLine\";\n}else{\n  validate_APPLYCARDSDETAILS();\n  if(kony.newCARD.cardTYPE === \"UpgradeCreditCard\"){\n    if(frmApplyNewCardsKA.lblPrimaryCardNumber.text !== \"\"){\n    \tfrmApplyNewCardsKA.flxBorderRequestLimit.skin = \"skntextFieldDividerGreen\";\n  \t\tshow_CARD_TYPE(frmApplyNewCardsKA.txtRequestLimit.text, kony.store.getItem(\"frmAccount\").card_limit);\n    }else{\n    \tfrmApplyNewCardsKA.txtRequestLimit.text = \"\";\n    \tfrmApplyNewCardsKA.flxBorderCreditCardNumber.skin = \"sknFlxOrangeLine\";\n    }\n  }//else\tfrmApplyNewCardsKA.flxBorderRequestLimit.skin = \"skntextFieldDividerGreen\";\n}",
            "parentId": null
        }]
    }
}