{
    "AS_TextField_b4450214b4fa4eddaaeef3b478ce03a6": {
        "id": "AS_TextField_b4450214b4fa4eddaaeef3b478ce03a6",
        "type": "ACTION_SEQUENCE",
        "name": "ontextchangenumbercard",
        "params": [{
            "datatype": "collection",
            "name": "eventobject"
        }, {
            "datatype": "string",
            "name": "changedtext"
        }],
        "contextObj": {
            "name": "frmCreditCardPayment",
            "type": "forms",
            "platform": "",
            "KUID": "ifc6e17e00ef473bb51f2718c349cfba"
        },
        "language": "js",
        "actions": [{
            "id": "ADD_SNIPPET__e213be46036644e9b2f2ac6d0e392550",
            "type": "ADD_SNIPPET",
            "codeSnippet": "ontextchangeothercard();\n",
            "parentId": null,
            "callbackType": null
        }]
    }
}