{
    "AS_TextField_i1377425d0c344f1b4a3d571a1f60ee6": {
        "id": "AS_TextField_i1377425d0c344f1b4a3d571a1f60ee6",
        "type": "ACTION_SEQUENCE",
        "name": "onTextChangeAmntfrmBills",
        "params": [{
            "datatype": "collection",
            "name": "eventobject"
        }, {
            "datatype": "string",
            "name": "changedtext"
        }],
        "contextObj": {
            "name": "frmBills",
            "type": "forms",
            "platform": "",
            "KUID": "ade6df6ecf3c4acba302ea54bc0a2e56"
        },
        "language": "js",
        "actions": [{
            "id": "ADD_SNIPPET__ff0f2e563a824ea99a82d71edf45b319",
            "type": "ADD_SNIPPET",
            "codeSnippet": "frmBills.tbxAmount.text = restrictoThreeDecimals(frmBills.tbxAmount.text);\nfrmBills.lblHiddenAmnt.text = frmBills.tbxAmount.text;\n//frmBills.tbxAmount.text = fixDecimal(frmBills.tbxAmount.text, \"3\" );\nvalidateFrmBills();",
            "parentId": null,
            "callbackType": null
        }]
    }
}