{
    "AS_TextField_fcf6f61e280d4771b3bfad83e746e186": {
        "id": "AS_TextField_fcf6f61e280d4771b3bfad83e746e186",
        "type": "ACTION_SEQUENCE",
        "name": "onTouchEndApplyCardTransferedSalary",
        "params": [{
            "datatype": "collection",
            "name": "eventobject"
        }, {
            "datatype": "string",
            "name": "x"
        }, {
            "datatype": "string",
            "name": "y"
        }],
        "contextObj": {
            "name": "frmApplyNewCardsKA",
            "type": "forms",
            "platform": "",
            "KUID": "a05ce8d2e4404e40bfbc8dad585d28dc"
        },
        "language": "js",
        "actions": [{
            "id": "ADD_SNIPPET__dc8b216bc81f4cf68c585bd6a0ccadfe",
            "type": "ADD_SNIPPET",
            "codeSnippet": "animate_NEWCARDSOPTIOS(\"UP\", \"lblTransferedSalaryTitle\", frmApplyNewCardsKA.txtTransferedSalary.text);",
            "parentId": null,
            "callbackType": null
        }]
    }
}