{
    "AS_TextField_c1b90702f3b74ae886af4c88db5bdf0c": {
        "id": "AS_TextField_c1b90702f3b74ae886af4c88db5bdf0c",
        "type": "ACTION_SEQUENCE",
        "name": "Ontouchendpwd",
        "params": [{
            "datatype": "collection",
            "name": "eventobject"
        }, {
            "datatype": "string",
            "name": "x"
        }, {
            "datatype": "string",
            "name": "y"
        }],
        "contextObj": {
            "type": "forms",
            "platform": "",
            "KUID": "b23e60c123394ec29532b269965d2c01"
        },
        "language": "js",
        "actions": [{
            "id": "ADD_SNIPPET__f6a9c61b26a44d70ba2f14b3461b921f",
            "type": "ADD_SNIPPET",
            "codeSnippet": "try{\nanimateLabel(\"UP\",\"lblPasswordTitle\",frmCardsAddUser.txtPassword.text);\n  frmCardsAddUser.flxBorderPassword.skin = \"sknFlxBlueLine\";\n}catch(err){\n  kony.print( \"err in pwd::\"+err);\n}",
            "parentId": null,
            "callbackType": null
        }]
    }
}