{
    "AS_TextField_f6a1e19aa5ab4f8595dfba98e2bfe6e4": {
        "id": "AS_TextField_f6a1e19aa5ab4f8595dfba98e2bfe6e4",
        "type": "ACTION_SEQUENCE",
        "name": "onTouchEndAddressCity",
        "params": [{
            "datatype": "collection",
            "name": "eventobject"
        }, {
            "datatype": "string",
            "name": "x"
        }, {
            "datatype": "string",
            "name": "y"
        }],
        "contextObj": {
            "name": "frmUserSettingsMyProfileKA",
            "type": "forms",
            "platform": "",
            "KUID": "469d331305a541b8b65c6d8bdf903828"
        },
        "language": "js",
        "actions": [{
            "id": "ADD_SNIPPET__af496d97197d431390db4c2184fbcad0",
            "type": "ADD_SNIPPET",
            "codeSnippet": "animateLabel(\"UP\",\"lblCity\",frmUserSettingsMyProfileKA.txtCity.text);",
            "parentId": null
        }]
    }
}