{
    "AS_Label_d888c826e4a14fc180df1fcb18d1b18b": {
        "id": "AS_Label_d888c826e4a14fc180df1fcb18d1b18b",
        "type": "ACTION_SEQUENCE",
        "name": "onTouchEndEditBillerClose",
        "params": [{
            "datatype": "collection",
            "name": "eventobject"
        }, {
            "datatype": "string",
            "name": "x"
        }, {
            "datatype": "string",
            "name": "y"
        }],
        "contextObj": {
            "name": "frmEditPayeeKA",
            "type": "forms",
            "platform": "",
            "KUID": "acf9bb71b94d4dc3ac913d05db7ddee3"
        },
        "language": "js",
        "actions": [{
            "id": "ADD_SNIPPET__ia041da1ebdb487fa2ae5c0a883ece8f",
            "type": "ADD_SNIPPET",
            "codeSnippet": "customAlertPopup(geti18Value(\"i18n.cards.Confirmation\"), \n                   geti18Value(\"i18n.bills.editbillernameexit\"),\n                   onClickYesClose, onClickNoClose, \n                   geti18Value(\"i18n.login.continue\"),\n                   geti18Value(\"i18n.cashWithdraw.cancel\"));\n\nfunction onClickYesClose(){\n  popupCommonAlertDimiss();\n  frmManagePayeeKA.show();;\n}\n\nfunction onClickNoClose(){\n  popupCommonAlertDimiss();\n}",
            "parentId": null,
            "callbackType": null
        }]
    }
}