{
    "AS_Label_ca992aefd2544a18a9972179c30e66cc": {
        "id": "AS_Label_ca992aefd2544a18a9972179c30e66cc",
        "type": "ACTION_SEQUENCE",
        "name": "openISaver",
        "params": [{
            "datatype": "collection",
            "name": "eventobject"
        }, {
            "datatype": "string",
            "name": "x"
        }, {
            "datatype": "string",
            "name": "y"
        }],
        "contextObj": {
            "name": "frmAccountInfoKA",
            "type": "forms",
            "platform": "",
            "KUID": "b2f984d11c5244e6ae5f81fe393d837e"
        },
        "language": "js",
        "actions": [{
            "id": "ADD_SNIPPET__d035e1cc401d4892bd0c18d5846c4658",
            "type": "ADD_SNIPPET",
            "codeSnippet": "gblTModule = \"accountInfo\";\nfrmSmartInfo.show();",
            "parentId": null,
            "callbackType": null
        }]
    }
}