{
    "AS_Label_bb0384c0cfee484ebf977de08f12a4aa": {
        "id": "AS_Label_bb0384c0cfee484ebf977de08f12a4aa",
        "type": "ACTION_SEQUENCE",
        "name": "openISaverFromNEwSub",
        "params": [{
            "datatype": "collection",
            "name": "eventobject"
        }, {
            "datatype": "string",
            "name": "x"
        }, {
            "datatype": "string",
            "name": "y"
        }],
        "contextObj": {
            "name": "frmNewSubAccountLandingNew",
            "type": "forms",
            "platform": "",
            "KUID": "i277bc3c8d71465085f48b35ef80c31b"
        },
        "language": "js",
        "actions": [{
            "id": "ADD_SNIPPET__a1ebf1961d184894a498d919a6b7ab86",
            "type": "ADD_SNIPPET",
            "codeSnippet": "gblTModule = \"newSubAccount\";\nfrmSmartInfo.show();",
            "parentId": null,
            "callbackType": null
        }]
    }
}