{
    "AS_FlexContainer_g8db948c50404fc5a00f2cc609ab2aa0": {
        "id": "AS_FlexContainer_g8db948c50404fc5a00f2cc609ab2aa0",
        "type": "ACTION_SEQUENCE",
        "name": "openemail",
        "params": [{
            "datatype": "collection",
            "name": "eventobject"
        }],
        "contextObj": {
            "name": "frmInformationKA",
            "type": "forms",
            "platform": "",
            "KUID": "f18169832ba24ba09c8780278abfc207"
        },
        "language": "js",
        "actions": [{
            "id": "ADD_SNIPPET__c7cbdd9c20dd415d9071fe50eefbbdb3",
            "type": "ADD_SNIPPET",
            "codeSnippet": "sendemail();",
            "parentId": null,
            "callbackType": null
        }]
    }
}