{
    "AS_Form_cb073edae53142e2873a65545b38bf17": {
        "id": "AS_Form_cb073edae53142e2873a65545b38bf17",
        "type": "ACTION_SEQUENCE",
        "name": "postShowATMPOSLimit",
        "params": [{
            "datatype": "collection",
            "name": "eventobject"
        }],
        "contextObj": {
            "name": "frmATMPOSLimit",
            "type": "forms",
            "platform": "",
            "KUID": "j80a8c138d2b4f1e84c03bcdca145900"
        },
        "language": "js",
        "actions": [{
            "id": "ADD_SNIPPET__f0bf660ec2e34581b626030d0cfb80ad",
            "type": "ADD_SNIPPET",
            "codeSnippet": "animateLabel(\"UP\",\"lblWithdrawalLimitTitle\",frmATMPOSLimit.txtWithdrawalLimit.text);\nanimateLabel(\"UP\",\"lblPOSLimitTitle\",frmATMPOSLimit.txtPOSLimit.text);",
            "parentId": null,
            "callbackType": null
        }]
    }
}