{
    "AS_Button_33554761278247488789aa24c5ce1521": {
        "id": "AS_Button_33554761278247488789aa24c5ce1521",
        "type": "ACTION_SEQUENCE",
        "name": "repeatDepositTransactionClick",
        "params": [{
            "datatype": "collection",
            "name": "eventobject"
        }],
        "contextObj": {
            "type": "forms",
            "platform": null,
            "KUID": "16c2dcb88c834f8eb1f478995789a5f2"
        },
        "language": "js",
        "actions": [{
            "id": "NAVIGATE_TO_FORM__ide_onClick_f1e0259dd94543c686b2f59a8e5ce411",
            "type": "NAVIGATE_TO_FORM",
            "formKUID": "3ef26f9acd5b475cb1fdad0f87db5781",
            "mappings": {},
            "mappingsOrder": [],
            "parentId": "",
            "callbackType": null,
            "enableMappingEditor": true,
            "navigationObj": "{\n    \"_meta_\": {\n        \"eventName\": \"\",\n        \"widgetId\": \"\"\n    }\n}",
            "isCustomInput": false
        }]
    }
}