{
    "AS_Button_5be6fadb298145d7b15d8be4b19e6dc9": {
        "id": "AS_Button_5be6fadb298145d7b15d8be4b19e6dc9",
        "type": "ACTION_SEQUENCE",
        "name": "signinOnclick",
        "params": [{
            "datatype": "collection",
            "name": "eventobject"
        }],
        "language": "js",
        "actions": [{
            "id": "ADD_SNIPPET__c8dc30e1675149b9b9d8486825153a47",
            "type": "ADD_SNIPPET",
            "codeSnippet": "kony.application.showLoadingScreen(null,\"\", constants.LOADING_SCREEN_POSITION_ONLY_CENTER, true, true, null);\nonClickLogin();",
            "parentId": null,
            "callbackType": null
        }]
    }
}