{
    "AS_Button_9365e55f77244f769e7c1ec140c8fa6d": {
        "id": "AS_Button_9365e55f77244f769e7c1ec140c8fa6d",
        "type": "ACTION_SEQUENCE",
        "name": "TransferConfirmScreen_ANDbtnBack",
        "params": [{
            "datatype": "collection",
            "name": "eventobject"
        }],
        "contextObj": {
            "name": "frmConfirmTransferKA",
            "type": "forms",
            "platform": "",
            "KUID": "79e9f0ae27394db6b3b371dc6ca4520b"
        },
        "language": "js",
        "actions": [{
            "id": "ADD_SNIPPET__2e8e088dacad43559d704b0cf3578be1",
            "type": "ADD_SNIPPET",
            "codeSnippet": "if(gblTModule!=\"web\"){\n  frmNewTransferKA.show();\n}\nelse{\n  frmWebCharge.show();\n}",
            "parentId": null,
            "callbackType": null
        }]
    }
}