{
    "@class": "com.kony.gen.viz.model.component.KVizButton",
    "DNDConfig": null,
    "__parentReadjusting__": false,
    "_height_": {
        "type": "string",
        "value": "100%"
    },
    "_left_": {
        "type": "string",
        "value": "0%"
    },
    "_margin_": [
        6,
        6,
        6,
        6
    ],
    "_padding_": [
        0,
        0,
        0,
        0
    ],
    "_skin_": "s11bf16b2f204f8584ad51e44887c74d",
    "_text_": "All",
    "_top_": {
        "type": "string",
        "value": "0dp"
    },
    "_width_": {
        "type": "string",
        "value": "25%"
    },
    "canUpdateUI": true,
    "centery": {
        "type": "string",
        "value": "50%"
    },
    "containerweight": 100,
    "contentalignment": 5,
    "displaytext": true,
    "focusskin": "s0eacd0585e64c81a58d225fcf6cd7c5",
    "id": "btnAll",
    "ide_onClick": "AS_Button_j2a9139b75c04ccab872a570a97ab7f3",
    "info": null,
    "iscustomlayout": true,
    "isvisible": true,
    "kuid": "cbadec5110234f159a85cf028ad95250",
    "name": "kony.ui.Button",
    "paddinginpixel": false,
    "parent": "flxContent",
    "pf": "frmManageCardLess",
    "retainflexpositionproperties": false,
    "texti18n": "i18n.Bene.All",
    "wType": "Button",
    "zindex": 2
}