{
    "DNDConfig": null,
    "__parentReadjusting__": false,
    "_height_": {
        "type": "ref",
        "value": "preferred"
    },
    "_left_": {
        "type": "string",
        "value": "0%"
    },
    "_margin_": [
        0,
        0,
        0,
        0
    ],
    "_orientation_": 6,
    "_padding_": [
        0,
        0,
        0,
        0
    ],
    "_percent_": true,
    "_skin_": "sa3bdf39cb43420287e6a256e0a410d5",
    "_top_": {
        "type": "string",
        "value": "5%"
    },
    "_width_": {
        "type": "string",
        "value": "100%"
    },
    "allboxes": [],
    "autogrowmode": 1,
    "canUpdateUI": true,
    "children": [
        "flxSortTitle",
        "flxDate",
        "flxAmount"
    ],
    "clipbounds": true,
    "containerweight": 100,
    "enablescrolling": true,
    "id": "flxAccountDetailsSort",
    "ide_onClick": "AS_FlexContainer_b79350c8460e4c76aabfa4b2bc5dcf34",
    "info": null,
    "isvisible": true,
    "kuid": "c59939641ceb496583d9459bc37aa3c5",
    "layouttype": 4,
    "name": "kony.ui.FlexContainer",
    "parent": "frmStandingInstructions",
    "pf": "frmStandingInstructions",
    "snapgridsize": 10,
    "snaptogrid": true,
    "wType": "FlexContainer",
    "widgetalignment": 1,
    "zindex": 3
}