{
    "@class": "com.kony.gen.viz.model.component.KVizRichText",
    "DNDConfig": null,
    "__parentReadjusting__": false,
    "_height_": {
        "type": "ref",
        "value": "preferred"
    },
    "_left_": {
        "type": "string",
        "value": "0dp"
    },
    "_margin_": [
        0,
        0,
        0,
        0
    ],
    "_padding_": [
        0,
        0,
        0,
        0
    ],
    "_skin_": "s63518157ffe443c97b3e03d9afd4918",
    "_text_": "<U>RichText</U>",
    "_top_": {
        "type": "string",
        "value": "0dp"
    },
    "_width_": {
        "type": "string",
        "value": "100%"
    },
    "_wrapping_": 2,
    "canUpdateUI": true,
    "containerweight": 100,
    "contentalignment": 4,
    "id": "richtxtTermsandCondition",
    "info": null,
    "isvisible": true,
    "kuid": "ba244ebdc56547d5be7d987a7edd6942",
    "name": "kony.ui.RichText",
    "parent": "flxTncBody",
    "pf": "frmEstatementLandingKA",
    "wType": "RichText",
    "widgetalignment": 5,
    "zindex": 1
}