{
    "DNDConfig": null,
    "__parentReadjusting__": false,
    "_height_": {
        "type": "string",
        "value": "5dp"
    },
    "_margin_": [
        0,
        0,
        0,
        0
    ],
    "_orientation_": 6,
    "_padding_": [
        0,
        0,
        0,
        0
    ],
    "_percent_": true,
    "_skin_": "s388f0c575ef4d08ac3a5ed0a4b90085",
    "_top_": {
        "type": "string",
        "value": "85%"
    },
    "_width_": {
        "type": "string",
        "value": "60%"
    },
    "allboxes": [],
    "autogrowmode": 0,
    "canUpdateUI": true,
    "centerx": {
        "type": "string",
        "value": "50%"
    },
    "children": [
        "CopytxtOTP0b4b452c99d2a4c",
        "CopylblTxt0e55a33a1d3724c",
        "CopylblTxt0a6e4aff004a64a",
        "CopylblTxt0c0d96837cca54f",
        "CopylblTxt0ca6dd394b1264c",
        "CopylblTxt0f822a2764e6e43",
        "CopylblTxt0b40ef011641e4a",
        "CopyflxLine0ac6a986644c545",
        "CopyflxLine0gb39f129db9840",
        "CopyflxLine0c1a857fd703e41",
        "CopyflxLine0c12556135a4c46",
        "CopyflxLine0d941e26d04ce43",
        "CopyflxLine0b13c4703875a40"
    ],
    "clipbounds": true,
    "containerweight": 100,
    "enablescrolling": true,
    "id": "CopyflxEnterOTP0d6f18ec15b1843",
    "info": null,
    "isvisible": true,
    "kuid": "ieb452707a3a44009ded383aa1ded173",
    "layouttype": 2,
    "name": "kony.ui.FlexContainer",
    "parent": "flxIphoneCustomWid",
    "pf": "frmNewUserOnboardVerificationKA",
    "snapgridsize": 10,
    "snaptogrid": true,
    "wType": "FlexContainer",
    "widgetalignment": 1,
    "zindex": 1
}