{
    "DNDConfig": null,
    "__parentReadjusting__": false,
    "_height_": {
        "type": "string",
        "value": "2dp"
    },
    "_left_": {
        "type": "string",
        "value": "0dp"
    },
    "_margin_": [
        0,
        0,
        0,
        0
    ],
    "_orientation_": 6,
    "_padding_": [
        0,
        0,
        0,
        0
    ],
    "_percent_": true,
    "_skin_": "sbc33bfb6fda4fd69c548bf18787172b",
    "_top_": {
        "type": "string",
        "value": "42dp"
    },
    "_width_": {
        "type": "string",
        "value": "100%"
    },
    "allboxes": [],
    "autogrowmode": 0,
    "canUpdateUI": true,
    "children": [],
    "clipbounds": true,
    "containerweight": 100,
    "enablescrolling": true,
    "id": "flxCustWidLine",
    "info": null,
    "isvisible": false,
    "kuid": "b5dc2f380798441b846d5870a2aa34a8",
    "layouttype": 2,
    "name": "kony.ui.FlexContainer",
    "parent": "flxIphoneCustomWid",
    "pf": "frmNewUserOnboardVerificationKA",
    "snapgridsize": 10,
    "snaptogrid": true,
    "wType": "FlexContainer",
    "widgetalignment": 1,
    "zindex": 1
}