{
    "@class": "com.kony.gen.viz.model.component.KVizButton",
    "DNDConfig": null,
    "__parentReadjusting__": false,
    "_height_": {
        "type": "string",
        "value": "42dp"
    },
    "_left_": {
        "type": "string",
        "value": "0%"
    },
    "_margin_": [
        6,
        6,
        6,
        6
    ],
    "_padding_": [
        0,
        0,
        0,
        0
    ],
    "_skin_": "s4f43539c9bd40b0b5c5b2ae565dc51c",
    "_text_": "d",
    "_top_": {
        "type": "string",
        "value": "15dp"
    },
    "_width_": {
        "type": "string",
        "value": "27%"
    },
    "canUpdateUI": true,
    "containerweight": 100,
    "contentalignment": 6,
    "displaytext": true,
    "focusskin": "sfdddcea6cff4d788f42120343a323ef",
    "id": "btnMobileCode",
    "ide_onClick": "AS_Button_bbbc2c65e1f44ad1ab5535752d14ec6e",
    "info": null,
    "isvisible": true,
    "kuid": "i3d6d69dd3fa431f86a6cc24a70682ef",
    "name": "kony.ui.Button",
    "parent": "flxMobContainer",
    "pf": "frmRegisterUser",
    "wType": "Button",
    "zindex": 5
}