{
    "@class": "com.kony.gen.viz.model.component.KVizTextBox2",
    "DNDConfig": null,
    "__parentReadjusting__": false,
    "_height_": {
        "type": "string",
        "value": "40dp"
    },
    "_left_": {
        "type": "string",
        "value": "32%"
    },
    "_margin_": [
        0,
        0,
        0,
        0
    ],
    "_padding_": [
        0,
        0,
        0,
        0
    ],
    "_placeholder_": "",
    "_skin_": "sbe3b6583137485a9048da0950095a9e",
    "_text_": "",
    "_top_": {
        "type": "string",
        "value": "15dp"
    },
    "_width_": {
        "type": "string",
        "value": "69%"
    },
    "autocapitalize": "none",
    "autocomplete": false,
    "autocorrect": false,
    "autofilter": false,
    "canUpdateUI": true,
    "containerheight": "",
    "containerheightmode": 1,
    "containerweight": 100,
    "contentalignment": 7,
    "focusskin": "sbe3b6583137485a9048da0950095a9e",
    "id": "txtMobileNumber",
    "ide_onTextChange": "AS_TextField_e9288e87d81c4499834424923a3d70c6",
    "info": null,
    "iphone": {},
    "isvisible": true,
    "keyboardstyle": "digitpad",
    "keyboardtype": "A",
    "kuid": "ace2d6349990441d9a60527e1a5cc514",
    "maxtextlength": 20,
    "mode": "N",
    "name": "kony.ui.TextBox2",
    "paddinginpixel": false,
    "parent": "flxMobContainer",
    "pf": "frmRegisterUser",
    "placeholderi18n": "i18n.myprofile.MobileNumber",
    "placeholderskin": "sec4b6ca5ea1469a9a3c05b25922dd4f",
    "securetextentry": false,
    "textinputmode": "N",
    "viewtype": "default",
    "wType": "TextField",
    "zindex": 1
}