{
  "operationConfig" : {
    "name" : "getPreviousBillsForBiller6633",
    "type" : "MappedToBackend",
    "cachable" : false,
    "smsEnabled" : false,
    "security" : "authorized_app_user",
    "responseEncoding" : "UTF-8",
    "httpMethod" : "GET",
    "decodeResponseBody" : false,
    "iMapping" : "<?xml version=\"1.0\" encoding=\"UTF-8\" standalone=\"yes\"?><mapper xmlns=\"http://www.kony.com/ns/mapper\">  <map inputpath=\"request_in\" outputpath=\"request_out\">    <set-param inputpath=\"payeeId\" outputpath=\"PayeeId\"/>  </map></mapper>",
    "oMapping" : "<?xml version=\"1.0\" encoding=\"UTF-8\" standalone=\"yes\"?><mapper xmlns=\"http://www.kony.com/ns/mapper\">  <map inputpath=\"response_in\" outputpath=\"response_out\">    <map inputpath=\"Bills\" outputpath=\"Bills\">      <set-param inputpath=\"ebillStatus\" outputpath=\"ebillStatus\"/>      <set-param inputpath=\"fromAccountNumber\" outputpath=\"fromAccountNumber\"/>      <set-param inputpath=\"fromAccountName\" outputpath=\"fromAccountName\"/>      <set-param inputpath=\"description\" outputpath=\"description\"/>      <set-param inputpath=\"balanceAmount\" outputpath=\"balanceAmount\"/>      <set-param inputpath=\"billerCategory\" outputpath=\"billerCategory\"/>      <set-param inputpath=\"payeeName\" outputpath=\"payeeName\"/>      <set-param inputpath=\"paidDate\" outputpath=\"paidDate\"/>      <set-param inputpath=\"dueAmount\" outputpath=\"dueAmount\"/>      <set-param inputpath=\"billGeneratedDate\" outputpath=\"billGeneratedDate\"/>      <set-param inputpath=\"id\" outputpath=\"id\"/>      <set-param inputpath=\"billDueDate\" outputpath=\"billDueDate\"/>      <set-param inputpath=\"paidAmount\" outputpath=\"paidAmount\"/>    </map>  </map></mapper>",
    "applyCommonMapping" : true,
    "backendMeta" : {
      "serviceVersion" : "1.0",
      "operationName" : "getPreviousBillsForBiller",
      "serviceName" : "RetailBankingBEServices"
    },
    "relationshipHierarchyMapping" : {
      "children" : [ ],
      "name" : "Bills",
      "selected" : true
    },
    "requestXmlMappingOverride" : true,
    "responseXmlMappingOverride" : true
  }
}