{
    "@class": "com.kony.gen.viz.model.component.KVizButton",
    "DNDConfig": null,
    "__parentReadjusting__": false,
    "_height_": {
        "type": "string",
        "value": "100%"
    },
    "_left_": {
        "type": "string",
        "value": "0%"
    },
    "_margin_": [
        6,
        6,
        6,
        6
    ],
    "_padding_": [
        0,
        0,
        0,
        0
    ],
    "_skin_": "s1858dc0a19e403a93a532b59571c961",
    "_text_": "q",
    "_top_": {
        "type": "string",
        "value": "0%"
    },
    "_width_": {
        "type": "string",
        "value": "8%"
    },
    "canUpdateUI": true,
    "containerweight": 100,
    "contentalignment": 5,
    "displaytext": true,
    "focusskin": "s1858dc0a19e403a93a532b59571c961",
    "id": "btnFavCheckBox",
    "ide_onClick": "AS_Button_ecad49a2f10f442d9fbad39dd075420d",
    "info": null,
    "isvisible": true,
    "kuid": "d5553ad5be974eed9307c7fd20f06a84",
    "name": "kony.ui.Button",
    "parent": "flxFav",
    "pf": "frmJOMOPayAddBiller",
    "wType": "Button",
    "zindex": 1
}