{
    "@class": "com.kony.gen.viz.model.component.KVizButton",
    "DNDConfig": null,
    "__markedForDelete__": true,
    "__parentReadjusting__": false,
    "_height_": {
        "type": "string",
        "value": "35dp"
    },
    "_margin_": [
        6,
        6,
        6,
        6
    ],
    "_padding_": [
        0,
        0,
        0,
        0
    ],
    "_skin_": "s94d80e187a44bd9bb9ce6db5e729010",
    "_text_": "Edit",
    "_top_": {
        "type": "string",
        "value": "5dp"
    },
    "_width_": {
        "type": "string",
        "value": "260dp"
    },
    "canUpdateUI": true,
    "centerx": {
        "type": "string",
        "value": "50%"
    },
    "containerweight": 100,
    "contentalignment": 5,
    "displaytext": true,
    "focusskin": "s6e8459b84e349d98629a088bbfe1304",
    "id": "btnEditTranscation",
    "ide_onClick": "AS_Button_f1c082ac669e4f5f8f40ac8e08d72696",
    "info": null,
    "isvisible": true,
    "kuid": "b1d0fd8031f7423b82a9f8414e3aed1d",
    "name": "kony.ui.Button",
    "parent": "flexMainContainer",
    "pf": "frmConfirmP2PRegistrationKA",
    "texti18n": "i18n.P2P.edit",
    "wType": "Button",
    "zindex": 1
}