{
    "@class": "com.kony.gen.viz.model.component.KVizButton",
    "DNDConfig": null,
    "__parentReadjusting__": false,
    "_height_": {
        "type": "string",
        "value": "100%"
    },
    "_left_": {
        "type": "string",
        "value": "0%"
    },
    "_margin_": [
        6,
        6,
        6,
        6
    ],
    "_padding_": [
        0,
        0,
        0,
        0
    ],
    "_render_": true,
    "_skin_": "s613c797da28403fb1bd4994edcec465",
    "_text_": "Y",
    "_top_": {
        "type": "string",
        "value": "0%"
    },
    "_width_": {
        "type": "string",
        "value": "50%"
    },
    "android": {
        "render": true
    },
    "canUpdateUI": true,
    "containerweight": 100,
    "contentalignment": 5,
    "displaytext": true,
    "focusskin": "s613c797da28403fb1bd4994edcec465",
    "id": "btnNotification",
    "info": null,
    "iphone": {
        "render": true
    },
    "isvisible": false,
    "kuid": "be34a0b4cab1476d9c21dc64bc4f08dc",
    "name": "kony.ui.Button",
    "parent": "FlexContainer0b9fde1e61d3c44",
    "pf": "frmManageCardsKA",
    "spaan": {
        "render": true
    },
    "spabb": {
        "render": true
    },
    "spaip": {
        "render": true
    },
    "spawinphone8": {
        "render": true
    },
    "wType": "Button",
    "winphone8": {
        "render": true
    },
    "zindex": 1
}