{
    "DNDConfig": null,
    "__parentReadjusting__": false,
    "_height_": {
        "type": "string",
        "value": "22%"
    },
    "_left_": {
        "type": "string",
        "value": "0%"
    },
    "_margin_": [
        0,
        0,
        0,
        0
    ],
    "_padding_": [
        0,
        0,
        0,
        0
    ],
    "_skin_": "s77117634aa14e58908cea4332c51ada",
    "_top_": {
        "type": "string",
        "value": "0%"
    },
    "_width_": {
        "type": "string",
        "value": "100%"
    },
    "allboxes": [],
    "autogrowmode": 0,
    "canUpdateUI": true,
    "children": [
        "Copydivider00226d2663f3c46",
        "btnCancleKA",
        "CopybtnInfo0d62bd32ad43e45",
        "lblCancelCard",
        "lblCancelDesc",
        "CopySwitch0jca424a0abe547",
        "flxcancelSwitchOff",
        "flxcancelSwitchOn"
    ],
    "clipbounds": true,
    "containerweight": 100,
    "enabled": false,
    "enablescrolling": true,
    "id": "flxCancelKA",
    "ide_onClick": "AS_FlexContainer_aa4bd4fceed14c889dae2ad541b38557",
    "info": null,
    "isvisible": false,
    "kuid": "451535aff4094badadb7b752b264a624",
    "layouttype": 2,
    "name": "kony.ui.FlexContainer",
    "orientation": 6,
    "parent": "accountsOuterScroll",
    "percent": true,
    "pf": "frmManageCardsKA",
    "snapgridsize": 10,
    "snaptogrid": true,
    "wType": "FlexContainer",
    "widgetalignment": 1,
    "zindex": 1
}