{
    "DNDConfig": null,
    "__parentReadjusting__": false,
    "_height_": {
        "type": "string",
        "value": "22%"
    },
    "_left_": {
        "type": "string",
        "value": "0%"
    },
    "_margin_": [
        0,
        0,
        0,
        0
    ],
    "_orientation_": 6,
    "_padding_": [
        0,
        0,
        0,
        0
    ],
    "_percent_": true,
    "_skin_": "s388f0c575ef4d08ac3a5ed0a4b90085",
    "_top_": {
        "type": "string",
        "value": "0%"
    },
    "_width_": {
        "type": "string",
        "value": "100%"
    },
    "allboxes": [],
    "autogrowmode": 0,
    "canUpdateUI": true,
    "children": [
        "CopylblCcPaynowIcon0g744f3e6b04947",
        "CopylblStaticPayCredit0d13bc64ee1da46",
        "Copydivider0b9d7b194f2eb47"
    ],
    "clipbounds": true,
    "containerweight": 100,
    "enablescrolling": true,
    "id": "flxCardLimitUpdate",
    "ide_onClick": "AS_FlexContainer_ddf42bc10fe04798976309009236eebe",
    "info": null,
    "isvisible": true,
    "kuid": "ad5e0b7ab9364d989d68291a4a1f3fd9",
    "layouttype": 2,
    "name": "kony.ui.FlexContainer",
    "parent": "accountsOuterScroll",
    "pf": "frmManageCardsKA",
    "snapgridsize": 10,
    "snaptogrid": true,
    "wType": "FlexContainer",
    "widgetalignment": 1,
    "zindex": 1
}