{
    "DNDConfig": null,
    "__parentReadjusting__": false,
    "_height_": {
        "type": "string",
        "value": "25dp"
    },
    "_margin_": [
        0,
        0,
        0,
        0
    ],
    "_orientation_": 6,
    "_padding_": [
        0,
        0,
        0,
        0
    ],
    "_percent_": true,
    "_right_": {
        "type": "string",
        "value": "3%"
    },
    "_skin_": "s8cee9ddcb344024afcc0f0e0d2a9e37",
    "_width_": {
        "type": "string",
        "value": "44dp"
    },
    "allboxes": [],
    "autogrowmode": 0,
    "canUpdateUI": true,
    "centery": {
        "type": "string",
        "value": "50%"
    },
    "children": [
        "CopyflxRoundDBlue0j40e19dd87274a",
        "Copyflxlakeer0e8f83b92988f43"
    ],
    "clipbounds": true,
    "containerweight": 100,
    "enablescrolling": true,
    "id": "flxStopCardSwitchOn",
    "ide_onClick": "AS_FlexContainer_bdd7c303d8aa46ef97afdf1c98e503a7",
    "info": null,
    "isvisible": false,
    "kuid": "cfc6d1e0e2fa474a9ad1f107eee664ae",
    "layouttype": 2,
    "name": "kony.ui.FlexContainer",
    "parent": "flxDeactivateKA",
    "pf": "frmManageCardsKA",
    "snapgridsize": 10,
    "snaptogrid": true,
    "wType": "FlexContainer",
    "widgetalignment": 1,
    "zindex": 1
}