{
    "DNDConfig": null,
    "_height_": {
        "type": "string",
        "value": "100dp"
    },
    "_margin_": [
        0,
        0,
        0,
        0
    ],
    "_padding_": [
        0,
        0,
        0,
        0
    ],
    "_skin_": "s9c14c5cfa624594965bca8fa71d4023",
    "allboxes": [],
    "autogrowmode": 0,
    "canUpdateUI": true,
    "children": [
        "lblMilesKA",
        "lblAddress1KA",
        "lblAddress2KA",
        "contactListDivider",
        "informationListDivider",
        "imgDirKA"
    ],
    "clipbounds": true,
    "containerId": true,
    "containerweight": 100,
    "enabled": false,
    "enablescrolling": true,
    "id": "CopyFlexContainer08af3de49f89842",
    "info": null,
    "isTemplate": true,
    "isvisible": true,
    "kuid": "9e9de8112db8481aa8bc59793dd6b90f",
    "layouttype": 2,
    "name": "kony.ui.FlexContainer",
    "orientation": 6,
    "parent": "segdirectionInfoKA",
    "percent": true,
    "pf": "segdirectionInfoKA",
    "snapgridsize": 10,
    "snaptogrid": true,
    "wType": "FlexContainer",
    "widgetalignment": 1
}