{
    "DNDConfig": null,
    "__parentReadjusting__": false,
    "_height_": {
        "type": "string",
        "value": "10%"
    },
    "_margin_": [
        0,
        0,
        0,
        0
    ],
    "_orientation_": 6,
    "_padding_": [
        0,
        0,
        0,
        0
    ],
    "_percent_": true,
    "_skin_": "sbd1d8e38f474cbc999731225d6c9498",
    "_top_": {
        "type": "string",
        "value": "6%"
    },
    "_width_": {
        "type": "string",
        "value": "70%"
    },
    "allboxes": [],
    "autogrowmode": 0,
    "canUpdateUI": true,
    "centerx": {
        "type": "string",
        "value": "50%"
    },
    "children": [
        "lblDebit"
    ],
    "clipbounds": true,
    "containerweight": 100,
    "enablescrolling": true,
    "id": "flxapplyDebit",
    "ide_onClick": "AS_Button_he29dc34a4024cb3ab60bf4e7d31a84e",
    "info": null,
    "isvisible": true,
    "kuid": "dec359fabe574a3eb969f0b6f5124e6c",
    "layouttype": 2,
    "name": "kony.ui.FlexContainer",
    "parent": "flxApplyNewCards",
    "pf": "frmCardsLandingKA",
    "snapgridsize": 10,
    "snaptogrid": true,
    "wType": "FlexContainer",
    "widgetalignment": 1,
    "zindex": 1
}