{
    "DNDConfig": null,
    "__parentReadjusting__": false,
    "_height_": {
        "type": "string",
        "value": "90%"
    },
    "_left_": {
        "type": "string",
        "value": "2%"
    },
    "_margin_": [
        0,
        0,
        0,
        0
    ],
    "_orientation_": 6,
    "_padding_": [
        0,
        0,
        0,
        0
    ],
    "_percent_": true,
    "_skin_": "s388f0c575ef4d08ac3a5ed0a4b90085",
    "_top_": {
        "type": "string",
        "value": "0%"
    },
    "_width_": {
        "type": "string",
        "value": "20%"
    },
    "allboxes": [],
    "autogrowmode": 0,
    "canUpdateUI": true,
    "children": [
        "CopylblBackIcon0bed99bb0a62d4b",
        "CopylblBack0j735e1c57c4645"
    ],
    "clipbounds": true,
    "containerweight": 100,
    "enablescrolling": true,
    "id": "flxBackHistory",
    "ide_onClick": "AS_FlexContainer_b07c48a28eeb4c1e89635dc3eaa69155",
    "info": null,
    "iscustomlayout": true,
    "isvisible": true,
    "kuid": "f803159849734cbd9922ad7147da8bda",
    "layouttype": 3,
    "name": "kony.ui.FlexContainer",
    "parent": "flxHdrMain",
    "pf": "frmIPSRequests",
    "retainflexpositionproperties": true,
    "retainflowhorizontalalignment": true,
    "snapgridsize": 10,
    "snaptogrid": true,
    "wType": "FlexContainer",
    "widgetalignment": 1,
    "zindex": 1
}