{
    "DNDConfig": null,
    "__parentReadjusting__": false,
    "_height_": {
        "type": "string",
        "value": "90%"
    },
    "_left_": {
        "type": "string",
        "value": "2%"
    },
    "_margin_": [
        0,
        0,
        0,
        0
    ],
    "_orientation_": 6,
    "_padding_": [
        0,
        0,
        0,
        0
    ],
    "_percent_": true,
    "_skin_": "s388f0c575ef4d08ac3a5ed0a4b90085",
    "_top_": {
        "type": "string",
        "value": "0dp"
    },
    "_width_": {
        "type": "string",
        "value": "20%"
    },
    "allboxes": [],
    "autogrowmode": 0,
    "canUpdateUI": true,
    "children": [
        "lblHeaderBackIcon",
        "lblHeaderBack"
    ],
    "clipbounds": true,
    "containerweight": 100,
    "enablescrolling": true,
    "id": "flxHeaderBack",
    "ide_onClick": "AS_FlexContainer_ea493460bd8b42eaaa9ec7a0e15eaeef",
    "info": null,
    "iscustomlayout": true,
    "isvisible": true,
    "kuid": "fb4ae671898c4feab9627e9f4edff222",
    "layouttype": 3,
    "name": "kony.ui.FlexContainer",
    "parent": "flxConfirmHeader",
    "pf": "frmIPSRequests",
    "retainflexpositionproperties": true,
    "retainflowhorizontalalignment": true,
    "snapgridsize": 10,
    "snaptogrid": true,
    "wType": "FlexContainer",
    "widgetalignment": 1,
    "zindex": 1
}