{
    "@class": "com.kony.gen.viz.model.component.KVizLabel",
    "DNDConfig": null,
    "__parentReadjusting__": false,
    "_height_": {
        "type": "ref",
        "value": "preferred"
    },
    "_left_": {
        "type": "string",
        "value": "88%"
    },
    "_margin_": [
        1,
        1,
        1,
        1
    ],
    "_padding_": [
        0,
        0,
        0,
        0
    ],
    "_skin_": "s714678f6601403babca360f772fb8f2",
    "_text_": "JOD",
    "_top_": {
        "type": "string",
        "value": "42%"
    },
    "_width_": {
        "type": "ref",
        "value": "preferred"
    },
    "_wrapping_": 2,
    "android": {
        "textStyle": {
            "letterSpacing": 0,
            "strikeThrough": false
        }
    },
    "canUpdateUI": true,
    "centery": {
        "type": "string",
        "value": "70%"
    },
    "containerweight": 100,
    "contentalignment": 4,
    "id": "lblCurrCodeRP",
    "info": null,
    "ipad": {
        "psp": {
            "wrapping": 2
        }
    },
    "iphone": {
        "psp": {
            "wrapping": 2
        }
    },
    "isvisible": true,
    "kuid": "fe66aad2c526406db79bd22ba5714f12",
    "name": "kony.ui.Label",
    "parent": "flxRPAmount",
    "pf": "frmIPSRequests",
    "textstyle": {},
    "tooltip": "",
    "wType": "Label",
    "zindex": 5
}