{
    "DNDConfig": null,
    "__parentReadjusting__": false,
    "_height_": {
        "type": "string",
        "value": "100%"
    },
    "_left_": {
        "type": "string",
        "value": "0dp"
    },
    "_margin_": [
        0,
        0,
        0,
        0
    ],
    "_padding_": [
        0,
        0,
        0,
        0
    ],
    "_skin_": "s388f0c575ef4d08ac3a5ed0a4b90085",
    "_top_": {
        "type": "string",
        "value": "0dp"
    },
    "_width_": {
        "type": "string",
        "value": "100%"
    },
    "allboxes": [],
    "autogrowmode": 0,
    "canUpdateUI": true,
    "children": [
        "flxAndroidTittleBarKA",
        "iosTitleBar",
        "flxHeader",
        "FlexScrollContainer0dacb1b5f2c154d",
        "lblRequestLimitHint",
        "managepayeesegment",
        "lblSearchResult",
        "FlexContainer0f1418ee9e2994a"
    ],
    "clipbounds": false,
    "containerweight": 100,
    "enabled": false,
    "enablescrolling": true,
    "id": "mainContainer",
    "info": null,
    "isvisible": true,
    "kuid": "31f00adba1bd4022a2890a57b69781dd",
    "layouttype": 4,
    "minheight": {
        "type": "string",
        "value": "100%"
    },
    "name": "kony.ui.FlexContainer",
    "orientation": 6,
    "parent": "frmManagePayeeKA",
    "percent": true,
    "pf": "frmManagePayeeKA",
    "snapgridsize": 10,
    "snaptogrid": true,
    "wType": "FlexContainer",
    "widgetalignment": 1,
    "zindex": 1
}