{
    "@class": "com.kony.gen.viz.model.component.KVizButton",
    "DNDConfig": null,
    "__parentReadjusting__": false,
    "_height_": {
        "type": "string",
        "value": "8%"
    },
    "_margin_": [
        6,
        6,
        6,
        6
    ],
    "_padding_": [
        0,
        0,
        0,
        0
    ],
    "_skin_": "sf7766faf6e34d0789442a84c1e76e1a",
    "_text_": "",
    "_width_": {
        "type": "string",
        "value": "70%"
    },
    "canUpdateUI": true,
    "centerx": {
        "type": "string",
        "value": "50%"
    },
    "centery": {
        "type": "string",
        "value": "94%"
    },
    "containerweight": 100,
    "contentalignment": 5,
    "displaytext": true,
    "focusskin": "sad5d6d4890b44858a39e4bf8a290332",
    "id": "btnConfirm",
    "ide_onClick": "AS_Button_bc2f34feeb23416599f2830f49e9d548",
    "info": null,
    "isvisible": true,
    "kuid": "c415e1f16b16466fa84a84c7ceb6500e",
    "name": "kony.ui.Button",
    "parent": "flxLoanPostponeConfirmation",
    "pf": "frmLoanPostpone",
    "texti18n": "i18n.Bene.Confirm",
    "wType": "Button",
    "zindex": 1
}