{
    "@class": "com.kony.gen.viz.model.component.KVizButton",
    "DNDConfig": null,
    "_margin_": [
        6,
        6,
        6,
        6
    ],
    "_padding_": [
        3,
        2,
        3,
        2
    ],
    "_skin_": "se828e94a4294a4c82e0851b5e8218cd",
    "_text_": "No",
    "canUpdateUI": true,
    "containerweight": 50,
    "contentalignment": 5,
    "disabledSkins": {},
    "displaytext": true,
    "donotUpdateContainerWeight": false,
    "focusskin": "se828e94a4294a4c82e0851b5e8218cd",
    "id": "btnNo",
    "info": null,
    "isvisible": true,
    "kuid": "bbb9bd47f84c4cde9dcf9fbf78fa16a3",
    "margininpixel": false,
    "name": "kony.ui.Button",
    "paddInPixel": [
        -11.56,
        -11.56,
        -11.56,
        -11.56
    ],
    "paddinginpixel": false,
    "parent": "HBxSubmit",
    "pf": "PopupDeviceRegistration",
    "wType": "Button"
}