{
  "operationConfig" : {
    "name" : "prGetCrCardStmt5101",
    "type" : "MappedToBackend",
    "cachable" : false,
    "smsEnabled" : false,
    "security" : "public",
    "responseEncoding" : "UTF-8",
    "httpMethod" : "GET",
    "decodeResponseBody" : false,
    "iMapping" : "<?xml version=\"1.0\" encoding=\"UTF-8\" standalone=\"yes\"?><mapper xmlns=\"http://www.kony.com/ns/mapper\">    <map inputpath=\"request_in\" outputpath=\"request_out\">        <set-param inputpath=\"custId\" outputpath=\"custId\"/>        <set-param inputpath=\"Year\" outputpath=\"Year\"/>        <set-param inputpath=\"usr\" outputpath=\"usr\"/>        <set-param inputpath=\"Month\" outputpath=\"Month\"/>        <set-param inputpath=\"CardNum\" outputpath=\"CardNum\"/>        <set-param inputpath=\"pass\" outputpath=\"pass\"/>    </map></mapper>",
    "oMapping" : "<?xml version=\"1.0\" encoding=\"UTF-8\" standalone=\"yes\"?><mapper xmlns=\"http://www.kony.com/ns/mapper\">                <map inputpath=\"response_in\" outputpath=\"response_out\">                                                          <set-param inputpath=\"CreditCardStatement\" outputpath=\"CreditCardStatement\"/>                  </map></mapper>",
    "applyCommonMapping" : false,
    "backendMeta" : {
      "serviceVersion" : "1.0",
      "operationName" : "prGetCrCardStmt",
      "serviceName" : "BOJGetCrCardStmt"
    },
    "relationshipHierarchyMapping" : {
      "children" : [ ],
      "name" : "Cards",
      "selected" : true
    },
    "requestXmlMappingOverride" : true,
    "responseXmlMappingOverride" : true
  }
}